<svg width="40" height="39" viewBox="0 0 40 39" fill="none" xmlns="http://www.w3.org/2000/svg">
<path d="M4.33788 5.91468L13.0853 14.6621C13.3106 14.8874 13.6109 15 13.8737 15C14.1365 15 14.4369 14.8874 14.6621 14.6621C15.1126 14.2116 15.1126 13.4983 14.6621 13.0853L5.91468 4.33788C5.46416 3.88737 4.75085 3.88737 4.33788 4.33788C3.88737 4.75085 3.88737 5.46416 4.33788 5.91468Z" fill="#EB7929"/>
<path d="M0.349138 7.35156C-0.116379 7.82031 -0.116379 8.5625 0.349138 8.99219L12.1422 20.8672C12.8793 21.6094 13.8491 22 14.8966 22C15.944 22 16.9138 21.6094 17.6509 20.8672C18.1164 20.3984 18.1164 19.6562 17.6509 19.2266C17.1853 18.7578 16.4483 18.7578 16.0216 19.2266C15.4397 19.8125 14.431 19.8125 13.8103 19.2266L1.97845 7.35156C1.55172 6.88281 0.814655 6.88281 0.349138 7.35156Z" fill="#EB7929"/>
<path d="M14.2254 26.7383C14.698 26.2897 14.698 25.5794 14.2254 25.1682C13.7527 24.7196 13.0044 24.7196 12.5711 25.1682L4.02407 33.243C3.35449 33.8785 3 34.7383 3 35.6355C3 36.5327 3.35449 37.3925 4.02407 38.028C4.69365 38.6635 5.59956 39 6.54486 39C7.49015 39 8.39606 38.6635 9.06565 38.028L20.9606 26.6636L32.9344 38.028C33.6039 38.6635 34.5098 39 35.4551 39C36.4004 39 37.3063 38.6635 37.9759 38.028C38.6455 37.3925 39 36.5327 39 35.6355C39 34.7383 38.6455 33.8785 37.9759 33.243L30.4923 26.1402C30.0197 25.6916 29.2713 25.6916 28.8381 26.1402C28.4048 26.5888 28.3654 27.2991 28.8381 27.7103L36.3217 34.8131C36.558 35.0374 36.6761 35.2991 36.6761 35.5981C36.6761 35.8972 36.558 36.1963 36.3217 36.3832C35.8884 36.7944 35.1007 36.7944 34.6674 36.3832L21.7877 24.3084C21.3545 23.8972 20.5667 23.8972 20.1335 24.3084L7.37199 36.4206C6.93873 36.8318 6.15098 36.8318 5.71772 36.4206C5.4814 36.1963 5.36324 35.9346 5.36324 35.6355C5.36324 35.3364 5.4814 35.0374 5.71772 34.8505L14.2254 26.7383Z" fill="#EB7929"/>
<path d="M35.912 1.45813L25.0503 12.2956C24.5763 12.7685 24.5763 13.5172 25.0503 13.9507C25.5242 14.4236 26.2747 14.4236 26.7092 13.9507L36.6625 4.0197C38.1634 6.30542 37.9264 9.45813 35.912 11.468L26.1957 21.202L21.772 16.9064C22.0485 16.3547 22.2065 15.7241 22.2065 15.0936C22.2065 14.0296 21.8115 13.0443 21.061 12.2956L9.01436 0.35468C8.5404 -0.118227 7.78995 -0.118227 7.35548 0.35468C6.88151 0.827586 6.88151 1.57635 7.35548 2.00985L19.3627 13.9901C19.6786 14.3054 19.8366 14.6995 19.8366 15.0936C19.8366 15.4877 19.6786 15.9212 19.3627 16.197C19.1257 16.4335 19.0072 16.7094 19.0072 17.0246C19.0072 17.3399 19.1257 17.6552 19.3627 17.8522L25.3268 23.6453C25.5637 23.8818 25.8797 24 26.1562 24C26.4327 24 26.7487 23.8818 26.9856 23.6453L37.5709 13.0837C40.8097 9.85222 40.8097 4.61084 37.5709 1.37931C37.1364 1.02463 36.3465 1.02463 35.912 1.45813Z" fill="#EB7929"/>
</svg>
