<svg width="42" height="42" viewBox="0 0 42 42" fill="none" xmlns="http://www.w3.org/2000/svg">
<path d="M10.3873 30.0689C10.2587 29.9403 10.0657 29.9403 9.9371 30.0689L8.61857 31.3874C8.48994 31.5161 8.48994 31.709 8.61857 31.8376L9.9371 33.1883C10.0014 33.2527 10.0657 33.2848 10.1622 33.2848C10.2587 33.2848 10.323 33.2527 10.3873 33.1883L11.7059 31.8376C11.7702 31.7733 11.8023 31.709 11.8023 31.6125C11.8023 31.5161 11.7702 31.4517 11.7059 31.3874L10.3873 30.0689Z" fill="#EB7929"/>
<path d="M21.9326 34.7642H20.0352C19.8423 34.7642 19.7136 34.925 19.7136 35.0858V36.9831C19.7136 37.1439 19.8423 37.3047 20.0352 37.3047H21.9326C22.0934 37.3047 22.2542 37.1439 22.2542 36.9831V35.0858C22.2542 34.925 22.1256 34.7642 21.9326 34.7642Z" fill="#EB7929"/>
<path d="M10.5483 8.74711C10.4196 8.61848 10.2267 8.61848 10.098 8.74711L8.74736 10.0656C8.68304 10.13 8.65088 10.1943 8.65088 10.2908C8.65088 10.3872 8.68304 10.4516 8.74736 10.5159L10.0659 11.8344C10.1302 11.8987 10.1945 11.9309 10.291 11.9309C10.3875 11.9309 10.4518 11.8987 10.5161 11.8344L11.8346 10.5159C11.9633 10.3872 11.9633 10.1943 11.8346 10.0656L10.5483 8.74711Z" fill="#EB7929"/>
<path d="M6.75341 19.6494H4.85602C4.66306 19.6494 4.53442 19.8102 4.53442 19.971V21.8684C4.53442 22.0292 4.66306 22.19 4.85602 22.19H6.75341C6.94637 22.19 7.07501 22.0292 7.07501 21.8684V19.971C7.07501 19.8102 6.94637 19.6494 6.75341 19.6494Z" fill="#EB7929"/>
<path d="M20.0674 7.23589H21.9648C22.1256 7.23589 22.2864 7.0751 22.2864 6.9143V5.01691C22.2864 4.85611 22.1256 4.69531 21.9648 4.69531H20.0674C19.8745 4.69531 19.7458 4.85611 19.7458 5.01691V6.9143C19.7458 7.0751 19.8745 7.23589 20.0674 7.23589Z" fill="#EB7929"/>
<path d="M31.8055 30.0047C31.7412 29.9404 31.6769 29.9082 31.5804 29.9082C31.484 29.9082 31.4196 29.9404 31.3553 30.0047L30.0368 31.3232C29.9725 31.3875 29.9403 31.484 29.9403 31.5483C29.9403 31.6448 29.9725 31.7091 30.0368 31.7734L31.3553 33.092C31.4196 33.1563 31.5161 33.1884 31.5804 33.1884C31.6769 33.1884 31.7412 33.1563 31.8055 33.092L33.1241 31.7734C33.2527 31.6448 33.2527 31.4518 33.1241 31.3232L31.8055 30.0047Z" fill="#EB7929"/>
<path d="M21 0C9.42266 0 0 9.42266 0 21C0 32.5773 9.42266 42 21 42C32.5773 42 42 32.5773 42 21C42 9.42266 32.5773 0 21 0ZM21 39.4273C10.8377 39.4273 2.57274 31.1623 2.57274 21C2.57274 10.8377 10.8377 2.57274 21 2.57274C31.1623 2.57274 39.4273 10.8377 39.4273 21C39.4273 31.1623 31.1623 39.4273 21 39.4273Z" fill="#EB7929"/>
<path d="M36.8545 19.6494H34.9571C34.7641 19.6494 34.6355 19.8102 34.6355 19.971V21.8684C34.6355 22.0292 34.7641 22.19 34.9571 22.19H36.8545C37.0153 22.19 37.1761 22.0292 37.1761 21.8684V19.971C37.1761 19.8102 37.0153 19.6494 36.8545 19.6494Z" fill="#EB7929"/>
<path d="M22.7045 11.9632C22.801 11.9632 22.9296 11.8989 22.9939 11.8024C23.0582 11.7059 23.0582 11.5773 22.9939 11.4808L21.2895 8.3935C21.193 8.20054 20.8392 8.20054 20.7106 8.3935L19.0062 11.4808C18.9418 11.5773 18.9418 11.7059 19.0062 11.8024C19.0705 11.8989 19.167 11.9632 19.2956 11.9632H19.9066V19.4241L15.9832 15.5007L16.4013 15.0826C16.4977 14.9861 16.5299 14.8897 16.4977 14.761C16.4656 14.6646 16.4013 14.5681 16.2726 14.5359L12.8637 13.5711C12.7673 13.539 12.6386 13.5711 12.5422 13.6676C12.4457 13.7641 12.4457 13.8606 12.4457 13.9892L13.4105 17.3981C13.4426 17.4946 13.5391 17.591 13.6356 17.6232C13.732 17.6554 13.8607 17.6232 13.9572 17.5267L14.3752 17.0765L19.0062 21.6431C19.1991 22.6079 20.0353 23.2832 21 23.2832C22.1256 23.2832 23.0261 22.3828 23.0261 21.2572C23.0261 20.5497 22.6723 19.9387 22.0935 19.5528V11.9632H22.7045Z" fill="#EB7929"/>
<path d="M31.4197 11.9956C31.5161 11.9956 31.5805 11.9634 31.6448 11.8991L32.9955 10.5806C33.1241 10.4519 33.1241 10.259 32.9955 10.1303L31.6448 8.81181C31.5805 8.74749 31.5161 8.71533 31.4197 8.71533C31.3232 8.71533 31.2589 8.74749 31.1945 8.81181L29.876 10.1303C29.7474 10.259 29.7474 10.4519 29.876 10.5806L31.1945 11.8991C31.2589 11.9634 31.3553 11.9956 31.4197 11.9956Z" fill="#EB7929"/>
</svg>
