<?xml version="1.0" encoding="UTF-8"?>
<svg width="16px" height="21px" viewBox="0 0 16 21" version="1.1" xmlns="http://www.w3.org/2000/svg" xmlns:xlink="http://www.w3.org/1999/xlink">
    <!-- Generator: Sketch 52.4 (67378) - http://www.bohemiancoding.com/sketch -->
    <title>Group 9</title>
    <desc>Created with Sketch.</desc>
    <g id="Design" stroke="none" stroke-width="1" fill="none" fill-rule="evenodd">
        <g id="ormco-dealer-speakers-top" transform="translate(-89.000000, -443.000000)" fill="#FFFFFF">
            <g id="Group" transform="translate(44.000000, 344.000000)">
                <g id="Group-8" transform="translate(30.000000, 91.000000)">
                    <g id="Group-9" transform="translate(15.000000, 8.000000)">
                        <path d="M12.7708211,4.48 L10.5263158,4.48 L10.5263158,6.16421053 L12.7708211,6.16421053 C13.6226947,6.16421053 14.3157895,6.85726316 14.3157895,7.70917895 L14.3157895,17.2508211 C14.3157895,18.1026947 13.6226947,18.7957895 12.7708211,18.7957895 L3.22917895,18.7957895 C2.37726316,18.7957895 1.68421053,18.1026947 1.68421053,17.2508211 L1.68421053,7.70917895 C1.68421053,6.85726316 2.37726316,6.16421053 3.22917895,6.16421053 L5.05263158,6.16421053 L5.05263158,4.48 L3.22917895,4.48 C1.44858947,4.48 0,5.92858947 0,7.70917895 L0,17.2508211 C0,19.0314105 1.44858947,20.48 3.22917895,20.48 L12.7708211,20.48 C14.5514105,20.48 16,19.0314105 16,17.2508211 L16,7.70917895 C16,5.92858947 14.5514105,4.48 12.7708211,4.48 Z" id="Path"></path>
                        <path d="M9.43768595,-8.8817842e-16 C7.52452979,-8.8817842e-16 5.8518316,1.631104 5.8518316,3.64322133 L5.8518316,11.0933333 L4.48,11.0933333 L7.61532529,14.72 L10.8723604,11.0933333 L9.55124119,11.0933333 L9.55124119,3.56962133 C9.55124119,2.53312 10.2016989,1.6928 11.1872642,1.6928 C11.8992664,1.6928 12.5136574,2.13137067 12.8,2.765568 C12.4264727,1.17755733 11.0631202,-8.8817842e-16 9.43768595,-8.8817842e-16 Z" id="Path"></path>
                    </g>
                </g>
            </g>
        </g>
    </g>
</svg>