<?xml version="1.0" encoding="UTF-8"?>
<svg width="12px" height="12px" viewBox="0 0 12 12" version="1.1" xmlns="http://www.w3.org/2000/svg" xmlns:xlink="http://www.w3.org/1999/xlink">
    <!-- Generator: Sketch 52.4 (67378) - http://www.bohemiancoding.com/sketch -->
    <title>Path</title>
    <desc>Created with Sketch.</desc>
    <g id="Design" stroke="none" stroke-width="1" fill="none" fill-rule="evenodd">
        <g id="ormco-dealer-speakers-top" transform="translate(-177.000000, -614.000000)" fill="#FFFFFF">
            <g id="Group-Copy" transform="translate(44.000000, 547.000000)">
                <g id="Group-4" transform="translate(129.000000, 60.000000)">
                    <path d="M15.76624,11.64568 L10.49056,7.17904 C10.24888,6.97456 9.89512,6.97456 9.65344,7.17904 L4.378,11.64568 C4.10512,11.87632 4.07128,12.28504 4.3024,12.55792 C4.53328,12.8308 4.94176,12.86488 5.21488,12.63352 L5.29936,12.562 L5.29936,17.7064 C5.29936,17.92984 5.48032,18.1108 5.704,18.1108 L8.68168,18.1108 L8.68168,13.6696 L11.46304,13.6696 L11.46304,18.1108 L14.44048,18.1108 C14.66416,18.1108 14.8456,17.92984 14.8456,17.7064 L14.8456,12.56224 L14.93008,12.63376 C15.05152,12.73672 15.20056,12.78736 15.34768,12.78736 C15.532,12.78736 15.71416,12.7096 15.84232,12.55816 C16.07296,12.28504 16.03864,11.87632 15.76624,11.64568 Z" id="Path"></path>
                </g>
            </g>
        </g>
    </g>
</svg>