<?xml version="1.0" encoding="UTF-8"?>
<svg width="14px" height="10px" viewBox="0 0 14 10" version="1.1" xmlns="http://www.w3.org/2000/svg" xmlns:xlink="http://www.w3.org/1999/xlink">
    <!-- Generator: Sketch 52.4 (67378) - http://www.bohemiancoding.com/sketch -->
    <title>iconfinder_users-men_350875</title>
    <desc>Created with Sketch.</desc>
    <g id="Design" stroke="none" stroke-width="1" fill="none" fill-rule="evenodd">
        <g id="ormco-dealer-event-page" transform="translate(-545.000000, -346.000000)" fill="#FAFAFA">
            <g id="Group-7-Copy-2" transform="translate(542.000000, 338.000000)">
                <g id="iconfinder_users-men_350875" transform="translate(3.000000, 8.000000)">
                    <path d="M7.12504186,6.39506294 C6.88297394,6.29597758 6.42171263,6.08379229 5.95291026,5.86423092 C5.81541166,5.7993214 5.69123559,5.62647522 5.67539937,5.4779701 L5.6216065,4.96902046 C5.97226564,4.65627459 6.28773319,4.22133163 6.34102332,3.73598544 L6.42020442,3.73598544 C6.54412912,3.73598544 6.6610155,3.64673485 6.67936541,3.53756884 L6.80354147,2.80315696 C6.81962906,2.64653816 6.66528877,2.55212431 6.5411127,2.55212431 C6.54337501,2.53638867 6.54639144,2.52040716 6.54865375,2.50713021 C6.56448997,2.41910897 6.57429335,2.33428403 6.58007482,2.25118017 C6.58811862,2.18454957 6.5946542,2.11472266 6.59716789,2.0429288 C6.60973631,1.71223446 6.55518934,1.41940401 6.46218297,1.24557435 C6.3596246,1.00044256 6.19573229,0.762440991 5.97126017,0.558615264 C5.58943132,0.212922895 5.1698972,0 4.76192602,0 C4.52312589,0 4.28809628,0.0730232101 4.06689195,0.234805271 C4.01008266,0.225216365 3.95176515,0.220544847 3.89244217,0.220544847 C3.52594681,0.220544847 3.12350574,0.40175059 2.8216121,0.740804485 C2.6313261,0.955202596 2.5121774,1.19984264 2.46089821,1.44128639 C2.41489777,1.59175846 2.38448217,1.77419355 2.37744385,1.97187254 C2.36914869,2.19094217 2.39152049,2.39083399 2.43375041,2.55286192 C2.3138476,2.560238 2.19545301,2.65538946 2.19545301,2.80315696 L2.31912634,3.53756884 C2.33722488,3.64648899 2.45436263,3.73598544 2.5785387,3.73598544 L2.64917327,3.73598544 C2.76178638,4.26116247 3.05287117,4.69167978 3.3748743,4.99237805 L3.32334375,5.48411684 C3.30750753,5.63262195 3.18333146,5.80645161 3.04583285,5.87111526 C2.59236397,6.08403816 2.14140877,6.2893391 1.87445536,6.39506294 C1.2601106,6.63773603 0,7.03260228 0,8.04558419 L0,9.32754721 C0,9.69880999 0.335828398,10 0.750083786,10 L8.24991617,10 C8.6639202,10 8.99999996,9.69856412 8.99999996,9.32754721 C8.99999996,8.95603855 8.99999996,8.04558419 8.99999996,8.04558419 C9.00025133,7.03260228 7.77834875,6.66281471 7.12504186,6.39506294 Z" id="Path"></path>
                    <path d="M12.3472067,6.75546119 C12.1391858,6.66841197 11.7476617,6.48497782 11.3445107,6.29220796 C11.2059986,6.22610102 11.0811355,6.04821784 11.0654645,5.89581863 L11.0219899,5.47167447 C11.3308617,5.19008917 11.6088969,4.79874617 11.6561629,4.3622385 L11.7256717,4.3622385 C11.8353692,4.3622385 11.938495,4.28200183 11.9541661,4.18385068 L12.0638636,3.52278126 C12.0782709,3.38173629 11.9417808,3.29670561 11.8325888,3.29670561 C11.8348637,3.28232356 11.837644,3.26819384 11.8396661,3.25633496 C11.8533151,3.17735987 11.8619089,3.10065563 11.8667113,3.02622224 C11.8742941,2.9661709 11.8798548,2.90359639 11.8818769,2.83900335 C11.8927455,2.54126979 11.844974,2.27759897 11.76308,2.1211627 C11.672845,1.90063801 11.5277612,1.68642124 11.3295979,1.50298709 C10.7965286,1.00945588 10.1787849,0.816686014 9.65102357,1.21130913 C9.2908416,1.14949157 8.86190912,1.31248808 8.55278453,1.66699286 C8.38444685,1.86026736 8.279299,2.08028741 8.2345606,2.29727966 C8.19386636,2.43302598 8.16707388,2.59703175 8.1607549,2.77516725 C8.15367764,2.97197418 8.17339286,3.1518759 8.21004296,3.29796719 C8.10464234,3.30477974 8,3.39031506 8,3.52328589 L8.10919201,4.18435531 C8.1253686,4.28250646 8.22874714,4.36274313 8.33819191,4.36274313 L8.40062345,4.36274313 C8.49970508,4.83507975 8.75625574,5.22263801 9.04035716,5.49312138 L8.99789361,5.90212654 C8.98929979,5.98539101 8.94759451,6.07420644 8.88920712,6.14990141 C9.55244745,6.48119307 10.2740752,7.02215981 10.2740752,7.99433556 L10.2740752,9.30991417 C10.2740752,9.56525854 10.1921812,9.80218381 10.0531636,10 L13.3385286,10 C13.7040185,10 13.9999996,9.729012 13.9999996,9.39494486 C13.9999996,9.0606254 13.9999996,8.24135349 13.9999996,8.24135349 C14.0007579,7.32922908 12.9232451,6.99642352 12.3472067,6.75546119 Z" id="Path"></path>
                </g>
            </g>
        </g>
    </g>
</svg>