'9871', '', 'rumiancev_pavel@mail.ru', ' 79213124007', 'Румянцев', 'Павел', 'Иванович', 'Ормко', 'Не врач', '1799', '', ',,', '', '', '4664', '', <a href='http://ormco.ru/'>скачать файл</a>, '', <a href='http://ormco.ru/'>скачать файл</a>, , 4664, 22.06.2018 16:33
'9875', '', 'derbitova.valera@yandex.ru', ' 7 (937) 697-3915', 'Дербитова ', 'Валерия', 'Валерьевна ', 'волггму', 'Ортодонт', '1799', '', ',,', '', '', '4664', '', <a href='http://ormco.ru/'>скачать файл</a>, '', <a href='http://ormco.ru/'>скачать файл</a>, , 4664, 22.06.2018 18:28
'9873', '', 'leonova731@mail.ru', ' 7 (951) 1045566', 'Леонова ', 'Татьяна ', 'Евгеньевна ', 'РязГМУ', 'Ортодонт', '1799', '', ',,', '', '', '4664', '', <a href='http://ormco.ru/'>скачать файл</a>, '', <a href='http://ormco.ru/'>скачать файл</a>, , 4664, 22.06.2018 19:49
'9873', '', 'Lubow.ru@mail.ru', ' 7 (915) 9840506', 'Майорова', 'Любовь', 'Ивановна', 'Гута дент', 'Ортодонт', '1799', '', ',,', '', '', '4664', '', <a href='http://ormco.ru/'>скачать файл</a>, '', <a href='http://ormco.ru/'>скачать файл</a>, , 4664, 22.06.2018 22:10
'9871', '', 'andreeva.natalia239@gmail.com', ' 7 (911) 1790300', 'Андреева', 'Наталья', 'Викторовна', 'ПСПБГМУ имени ак. И.П. Павлова', 'Другая специализация', '1799', '', ',,', '', '', '4664', '', <a href='http://ormco.ru/'>скачать файл</a>, '', <a href='http://ormco.ru/'>скачать файл</a>, , 4664, 22.06.2018 23:32
'9870', '', 'alr_92@mail.ru', ' 7 (965) 387-3809', 'Abubekirova', 'Lina', 'Ruslanovna', 'МГМСУ им.А.И.Евдокимова', 'Ортодонт', '1799', '', ',,', '', '', '4664', '', <a href='http://ormco.ru/'>скачать файл</a>, '', <a href='http://ormco.ru/'>скачать файл</a>, , 4664, 23.06.2018 07:00
'9873', '', 'insertis@mail.ru', ' 7 (919) 2343405', 'Трощенко', 'Илья', 'Сергеевич', 'ВКСП №7', 'Ортодонт', '1799', '', ',,', '', '', '4664', '', <a href='http://ormco.ru/'>скачать файл</a>, '', <a href='http://ormco.ru/'>скачать файл</a>, , 4664, 23.06.2018 09:19
'9870', '', 'Akhmadova_mi@mail.ru', ' 7 (925) 645234', 'Ахмадова', 'Милана', 'Сайд-Магомедовна', 'МГМСУ', 'Ортодонт', '1799', '', ',,', '', '', '4664', '', <a href='http://ormco.ru/'>скачать файл</a>, '', <a href='http://ormco.ru/'>скачать файл</a>, , 4664, 23.06.2018 09:41
'9873', '', 'serjtk2010@gmail.com', ' 79040086673', 'Тананайко', 'Сергей', 'Владимирович', 'Улыбка', 'Ортодонт', '1799', '', ',,', '', '', '4664', '', <a href='http://ormco.ru/'>скачать файл</a>, '', <a href='http://ormco.ru/'>скачать файл</a>, , 4664, 23.06.2018 09:42
'9870', '', 'aisha.ausheva09@mail.ru', ' 7 (999)989-7894', 'Аушева', 'Айшат', 'Даудовна', 'МГМСУ', 'Ортодонт', '1799', '', ',,', '', '', '4664', '', <a href='http://ormco.ru/'>скачать файл</a>, '', <a href='http://ormco.ru/'>скачать файл</a>, , 4664, 23.06.2018 12:11
'9876', '', 'moiseenkodenis1@mail.ru', ' 79891255073', 'Моисеенко', 'Денис', 'Витальевич', 'КубГМУ', 'Ортодонт', '1799', '', ',,', '', '', '4664', '', <a href='http://ormco.ru/'>скачать файл</a>, '', <a href='http://ormco.ru/'>скачать файл</a>, , 4664, 23.06.2018 15:06
'9873', '', 'Mariykamak@yandex.ru', '79107490243', 'Макаренкова', 'Мария', 'Викторовна', 'ВГМУ им. Н.Н. Бурденко', 'Ортодонт', '1799', '', ',,', '', '', '4664', '', <a href='http://ormco.ru/'>скачать файл</a>, '', <a href='http://ormco.ru/'>скачать файл</a>, , 4664, 23.06.2018 19:03
'9873', '', 'kulakofffka@bk.ru', ' 7 (950)773-5808', 'Кулакова', 'Мария', 'Васильева', 'ВГМУ им.Н.Н. Бурденко', 'Ортодонт', '1799', '', ',,', '', '', '4664', '', <a href='http://ormco.ru/'>скачать файл</a>, '', <a href='http://ormco.ru/'>скачать файл</a>, , 4664, 23.06.2018 19:44
'9873', '', 'lera.belyaeva.1995@mail.ru', ' 7 (950)755-3087', 'Попова', 'Валерия', 'Юрьевна', 'ВГМУ им. Н.Н.Бурденко', 'Ортодонт', '1799', '', ',,', '', '', '4664', '', <a href='http://ormco.ru/'>скачать файл</a>, '', <a href='http://ormco.ru/'>скачать файл</a>, , 4664, 23.06.2018 19:54
'9873', '', 'ms.nastenka0202@mail.ru', ' 7 (920)421-2277', 'Шевченко ', 'Анастасия ', 'Валериевна ', 'вгму им. н.н. бурденко', 'Ортодонт', '1799', '', ',,', '', '', '4664', '', <a href='http://ormco.ru/'>скачать файл</a>, '', <a href='http://ormco.ru/'>скачать файл</a>, , 4664, 23.06.2018 20:08
'9873', '', 'tlbvdv@gmail.com', ' 7 (920) 444-1323', 'Савина', 'Виталина', 'Викторовна', 'Клиника R.E.Dent', 'Ортодонт', '1799', '', ',,', '', '', '4664', '', <a href='http://ormco.ru/'>скачать файл</a>, '', <a href='http://ormco.ru/'>скачать файл</a>, , 4664, 23.06.2018 21:04
'9870', '', 'Vladisvet_s@mail.ru', ' 7 (925) 3053758', 'Гриднева', 'Светлана', 'Владимировна', 'МГМСУ им А.И. Евдокимова', 'Ортодонт', '1799', '', ',,', '', '', '4664', '', <a href='http://ormco.ru/'>скачать файл</a>, '', <a href='http://ormco.ru/'>скачать файл</a>, , 4664, 24.06.2018 00:31
'9878', '', 'nataliy203@mail.ru', ' 89826224615', 'Зеленкина', 'Наталья', 'Юрьевна', 'Its Art', 'Ортодонт', '1799', '', ',,', '', '', '4664', '', <a href='http://ormco.ru/'>скачать файл</a>, '', <a href='http://ormco.ru/'>скачать файл</a>, , 4664, 24.06.2018 12:44
'9876', '', 'dasha331133@gmail.com', ' 7 (952) 8380677', 'Бурцева', 'Дарья', 'Павловна', 'КубГМУ', 'Ортодонт', '1799', '', ',,', '', '', '4664', '', <a href='http://ormco.ru/'>скачать файл</a>, '', <a href='http://ormco.ru/'>скачать файл</a>, , 4664, 24.06.2018 19:51
'9871', '', 'tanuwa_pafos@mail.ru', ' 7 (929) 1109342', 'Юдина', 'Татьяна', 'Вячеславовна', 'СПБИНСТОМ ', 'Ортодонт', '1799', '', ',,', '', '', '4664', '', <a href='http://ormco.ru/'>скачать файл</a>, '', <a href='http://ormco.ru/'>скачать файл</a>, , 4664, 24.06.2018 21:17
'9871', '', 'yulikabobrikova94@gmail.com', ' 7 (931) 9850507', 'Бобрикова', 'Юлия ', 'Геннадьевна', 'СПбИНСТОМ', 'Ортодонт', '1799', '', ',,', '', '', '4664', '', <a href='http://ormco.ru/'>скачать файл</a>, '', <a href='http://ormco.ru/'>скачать файл</a>, , 4664, 25.06.2018 01:43
'9871', '', 'Nadya.dr.88@yandex.ru', ' 7 (911) 0935710', 'Дорошенкова ', 'Надежда', 'Павловна ', 'СГМУ', 'Ортодонт', '1799', '', ',,', '', '', '4664', '', <a href='http://ormco.ru/'>скачать файл</a>, '', <a href='http://ormco.ru/'>скачать файл</a>, , 4664, 25.06.2018 01:47
'9870', '', 'tatiana.m.12@mail.ru', ' 7 (926) 2062169', 'Кондратьева', 'Татьяна', 'Александровна', 'Мастердент-30', 'Ортодонт', '1799', '', ',,', '', '', '4664', '', <a href='http://ormco.ru/'>скачать файл</a>, '', <a href='http://ormco.ru/'>скачать файл</a>, , 4664, 25.06.2018 11:02
'9870', '', 'angelinapav23@gmail.com', ' 7 (977) 9964562', 'Павлюк', 'Ангелина', 'Валериевна', 'Рязанский медицинский университет', 'Ортодонт', '1799', '', ',,', '', '', '4664', '', <a href='http://ormco.ru/'>скачать файл</a>, '', <a href='http://ormco.ru/'>скачать файл</a>, , 4664, 25.06.2018 11:18
'9870', '', 'likusik2009@ukr.net', ' 7 (968) 3545300', 'Артеменко ', 'Татьяна ', 'Сергеевна', 'РГМУ', 'Ортодонт', '1799', '', ',,', '', '', '4664', '', <a href='http://ormco.ru/'>скачать файл</a>, '', <a href='http://ormco.ru/'>скачать файл</a>, , 4664, 25.06.2018 11:28
'9870', '', 'valeriaartemenko4@gmail.com', ' 7 (967) 1555405', 'Артеменко', 'Валерия ', 'Сергеевна', 'РГМУ', 'Ортодонт', '1799', '', ',,', '', '', '4664', '', <a href='http://ormco.ru/'>скачать файл</a>, '', <a href='http://ormco.ru/'>скачать файл</a>, , 4664, 25.06.2018 11:40
'9870', '', 'amb-helen@yandex.ru', '89645069610', 'Амбарцумян', 'Элен', 'Самвеловна', 'МГМСУ', 'Ортодонт', '1799', '', ',,', '', '', '4664', '', <a href='http://ormco.ru/'>скачать файл</a>, '', <a href='http://ormco.ru/'>скачать файл</a>, , 4664, 25.06.2018 13:08
'9873', '', 'mari.chunaeva@mail.ru', ' 7 (951) 712-6069', 'Чунаева', 'Мария', 'Владимировна', 'СГМУ', 'Ортодонт', '1799', '', ',,', '', '', '4664', '', <a href='http://ormco.ru/'>скачать файл</a>, '', <a href='http://ormco.ru/'>скачать файл</a>, , 4664, 25.06.2018 14:26
'9873', '', 'evreren@yandex.ru', ' 7 (910) 3009708', 'Ререн', 'Екатерина', 'Владимировна', 'РязГМУ', 'Ортодонт', '1799', '', ',,', '', '', '4664', '', <a href='http://ormco.ru/'>скачать файл</a>, '', <a href='http://ormco.ru/'>скачать файл</a>, , 4664, 25.06.2018 14:59
'9870', '', 'MikaLorens@mail.ru', ' 7 (923) 7824224', 'Музыченко', 'Людмила', 'Юрьевна', 'Стоматология Пушкинская', 'Ортодонт', '1799', '', ',,', '', '', '4664', '', <a href='http://ormco.ru/'>скачать файл</a>, '', <a href='http://ormco.ru/'>скачать файл</a>, , 4664, 25.06.2018 15:53
'9870', '', 'voroneckaya.00@mail.ru', ' 7 (968) 6315322', 'Воронецкая', 'Виктория', 'Александровна', 'МГМСУ им.А.И.Евдокимова', 'Ортодонт', '1799', '', ',,', '', '', '4664', '', <a href='http://ormco.ru/'>скачать файл</a>, '', <a href='http://ormco.ru/'>скачать файл</a>, , 4664, 25.06.2018 20:17
'9870', '', 'hasmik310793@gmail.com', ' 7 (977)896-7754', 'Манвелян', 'Асмик', 'Арутюновна', 'Тверь ГМУ', 'Ортодонт', '1799', '', ',,', '', '', '4664', '', <a href='http://ormco.ru/'>скачать файл</a>, '', <a href='http://ormco.ru/'>скачать файл</a>, , 4664, 26.06.2018 08:41
'9875', '', 'Andy_larson@mail.ru', ' 7 (987) 4308550', 'Бадретдинова', 'Эльвира', 'Маратовна', 'Самгму', 'Ортодонт', '1799', '', ',,', '', '', '4664', '', <a href='http://ormco.ru/'>скачать файл</a>, '', <a href='http://ormco.ru/'>скачать файл</a>, , 4664, 26.06.2018 09:47
'9870', '', 'Lizakuznec92@mail.ru', ' 7 (963) 653-6564', 'Целовальник ', 'Елизавета  ', 'Алексеевна ', 'Новадент', 'Ортодонт', '1799', '', ',,', '', '', '4664', '', <a href='http://ormco.ru/'>скачать файл</a>, '', <a href='http://ormco.ru/'>скачать файл</a>, , 4664, 26.06.2018 09:58
'9873', '', 'svf_stom37@mail.ru', ' 7 (915) 8311199', 'Фомичева', 'Светлана', 'Александровна', 'Стоматологический центр "СТВОЛЫГИН"/ ИППО ФГБУ ГНЦ ФМБЦ им. А.И.Бурназяна ФМБА России', 'Ортодонт', '1799', '', ',,', '', '', '4664', '', <a href='http://ormco.ru/'>скачать файл</a>, '', <a href='http://ormco.ru/'>скачать файл</a>, , 4664, 26.06.2018 13:07
'9871', '', 'Doctorursulenko@gmail.com', ' 7 (911) 1227543', 'Урсуленко', 'Нина ', 'Владимировна ', 'РеаВиз', 'Ортодонт', '1799', '', ',,', '', '', '4664', '', <a href='http://ormco.ru/'>скачать файл</a>, '', <a href='http://ormco.ru/'>скачать файл</a>, , 4664, 26.06.2018 16:29
'9870', '', 'evgenya_myagkova@mail.ru', ' 7 9167705901', 'Евгения', 'Мягкова', 'Сергеевна', 'ДСК Зубренок', 'Ортодонт', '1799', '', ',,', '', '', '4664', '', <a href='http://ormco.ru/'>скачать файл</a>, '', <a href='http://ormco.ru/'>скачать файл</a>, , 4664, 26.06.2018 17:35
'9870', '', 'margarita_ipatova@mail.ru', ' 7 (985) 5148745', 'Ипатова', 'Маргарита', 'Юрьевна', 'МГМСУ им.Евдокимова', 'Ортодонт', '1799', '', ',,', '', '', '4664', '', <a href='http://ormco.ru/'>скачать файл</a>, '', <a href='http://ormco.ru/'>скачать файл</a>, , 4664, 26.06.2018 19:06
'9871', '', 'di.dent@yandex.ru', ' 7 (981) 9547032', 'Кустов', 'Дмитрий', 'Александрович ', 'СПбГУ', 'Ортодонт', '1799', '', ',,', '', '', '4664', '', <a href='http://ormco.ru/'>скачать файл</a>, '', <a href='http://ormco.ru/'>скачать файл</a>, , 4664, 26.06.2018 19:32
'9870', '', 'a.vodyakova@mail.ru', ' 7 (916) 933-8636', 'Водякова ', 'Анна ', 'Михайловна ', 'МГМСУ ', 'Ортодонт', '1799', '', ',,', '', '', '4664', '', <a href='http://ormco.ru/'>скачать файл</a>, '', <a href='http://ormco.ru/'>скачать файл</a>, , 4664, 26.06.2018 21:02
'9873', '', 'trubnikova2215@yandex.ru', ' 7', 'Трубникова', 'Татьяна', 'Александровна', 'Сазур', 'Ортодонт', '1799', '', ',,', '', '', '4664', '', <a href='http://ormco.ru/'>скачать файл</a>, '', <a href='http://ormco.ru/'>скачать файл</a>, , 4664, 26.06.2018 21:29
'9871', '', 'margonia1992@mail.ru', '9500224110', 'Емельянова', 'Марагрита', 'Михайловна', '-', 'Другая специализация', '1799', '', ',,', '', '', '4664', '', <a href='http://ormco.ru/'>скачать файл</a>, '', <a href='http://ormco.ru/'>скачать файл</a>, , 4664, 27.06.2018 09:26
'9870', '', 'ya.limenko@mail.ru', '79261724502', 'Лименько', 'Яна', 'Юрьевна', 'ИППО ФМБА России', 'Ортодонт', '1799', '', ',,', '', '', '4664', '', <a href='http://ormco.ru/'>скачать файл</a>, '', <a href='http://ormco.ru/'>скачать файл</a>, , 4664, 27.06.2018 09:56
'9870', '', 'edenmark@yandex.ru', ' 7 (962)653-6020', 'Брофман', 'Ида', 'Давыдовна', 'ФМБА России', 'Ортодонт', '1799', '', ',,', '', '', '4664', '', <a href='http://ormco.ru/'>скачать файл</a>, '', <a href='http://ormco.ru/'>скачать файл</a>, , 4664, 27.06.2018 12:07
'9871', '', 'tata.lana@mail.ru', '89818463630', 'Семенова', 'Анастасия', 'Александровна', 'С', 'Другая специализация', '1799', '', ',,', '', '', '4664', '', <a href='http://ormco.ru/'>скачать файл</a>, '', <a href='http://ormco.ru/'>скачать файл</a>, , 4664, 27.06.2018 17:08
'9877', '', 'lyubz@yandex.ru', ' 7 (989)1304070', 'Загалова', 'Любовь', 'Феликсовна', 'МГМСУ', 'Ортодонт', '1799', '', ',,', '', '', '4664', '', <a href='http://ormco.ru/'>скачать файл</a>, '', <a href='http://ormco.ru/'>скачать файл</a>, , 4664, 27.06.2018 22:31
'9870', '', 'et.marija@yandex.ru', '8-968-954-48-10', 'Долгополова', 'Мария', 'Александровна', 'ПМГМУ им. Сеченова', 'Ортодонт', '1799', '', ',,', '', '', '4664', '', <a href='http://ormco.ru/'>скачать файл</a>, '', <a href='http://ormco.ru/'>скачать файл</a>, , 4664, 27.06.2018 22:56
'16761', '', 'viktoriavere@gmail.com', ' 375 (25)518-3888', 'Веренич', 'Виктория', 'Михайловна', '4 детская городская клиническая поликлиника', 'Ортодонт', '1799', '', ',,', '', '', '4664', '', <a href='http://ormco.ru/'>скачать файл</a>, '', <a href='http://ormco.ru/'>скачать файл</a>, , 4664, 28.06.2018 00:35
'9870', '', 'bassam.mukalled@mail.ru', '89157366093', 'Мукаллед', 'Бассам', 'Тарекович', 'TГМУ', 'Ортодонт', '1799', '', ',,', '', '', '4664', '', <a href='http://ormco.ru/'>скачать файл</a>, '', <a href='http://ormco.ru/'>скачать файл</a>, , 4664, 28.06.2018 01:07
'9877', '', 'Gopakmv@rambler.ru', '79034439057', 'Стефаниди', 'Роман', 'Исакович', 'ИП', 'Другая специализация', '1799', '', ',,', '', '', '4664', '', <a href='http://ormco.ru/'>скачать файл</a>, '', <a href='http://ormco.ru/'>скачать файл</a>, , 4664, 28.06.2018 09:36
'9874', '', 'juliyafanta@yandex.ru', '89372868428', 'Щелканова', 'Юлия', 'Александровна', 'КГМУ', 'Ортодонт', '1799', '', ',,', '', '', '4664', '', <a href='http://ormco.ru/'>скачать файл</a>, '', <a href='http://ormco.ru/'>скачать файл</a>, , 4664, 28.06.2018 12:37
'9873', '', 'negneg89@mail.ru', '89511494646', 'Настенко', 'Евгений', 'Геннадьевич', 'ВГМУ', 'Ортодонт', '1799', '', ',,', '', '', '4664', '', <a href='http://ormco.ru/'>скачать файл</a>, '', <a href='http://ormco.ru/'>скачать файл</a>, , 4664, 28.06.2018 12:49
'9875', '', 'diera_kh@mail.ru', ' 7 (917) 3983770', 'Ходжаева', 'Диёра', 'Владленовна', 'КГМУ', 'Ортодонт', '1799', '', ',,', '', '', '4664', '', <a href='http://ormco.ru/'>скачать файл</a>, '', <a href='http://ormco.ru/'>скачать файл</a>, , 4664, 28.06.2018 21:12
'9875', '', 'dr.nikiforova.a@yandex.ru', ' 7 (965)686-6708', 'Никифорова', 'Анастасия', 'Сергеевна', 'ГИДУВ', 'Ортодонт', '1799', '', ',,', '', '', '4664', '', <a href='http://ormco.ru/'>скачать файл</a>, '', <a href='http://ormco.ru/'>скачать файл</a>, , 4664, 28.06.2018 21:35
'9870', '', 'n_nice@mail.ru', '89859711808', ' Андреянова', 'Анастасия', 'Евгеньевна', 'Берлин дентал', 'Ортодонт', '1799', '', ',,', '', '', '4664', '', <a href='http://ormco.ru/'>скачать файл</a>, '', <a href='http://ormco.ru/'>скачать файл</a>, , 4664, 29.06.2018 01:16
'9873', '', 'zamahshariewa@yandex.ru', ' 7 (905) 126-0831', 'Замахшариева', 'Анжела', 'Рабадановна', 'ТГМУ', 'Ортодонт', '1799', '', ',,', '', '', '4664', '', <a href='http://ormco.ru/'>скачать файл</a>, '', <a href='http://ormco.ru/'>скачать файл</a>, , 4664, 29.06.2018 12:05
'9870', '', 'luizetta1606@gmail.com', ' 7 (909) 6555193', 'Маркосян', 'Луиза', 'Артуровна', 'Dental Way/ Первый МГМУ им. Сеченова', 'Ортодонт', '1799', '', ',,', '', '', '4664', '', <a href='http://ormco.ru/'>скачать файл</a>, '', <a href='http://ormco.ru/'>скачать файл</a>, , 4664, 29.06.2018 16:58
'9871', '', 'sweta.antipowa2012@yandex.ru', '89533507907', 'Антипова', 'Светлана', 'Геннадьевна', 'СпбИнстом', 'Ортодонт', '1799', '', ',,', '', '', '4664', '', <a href='http://ormco.ru/'>скачать файл</a>, '', <a href='http://ormco.ru/'>скачать файл</a>, , 4664, 29.06.2018 21:59
'9871', '', 'ninka_ne94@mail.ru', ' 7 (921) 428-7644', 'Лизнюк', 'Нина', 'Геннадьевна', 'СПБИНСТОМ', 'Ортодонт', '1799', '', ',,', '', '', '4664', '', <a href='http://ormco.ru/'>скачать файл</a>, '', <a href='http://ormco.ru/'>скачать файл</a>, , 4664, 29.06.2018 23:14
'9870', '', 'katerinastomat@gmail.com', ' 7 (977) 884-6610', 'Евсеева', 'Екатерина', 'Андреевна', 'цниис и члх', 'Ортодонт', '1799', '', ',,', '', '', '4664', '', <a href='http://ormco.ru/'>скачать файл</a>, '', <a href='http://ormco.ru/'>скачать файл</a>, , 4664, 30.06.2018 19:02
'9873', '', 'trifonovann93@mail.ru', ' 7 (910) 9038663', 'Пустынская', 'Анна', 'Александровна', 'РязГМУ', 'Ортодонт', '1799', '', ',,', '', '', '4664', '', <a href='http://ormco.ru/'>скачать файл</a>, '', <a href='http://ormco.ru/'>скачать файл</a>, , 4664, 30.06.2018 19:22
'9874', '', 'hipsanmanichkin@gmail.com', ' 7 (913) 2680865', 'Дудина', 'Мария', 'Олеговна', 'КрасГМУ', 'Ортодонт', '1799', '', ',,', '', '', '4664', '', <a href='http://ormco.ru/'>скачать файл</a>, '', <a href='http://ormco.ru/'>скачать файл</a>, , 4664, 01.07.2018 12:18
'9870', '', 'espredeina@mail.ru', ' 7 (909) 6995744', 'Предеина ', 'Елена ', 'Сергеевна ', 'Цгма ', 'Ортодонт', '1799', '', ',,', '', '', '4664', '', <a href='http://ormco.ru/'>скачать файл</a>, '', <a href='http://ormco.ru/'>скачать файл</a>, , 4664, 02.07.2018 01:07
'16761', '', 'Lenaxe@mail.ru', ' 375 (25)975-8183', 'Латышевич', 'Алексей', 'Русланович', 'БГМУ', 'Ортодонт', '1799', '', ',,', '', '', '4664', '', <a href='http://ormco.ru/'>скачать файл</a>, '', <a href='http://ormco.ru/'>скачать файл</a>, , 4664, 03.07.2018 13:06
'9870', '', 'k_kalichava@inbox.ru', ' 7 (915) 1974444', 'Каличава', 'Кэтэван', 'Кобаевна', 'ЦНИИС и ЧЛХ', 'Ортодонт', '1799', '', ',,', '', '', '4664', '', <a href='http://ormco.ru/'>скачать файл</a>, '', <a href='http://ormco.ru/'>скачать файл</a>, , 4664, 03.07.2018 13:17
'9879', '', 'maria101981@yandex.ru', ' 7 (914) 114-8743', 'Иванова', 'Виолетта', 'Викторовна', 'ДАНТИСТ', 'Ортодонт', '1799', '', ',,', '', '', '4664', '', <a href='http://ormco.ru/'>скачать файл</a>, '', <a href='http://ormco.ru/'>скачать файл</a>, , 4664, 03.07.2018 14:05
'9870', '', 'danilakarahanov@mail.ru', ' 7 (968)754-4882', 'Караханов', 'Даниил ', 'Вадимович ', 'МГМСУ', 'Ортодонт', '1799', '', ',,', '', '', '4664', '', <a href='http://ormco.ru/'>скачать файл</a>, '', <a href='http://ormco.ru/'>скачать файл</a>, , 4664, 03.07.2018 14:09
'9870', '', 'nastya93.05@mail.ru', ' 7 (916)200-8246', 'Трышкина', 'Анастасия', 'Андреевна', 'Рудн', 'Ортодонт', '1799', '', ',,', '', '', '4664', '', <a href='http://ormco.ru/'>скачать файл</a>, '', <a href='http://ormco.ru/'>скачать файл</a>, , 4664, 03.07.2018 14:09
'9870', '', 'b.vikki94@mail.ru', '79999618023', 'Балтачева', 'Виктория', 'Расимовна', 'МОСП', 'Ортодонт', '1799', '', ',,', '', '', '4664', '', <a href='http://ormco.ru/'>скачать файл</a>, '', <a href='http://ormco.ru/'>скачать файл</a>, , 4664, 03.07.2018 14:10
'9875', '', 'alexandrakazakovastom@gmail.com', ' 7 (909)718-6294', 'Казакова', 'Александра', 'Геннадьевна', 'НижГма', 'Ортодонт', '1799', '', ',,', '', '', '4664', '', <a href='http://ormco.ru/'>скачать файл</a>, '', <a href='http://ormco.ru/'>скачать файл</a>, , 4664, 03.07.2018 14:11
'9870', '', 'udgine1990@yandex.ru', ' 7 (916) 7060259', 'Волвянкин', 'Евгений', 'Сергеевич', 'ЦГМА управления делами президента ', 'Ортодонт', '1799', '', ',,', '', '', '4664', '', <a href='http://ormco.ru/'>скачать файл</a>, '', <a href='http://ormco.ru/'>скачать файл</a>, , 4664, 03.07.2018 14:11
'9875', '', 'zuba_olga@mail.ru', ' 79273349407', 'Джумма', 'Ольга', 'Владимировна', 'гбуз дсп 7', 'Ортодонт', '1799', '', ',,', '', '', '4664', '', <a href='http://ormco.ru/'>скачать файл</a>, '', <a href='http://ormco.ru/'>скачать файл</a>, , 4664, 03.07.2018 14:13
'16761', '', 'hartovanina@yandex.ru', ' 375 (29) 7104663', 'Хартова', 'Нина', 'Петровна', 'ОДО Дент-Лан/МГМИ', 'Ортодонт', '1799', '', ',,', '', '', '4664', '', <a href='http://ormco.ru/'>скачать файл</a>, '', <a href='http://ormco.ru/'>скачать файл</a>, , 4664, 03.07.2018 14:19
'9876', '', 'tamaragvazava@bk.ru', ' 7 (918)602-3682', 'Гвазава', 'Тамара', 'Джамбулиевна ', 'КубГМУ', 'Ортодонт', '1799', '', ',,', '', '', '4664', '', <a href='http://ormco.ru/'>скачать файл</a>, '', <a href='http://ormco.ru/'>скачать файл</a>, , 4664, 03.07.2018 14:20
'9875', '', 'uleesa@mail.ru', ' 7 (890)538-87866', 'Маринина', 'Юлия', 'Сергеевна', 'ГАУЗ "Энгельсская городская стоматологическая поликлиника"', 'Ортодонт', '1799', '', ',,', '', '', '4664', '', <a href='http://ormco.ru/'>скачать файл</a>, '', <a href='http://ormco.ru/'>скачать файл</a>, , 4664, 03.07.2018 14:21
'9870', '', 'alena.kizim.93@mail.ru', ' 7 985 315 91 04', 'Езова', 'Алена', 'Сергеевна', 'Элика Дент', 'Ортодонт', '1799', '', ',,', '', '', '4664', '', <a href='http://ormco.ru/'>скачать файл</a>, '', <a href='http://ormco.ru/'>скачать файл</a>, , 4664, 03.07.2018 14:23
'9874', '', 'ksn-93@yandex.ru', ' 7 (999)430-1405', 'Кох', 'Сергей', 'Николаевич', 'КемГМУ', 'Ортодонт', '1799', '', ',,', '', '', '4664', '', <a href='http://ormco.ru/'>скачать файл</a>, '', <a href='http://ormco.ru/'>скачать файл</a>, , 4664, 03.07.2018 14:23
'9871', '', 'posokhova_eleonora@mail.ru', ' 7 (921) 3470037', 'Гриненко', 'Элеонора', 'Викторовна', 'ГПЦ ПАКС', 'Ортодонт', '1799', '', ',,', '', '', '4664', '', <a href='http://ormco.ru/'>скачать файл</a>, '', <a href='http://ormco.ru/'>скачать файл</a>, , 4664, 03.07.2018 14:24
'9875', '', 'katryona.94@yandex.ru', ' 7 (927)278-0754', 'Захарова ', 'Екатерина', 'Алексеевна', 'ОртоЦентр', 'Ортодонт', '1799', '', ',,', '', '', '4664', '', <a href='http://ormco.ru/'>скачать файл</a>, '', <a href='http://ormco.ru/'>скачать файл</a>, , 4664, 03.07.2018 14:27
'9873', '', 'princess994@rambler.ru', ' 79159791857', 'Кокорева', 'Мария', 'Леонидовна', 'ООО "Студия К"', 'Ортодонт', '1799', '', ',,', '', '', '4664', '', <a href='http://ormco.ru/'>скачать файл</a>, '', <a href='http://ormco.ru/'>скачать файл</a>, , 4664, 03.07.2018 14:28
'9870', '', 'dr.seyfetdinova@yandex.ru', ' 79296174790', 'Сейфетдинова', 'Юлия', 'Игоревна', 'РМАНПО', 'Ортодонт', '1799', '', ',,', '', '', '4664', '', <a href='http://ormco.ru/'>скачать файл</a>, '', <a href='http://ormco.ru/'>скачать файл</a>, , 4664, 03.07.2018 14:30
'9875', '', 'Anfursik@yandex.ru', ' 7 (927) 524-5092', 'Фурсик', 'Анастасия', 'Ивановна', 'ВолгГМУ', 'Ортодонт', '1799', '', ',,', '', '', '4664', '', <a href='http://ormco.ru/'>скачать файл</a>, '', <a href='http://ormco.ru/'>скачать файл</a>, , 4664, 03.07.2018 14:32
'16761', '', 'baibota182@gmail.com', ' 976-994-23030', 'hazah', 'Aibota', 'Baimosh', 'АГМУ', 'Ортодонт', '1799', '', ',,', '', '', '4664', '', <a href='http://ormco.ru/'>скачать файл</a>, '', <a href='http://ormco.ru/'>скачать файл</a>, , 4664, 03.07.2018 14:37
'16761', '', 'elena-stom@yandex.ru', ' 375 (29) 5131215', 'Кузьменко', 'Елена', 'Викторовна', 'БелМАПО', 'Ортодонт', '1799', '', ',,', '', '', '4664', '', <a href='http://ormco.ru/'>скачать файл</a>, '', <a href='http://ormco.ru/'>скачать файл</a>, , 4664, 03.07.2018 14:38
'9870', '', 'dr-anna@inbox.ru', '79672714006', 'Григорян', 'Анна', 'Галустовна', 'Здоровая улыбка', 'Ортодонт', '1799', '', ',,', '', '', '4664', '', <a href='http://ormco.ru/'>скачать файл</a>, '', <a href='http://ormco.ru/'>скачать файл</a>, , 4664, 03.07.2018 14:44
'9871', '', 'katuxa247@yandex.ru', ' 7 (921) 3371027', 'Князькова', 'Екатерина ', 'Романовна', 'Пспбгму им акад и п Павлова ', 'Ортодонт', '1799', '', ',,', '', '', '4664', '', <a href='http://ormco.ru/'>скачать файл</a>, '', <a href='http://ormco.ru/'>скачать файл</a>, , 4664, 03.07.2018 14:49
'16761', '', 'michael-stom@yandex.ru', ' 375 (33) 6752736', 'Кузьменко', 'Михаил', 'Александрович', '2 ГКБ ', 'Ортодонт', '1799', '', ',,', '', '', '4664', '', <a href='http://ormco.ru/'>скачать файл</a>, '', <a href='http://ormco.ru/'>скачать файл</a>, , 4664, 03.07.2018 14:53
'9870', '', 'olia.levitina@yandex.ru', ' 7 (916) 980-7071', 'левитина', 'ольга', 'николаевна', 'клиника святого Даниила', 'Ортодонт', '1799', '', ',,', '', '', '4664', '', <a href='http://ormco.ru/'>скачать файл</a>, '', <a href='http://ormco.ru/'>скачать файл</a>, , 4664, 03.07.2018 14:54
'9870', '', 'vikakonogorova@gmail.com', ' 7 (925) 1242700', 'коногорова', 'виктория', 'александровна', 'Улыбка', 'Ортодонт', '1799', '', ',,', '', '', '4664', '', <a href='http://ormco.ru/'>скачать файл</a>, '', <a href='http://ormco.ru/'>скачать файл</a>, , 4664, 03.07.2018 14:57
'9870', '', 'kutsuri.e.m@yandex.ru', '79690102873', 'Куцури', 'Елизавета', 'Михайловна', 'МГМСУ', 'Ортодонт', '1799', '', ',,', '', '', '4664', '', <a href='http://ormco.ru/'>скачать файл</a>, '', <a href='http://ormco.ru/'>скачать файл</a>, , 4664, 03.07.2018 15:00
'9870', '', 'stasy.holms@yandex.ru', ' 7 (903) 7724233', 'Спрогис', 'Анастасия', 'Ивановна', 'ФГБУ ЦНИИС и ЧЛХ', 'Ортодонт', '1799', '', ',,', '', '', '4664', '', <a href='http://ormco.ru/'>скачать файл</a>, '', <a href='http://ormco.ru/'>скачать файл</a>, , 4664, 03.07.2018 15:09
'16761', '', 'kaqil795@gmail.com', ' 994555746581', 'Кавхаев', 'Агиль', 'Вагиф оглы', 'Mayomed', 'Ортодонт', '1799', '', ',,', '', '', '4664', '', <a href='http://ormco.ru/'>скачать файл</a>, '', <a href='http://ormco.ru/'>скачать файл</a>, , 4664, 03.07.2018 15:14
'9874', '', 'v.cydypova@mail.ru', '89240135209', 'Цыдыпова', 'Валентина', 'Сергеевна', 'CMD', 'Ортодонт', '1799', '', ',,', '', '', '4664', '', <a href='http://ormco.ru/'>скачать файл</a>, '', <a href='http://ormco.ru/'>скачать файл</a>, , 4664, 03.07.2018 15:25
'9875', '', 'margo.chek@mail.ru', '79225398975', 'Зинченко', 'Маргарита', 'Алексеевна', 'Ортодонт-Эстетик', 'Ортодонт', '1799', '', ',,', '', '', '4664', '', <a href='http://ormco.ru/'>скачать файл</a>, '', <a href='http://ormco.ru/'>скачать файл</a>, , 4664, 03.07.2018 15:28
'16761', '', 'taxim.qasimov@yandex.ru', ' 994559436581', 'Гасымов ', 'Таксим', 'Амен', 'Ideal Dent', 'Ортодонт', '1799', '', ',,', '', '', '4664', '', <a href='http://ormco.ru/'>скачать файл</a>, '', <a href='http://ormco.ru/'>скачать файл</a>, , 4664, 03.07.2018 15:38
'9871', '', 'Buswhite@gmail.com', ' 7 (911) 2208216', 'Сергеева', 'Анна', 'Михайловна', 'Спбгу', 'Ортодонт', '1799', '', ',,', '', '', '4664', '', <a href='http://ormco.ru/'>скачать файл</a>, '', <a href='http://ormco.ru/'>скачать файл</a>, , 4664, 03.07.2018 15:49
'', '', 'solyanyshko@yandex.ru', ' 375 (29) 604-05-87', 'Марченко', 'Ольга', 'Петровна', 'БГМУ', 'Ортодонт', '1799', '', ',,', '', '', '4664', '', <a href='http://ormco.ru/'>скачать файл</a>, '', <a href='http://ormco.ru/'>скачать файл</a>, , 4664, 03.07.2018 15:54
'16761', '', 'olenka.barsukova.93@mail.ru', ' 375 (44) 5380796', 'Барсукова', 'Ольга', 'Дмитриевна', 'Клиника', 'Ортодонт', '1799', '', ',,', '', '', '4664', '', <a href='http://ormco.ru/'>скачать файл</a>, '', <a href='http://ormco.ru/'>скачать файл</a>, , 4664, 03.07.2018 15:56
'16761', '', 'weron_09@mail.ru', ' 375333996187', 'Хаецкая', 'Вероника', 'Анатольевна', 'Весоль', 'Ортодонт', '1799', '', ',,', '', '', '4664', '', <a href='http://ormco.ru/'>скачать файл</a>, '', <a href='http://ormco.ru/'>скачать файл</a>, , 4664, 03.07.2018 16:03
'9870', '', 'Stoyanova-polina@mail.ru', ' 7 (916) 678-7775', 'Стоянова', 'Полина', 'Александровна', 'Кидсмайл', 'Ортодонт', '1799', '', ',,', '', '', '4664', '', <a href='http://ormco.ru/'>скачать файл</a>, '', <a href='http://ormco.ru/'>скачать файл</a>, , 4664, 03.07.2018 16:07
'9871', '', 'mr.rg94@mail.ru', ' 7 (981) 9618087', 'Годявин', 'Роман', 'Александрович', 'CПбГУ', 'Не врач', '1799', '', ',,', '', '', '4664', '', <a href='http://ormco.ru/'>скачать файл</a>, '', <a href='http://ormco.ru/'>скачать файл</a>, , 4664, 03.07.2018 16:21
'9870', '', 'G_e_s@bk.ru', ' 79032086329', 'Галактионова ', 'Екатерина ', 'Сергеевна ', 'Президент', 'Ортодонт', '1799', '', ',,', '', '', '4664', '', <a href='http://ormco.ru/'>скачать файл</a>, '', <a href='http://ormco.ru/'>скачать файл</a>, , 4664, 03.07.2018 16:39
'16761', '', 'sve_min@mail.ru', ' 375 (33)320-2571', 'Великова', 'Светлана', 'Владимировна', 'УЗ "СЦРБ"', 'Ортодонт', '1799', '', ',,', '', '', '4664', '', <a href='http://ormco.ru/'>скачать файл</a>, '', <a href='http://ormco.ru/'>скачать файл</a>, , 4664, 03.07.2018 16:42
'9875', '', 'a.k.saxeltseva@gmail.com', ' 7 (987) 3142123', 'Саксельцева', 'Анастасия', 'Константиновна', 'Саратовский ГМУ им. В.И. Разумовского', 'Ортодонт', '1799', '', ',,', '', '', '4664', '', <a href='http://ormco.ru/'>скачать файл</a>, '', <a href='http://ormco.ru/'>скачать файл</a>, , 4664, 03.07.2018 16:46
'9875', '', 'aks-der@yandex.ru', ' 7 (917) 325-1743', 'Деревянкина', 'Аксинья', 'Владимировна', 'Сгму им. В.И. РАЗУМОВСКОГО ', 'Ортодонт', '1799', '', ',,', '', '', '4664', '', <a href='http://ormco.ru/'>скачать файл</a>, '', <a href='http://ormco.ru/'>скачать файл</a>, , 4664, 03.07.2018 16:47
'9877', '', 'ekaterina.kozina.93@mail.ru', '89198882020', 'Козина', 'Екатерина', 'Викторовна', 'ВиДент', 'Ортодонт', '1799', '', ',,', '', '', '4664', '', <a href='http://ormco.ru/'>скачать файл</a>, '', <a href='http://ormco.ru/'>скачать файл</a>, , 4664, 03.07.2018 16:59
'9870', '', 'chern1ka@rambler.ru', ' 7 (915)398-9910', 'Мордвинцева', 'Виктория', 'Дмитриевна', 'Дантистофф', 'Другая специализация', '1799', '', ',,', '', '', '4664', '', <a href='http://ormco.ru/'>скачать файл</a>, '', <a href='http://ormco.ru/'>скачать файл</a>, , 4664, 03.07.2018 17:04
'9871', '', 'professorm@yandex.ru', ' 79383338860', 'Дибижева', 'Марина', 'Георгиевна', 'Муз гдсп', 'Ортодонт', '1799', '', ',,', '', '', '4664', '', <a href='http://ormco.ru/'>скачать файл</a>, '', <a href='http://ormco.ru/'>скачать файл</a>, , 4664, 03.07.2018 17:08
'9877', '', 'doctor.magasumova@gmail.com', ' 7 (918)900-0052', 'Магасумова ', 'Марьям ', 'Рашидовна', 'Кубанский Государственный Медицинский университет .Ординатор второго года кафедры ДС О и ЧЛХ', 'Ортодонт', '1799', '', ',,', '', '', '4664', '', <a href='http://ormco.ru/'>скачать файл</a>, '', <a href='http://ormco.ru/'>скачать файл</a>, , 4664, 03.07.2018 17:18
'9870', '', 's.khachatrian@bk.ru', ' 7 (905)765-8085', 'Хачатрян', 'Сона', 'Артуровна', 'Первый МГМУ им. И.М. Сеченова', 'Ортодонт', '1799', '', ',,', '', '', '4664', '', <a href='http://ormco.ru/'>скачать файл</a>, '', <a href='http://ormco.ru/'>скачать файл</a>, , 4664, 03.07.2018 17:39
'9870', '', 'Kanjarbek89@mail.ru', '9673670710', 'Абдылдаев', 'Канжарбек', 'Токтогулович', 'КГМА', 'Ортодонт', '1799', '', ',,', '', '', '4664', '', <a href='http://ormco.ru/'>скачать файл</a>, '', <a href='http://ormco.ru/'>скачать файл</a>, , 4664, 03.07.2018 18:00
'9870', '', 'm.alinka-posad@mail.ru', ' 79150978702', 'Московкина', 'Алина', 'Олеговна', 'РМАПО', 'Ортодонт', '1799', '', ',,', '', '', '4664', '', <a href='http://ormco.ru/'>скачать файл</a>, '', <a href='http://ormco.ru/'>скачать файл</a>, , 4664, 03.07.2018 18:10
'9876', '', 'anastasiasterhowa@yandex.ru', ' 7 (969) 286-1229', 'Стерхова', 'Анастасия ', 'Юрьевна', 'ВолгГМУ', 'Ортодонт', '1799', '', ',,', '', '', '4664', '', <a href='http://ormco.ru/'>скачать файл</a>, '', <a href='http://ormco.ru/'>скачать файл</a>, , 4664, 03.07.2018 18:19
'9871', '', 'rom_natysik@mail.ru', ' 7 (911) 900-4487', 'Ромашкина ', 'Наталья ', 'Николаевна ', 'Идеалист', 'Ортодонт', '1799', '', ',,', '', '', '4664', '', <a href='http://ormco.ru/'>скачать файл</a>, '', <a href='http://ormco.ru/'>скачать файл</a>, , 4664, 03.07.2018 18:32
'9870', '', 'amy001@yandex.ru', ' 79059915558', 'Абрамова', 'Елена', 'Дмитриевна', 'РМАПО', 'Ортодонт', '1799', '', ',,', '', '', '4664', '', <a href='http://ormco.ru/'>скачать файл</a>, '', <a href='http://ormco.ru/'>скачать файл</a>, , 4664, 03.07.2018 18:32
'9870', '', 'Natalizeffer@mail.ru', ' 7 (926) 3711296', 'Попова', 'Наталия', 'Викторовна', 'Дентикул', 'Ортодонт', '1799', '', ',,', '', '', '4664', '', <a href='http://ormco.ru/'>скачать файл</a>, '', <a href='http://ormco.ru/'>скачать файл</a>, , 4664, 03.07.2018 18:40
'9870', '', 'kh_saryuna297@mail.ru', ' 7 (926) 128-5196', 'Хандажапова', 'Сарюна', 'Баторовна', 'Рниму им Пирогова', 'Ортодонт', '1799', '', ',,', '', '', '4664', '', <a href='http://ormco.ru/'>скачать файл</a>, '', <a href='http://ormco.ru/'>скачать файл</a>, , 4664, 03.07.2018 18:48
'9870', '', 'lastochkina-yuly@bk.ru', ' 7 (915) 274-3335', 'Ласточкина', 'Юлия', 'Александровна', 'Управление делами президента', 'Ортодонт', '1799', '', ',,', '', '', '4664', '', <a href='http://ormco.ru/'>скачать файл</a>, '', <a href='http://ormco.ru/'>скачать файл</a>, , 4664, 03.07.2018 19:05
'9876', '', 'nesteridze199419@gmail.com', ' 7 (906)435-0625', 'Бузган', 'Дарья ', 'Владиммровна', 'КубГМУ', 'Ортодонт', '1799', '', ',,', '', '', '4664', '', <a href='http://ormco.ru/'>скачать файл</a>, '', <a href='http://ormco.ru/'>скачать файл</a>, , 4664, 03.07.2018 19:21
'9870', '', 'kristina_chikildina@mail.ru', ' 7 (901) 7502474', 'Чикильдина', 'Кристина', 'Сергеевна', 'Моя стоматология', 'Ортодонт', '1799', '', ',,', '', '', '4664', '', <a href='http://ormco.ru/'>скачать файл</a>, '', <a href='http://ormco.ru/'>скачать файл</a>, , 4664, 03.07.2018 19:40
'9870', '', 'Fennida@gmail.com', ' 7 (925) 176-1157', 'Румянцева', 'Ольга', 'Владимировна', 'РМАНПО', 'Ортодонт', '1799', '', ',,', '', '', '4664', '', <a href='http://ormco.ru/'>скачать файл</a>, '', <a href='http://ormco.ru/'>скачать файл</a>, , 4664, 03.07.2018 19:59
'9872', '', 'FedorovichEV@list.ru', ' 7 (950) 6604765', 'Федорович', 'Евгения', 'Витальевна', 'СГМУ', 'Ортодонт', '1799', '', ',,', '', '', '4664', '', <a href='http://ormco.ru/'>скачать файл</a>, '', <a href='http://ormco.ru/'>скачать файл</a>, , 4664, 03.07.2018 20:10
'9870', '', 'chukina_yulia@mail.ru', ' 7 (915) 2502759', 'Городовая', 'Юлия', 'Михайловна', 'ТГМА', 'Ортодонт', '1799', '', ',,', '', '', '4664', '', <a href='http://ormco.ru/'>скачать файл</a>, '', <a href='http://ormco.ru/'>скачать файл</a>, , 4664, 03.07.2018 20:13
'9870', '', 'seregaculickow@yandex.ru', ' 7 (926) 0850067', 'Куликов', 'Сергей', 'Алексеевич', 'ООО"Дента-М"', 'Ортодонт', '1799', '', ',,', '', '', '4664', '', <a href='http://ormco.ru/'>скачать файл</a>, '', <a href='http://ormco.ru/'>скачать файл</a>, , 4664, 03.07.2018 20:15
'9871', '', 'hapova5@mail.ru', ' 7 (981) 7347716', 'михайлова', 'марина ', 'александровна', 'Городская больница 40', 'Ортодонт', '1799', '', ',,', '', '', '4664', '', <a href='http://ormco.ru/'>скачать файл</a>, '', <a href='http://ormco.ru/'>скачать файл</a>, , 4664, 03.07.2018 20:48
'9870', '', 'arinakadi@gmail.com', ' 7 (965) 4031700', 'Кадиева', 'Айбика', 'Шейпуллаевна', 'МГМСУ им.А.И.Евдокимова', 'Не врач', '1799', '', ',,', '', '', '4664', '', <a href='http://ormco.ru/'>скачать файл</a>, '', <a href='http://ormco.ru/'>скачать файл</a>, , 4664, 03.07.2018 21:03
'9875', '', 'marius610@yandex.ru', ' 7 (917) 405833', ' Усманов', 'Марат', ' Ринатович', 'КСП БГМУ', 'Ортодонт', '1799', '', ',,', '', '', '4664', '', <a href='http://ormco.ru/'>скачать файл</a>, '', <a href='http://ormco.ru/'>скачать файл</a>, , 4664, 03.07.2018 21:12
'9873', '', 'angeleyes2717@yandex.ru', '89105761076', 'Карноухова', 'Мария', 'Сергеевна', 'ГБУРО"Городская поликлиника 4', 'Ортодонт', '1799', '', ',,', '', '', '4664', '', <a href='http://ormco.ru/'>скачать файл</a>, '', <a href='http://ormco.ru/'>скачать файл</a>, , 4664, 03.07.2018 21:12
'16761', '', 'Otaryan.anna@mail.ru', ' 374 (94) 155579', 'Tonoyan', 'Anna', 'Khachikovna', 'РУДН', 'Ортодонт', '1799', '', ',,', '', '', '4664', '', <a href='http://ormco.ru/'>скачать файл</a>, '', <a href='http://ormco.ru/'>скачать файл</a>, , 4664, 03.07.2018 21:19
'16761', '', 'neliezwitter@tut.by', ' 375 (29) 2640648', 'Новик', 'Марина', 'Александровна', 'BSMU', 'Ортодонт', '1799', '', ',,', '', '', '4664', '', <a href='http://ormco.ru/'>скачать файл</a>, '', <a href='http://ormco.ru/'>скачать файл</a>, , 4664, 03.07.2018 21:27
'9870', '', 'Wolfnata@yandex.ru', ' 79264236101', 'Волкова', 'Наталья', 'Владимировна', 'ООО жемчуг', 'Ортодонт', '1799', '', ',,', '', '', '4664', '', <a href='http://ormco.ru/'>скачать файл</a>, '', <a href='http://ormco.ru/'>скачать файл</a>, , 4664, 03.07.2018 22:12
'9872', '', 'doli4ka@bk.ru', ' 7 (952) 480-8294', 'Савельева', 'Анастасия', 'Александровна', 'ООО стоматологическая пол-ка', 'Ортодонт', '1799', '', ',,', '', '', '4664', '', <a href='http://ormco.ru/'>скачать файл</a>, '', <a href='http://ormco.ru/'>скачать файл</a>, , 4664, 03.07.2018 22:19
'9870', '', 'malikat.omarova@mail.ru', ' 7 (925) 729-2626', 'Омарова', 'Маликат', 'Магомедзагировна', 'РНИМУ', 'Ортодонт', '1799', '', ',,', '', '', '4664', '', <a href='http://ormco.ru/'>скачать файл</a>, '', <a href='http://ormco.ru/'>скачать файл</a>, , 4664, 03.07.2018 22:56
'9871', '', 'galinafedorova13@yandex.ru', '89218628801', 'Федорова', 'Галина', 'Васильевна', 'КГМУ', 'Ортодонт', '1799', '', ',,', '', '', '4664', '', <a href='http://ormco.ru/'>скачать файл</a>, '', <a href='http://ormco.ru/'>скачать файл</a>, , 4664, 03.07.2018 23:33
'9870', '', 'akasolitario@gmail.com', ' 7 (903) 7331737', 'Маркевич', 'Мария', 'Сергеевна', 'ЦГМА', 'Ортодонт', '1799', '', ',,', '', '', '4664', '', <a href='http://ormco.ru/'>скачать файл</a>, '', <a href='http://ormco.ru/'>скачать файл</a>, , 4664, 04.07.2018 00:29
'9874', '', 'juliana250891@mail.ru', ' 7 (999)5476443', 'Будуева', 'Чимидма', 'Зоригтоевна', 'ООО "Семейная стоматология"', 'Ортодонт', '1799', '', ',,', '', '', '4664', '', <a href='http://ormco.ru/'>скачать файл</a>, '', <a href='http://ormco.ru/'>скачать файл</a>, , 4664, 04.07.2018 07:23
'9874', '', 'Selivanova.aa@gmail.com', ' 7 (951) 164-8749', 'Селиванова', 'Анна', 'Андреевна', 'КемГМУ (Кемеровский государственный медицинский университет)', 'Ортодонт', '1799', '', ',,', '', '', '4664', '', <a href='http://ormco.ru/'>скачать файл</a>, '', <a href='http://ormco.ru/'>скачать файл</a>, , 4664, 04.07.2018 07:58
'9870', '', 'nastenaivanova@bk.ru', ' 7 (916) 2696535', 'Иванова', 'Анастасия', 'Вадимовна ', 'МГМСУ', 'Ортодонт', '1799', '', ',,', '', '', '4664', '', <a href='http://ormco.ru/'>скачать файл</a>, '', <a href='http://ormco.ru/'>скачать файл</a>, , 4664, 04.07.2018 08:42
'9875', '', 'Daria.dentist@mail.ru', ' 7 (927) 3316933', 'Захарова', 'Дарья', 'Александровна', 'Премьера', 'Ортодонт', '1799', '', ',,', '', '', '4664', '', <a href='http://ormco.ru/'>скачать файл</a>, '', <a href='http://ormco.ru/'>скачать файл</a>, , 4664, 04.07.2018 08:59
'9871', '', 'vladimir.donkin@gmail.com', ' 7 (927) 6915600', 'Донкин', 'Владимир', 'Александрович', 'Суперсмайл', 'Другая специализация', '1799', '', ',,', '', '', '4664', '', <a href='http://ormco.ru/'>скачать файл</a>, '', <a href='http://ormco.ru/'>скачать файл</a>, , 4664, 04.07.2018 09:02
'9878', '', 'sozonov-sasha@mail.ru', ' 7 (919) 3860415', 'Созонов', 'Александр', 'Евгеньевич', 'ГАУЗ СО Верхнепышминская СП', 'Ортодонт', '1799', '', ',,', '', '', '4664', '', <a href='http://ormco.ru/'>скачать файл</a>, '', <a href='http://ormco.ru/'>скачать файл</a>, , 4664, 04.07.2018 18:19
'9870', '', 'Elena_polyhina@mail.ru', ' 7 (903) 1278297', 'Полухина ', 'Елена ', 'Александровна ', 'Президент', 'Ортодонт', '1799', '', ',,', '', '', '4664', '', <a href='http://ormco.ru/'>скачать файл</a>, '', <a href='http://ormco.ru/'>скачать файл</a>, , 4664, 04.07.2018 19:00
'9870', '', 'milanna2002@mail.ru', ' 79260845794', 'Данилова', 'Анна', 'Петровна', 'Юнимед С', 'Ортодонт', '1799', '', ',,', '', '', '4664', '', <a href='http://ormco.ru/'>скачать файл</a>, '', <a href='http://ormco.ru/'>скачать файл</a>, , 4664, 04.07.2018 19:21
'9870', '', 'Gos106@mail.ru', ' 7 (925) 197-6045', 'Сизикова', 'Ольга', 'Сергеевна', 'Рманпо ', 'Ортодонт', '1799', '', ',,', '', '', '4664', '', <a href='http://ormco.ru/'>скачать файл</a>, '', <a href='http://ormco.ru/'>скачать файл</a>, , 4664, 04.07.2018 20:06
'9870', '', 'hurbanova@mail.ru', ' 375297230470', 'Гурбанова', 'Ефросинья', 'Борисовна', 'Добрый Доктор', 'Ортодонт', '1799', '', ',,', '', '', '4664', '', <a href='http://ormco.ru/'>скачать файл</a>, '', <a href='http://ormco.ru/'>скачать файл</a>, , 4664, 04.07.2018 20:22
'9870', '', 'mariya1404mb@gmail.com', ' 7 (982)637-4304', 'Мякишева ', 'Мария', 'Борисовна', 'ФМБА', 'Ортодонт', '1799', '', ',,', '', '', '4664', '', <a href='http://ormco.ru/'>скачать файл</a>, '', <a href='http://ormco.ru/'>скачать файл</a>, , 4664, 04.07.2018 22:39
'9870', '', 'Inna-revenko@rambler.ru', ' 7 (985) 0509637', 'Ревенко ', 'Инна ', 'Алексеевна ', 'Фмба', 'Ортодонт', '1799', '', ',,', '', '', '4664', '', <a href='http://ormco.ru/'>скачать файл</a>, '', <a href='http://ormco.ru/'>скачать файл</a>, , 4664, 05.07.2018 01:10
'9878', '', 'lisina-elena@mail.ru', '79058748847', ' Лушина', 'Елена', ' Владимировна', 'ИГМА', 'Ортодонт', '1799', '', ',,', '', '', '4664', '', <a href='http://ormco.ru/'>скачать файл</a>, '', <a href='http://ormco.ru/'>скачать файл</a>, , 4664, 05.07.2018 06:39
'9870', '', 'orthosuhova@gmail.com', ' 7 (892)614-22846', 'Сухова', 'Ирина', 'Всеволодовна', 'ФМБА', 'Ортодонт', '1799', '', ',,', '', '', '4664', '', <a href='http://ormco.ru/'>скачать файл</a>, '', <a href='http://ormco.ru/'>скачать файл</a>, , 4664, 05.07.2018 07:58
'9876', '', 'alina-shustova@rambler.ru', ' 7 (961) 078-1093', 'Шустова', 'Алина', 'Михайловна', 'ГАУЗ КСП 10', 'Ортодонт', '1799', '', ',,', '', '', '4664', '', <a href='http://ormco.ru/'>скачать файл</a>, '', <a href='http://ormco.ru/'>скачать файл</a>, , 4664, 05.07.2018 09:58
'9870', '', 'philina07@mail.ru', '89680819994', 'Захарова', 'Александра', 'Сергеевна', 'Реавиз', 'Ортодонт', '1799', '', ',,', '', '', '4664', '', <a href='http://ormco.ru/'>скачать файл</a>, '', <a href='http://ormco.ru/'>скачать файл</a>, , 4664, 05.07.2018 11:49
'9870', '', 'farzalievasabi@bk.ru', ' 79688531122', 'Фарзалиева', 'Сабина', 'Тахировна', 'Первый МГМУ им. Сеченова', 'Ортодонт', '1799', '', ',,', '', '', '4664', '', <a href='http://ormco.ru/'>скачать файл</a>, '', <a href='http://ormco.ru/'>скачать файл</a>, , 4664, 05.07.2018 12:41
'9875', '', 'Helennur93@mail.ru', ' 7 (927) 410-3223', 'Газизова ', 'Элин', 'Ильдаровна', 'КГМА', 'Ортодонт', '1799', '', ',,', '', '', '4664', '', <a href='http://ormco.ru/'>скачать файл</a>, '', <a href='http://ormco.ru/'>скачать файл</a>, , 4664, 05.07.2018 14:08
'9870', '', 'zoyamarinko@gmail.com', ' 7 (916) 2545930', 'Маринко', 'Зоя', 'Сергеевна', 'ЦГМА', 'Ортодонт', '1799', '', ',,', '', '', '4664', '', <a href='http://ormco.ru/'>скачать файл</a>, '', <a href='http://ormco.ru/'>скачать файл</a>, , 4664, 05.07.2018 14:17
'9870', '', 'gamma1990m@mail.ru', ' 79164609911', 'Газалиев', 'Магомед', 'Газимагомедович', 'РМАПО', 'Ортодонт', '1799', '', ',,', '', '', '4664', '', <a href='http://ormco.ru/'>скачать файл</a>, '', <a href='http://ormco.ru/'>скачать файл</a>, , 4664, 05.07.2018 14:36
'16761', '', 'alivishn@mail.ru', ' 375 (29) 8671950', 'Зданович ', 'Ирина ', 'Эдуардовна ', 'Детская стоматологическая поликлиника г.Гродно', 'Ортодонт', '1799', '', ',,', '', '', '4664', '', <a href='http://ormco.ru/'>скачать файл</a>, '', <a href='http://ormco.ru/'>скачать файл</a>, , 4664, 05.07.2018 14:49
'9870', '', 'daryakars@mail.ru', '89165963921', 'Карасева', 'Дарья', 'Сергеевна', 'Фмба ', 'Ортодонт', '1799', '', ',,', '', '', '4664', '', <a href='http://ormco.ru/'>скачать файл</a>, '', <a href='http://ormco.ru/'>скачать файл</a>, , 4664, 05.07.2018 15:12
'9870', '', 'venam-5@mail.ru', '89255517623', 'Терчанян', 'Венера', 'Кареновна', 'РУДН', 'Ортодонт', '1799', '', ',,', '', '', '4664', '', <a href='http://ormco.ru/'>скачать файл</a>, '', <a href='http://ormco.ru/'>скачать файл</a>, , 4664, 05.07.2018 16:22
'16761', '', 'olgadanik@list.ru', ' 375 (29) 8271417', 'Бахур', 'Ольга', 'Николаевна', 'ЦРБ, ВГМУ', 'Ортодонт', '1799', '', ',,', '', '', '4664', '', <a href='http://ormco.ru/'>скачать файл</a>, '', <a href='http://ormco.ru/'>скачать файл</a>, , 4664, 05.07.2018 17:01
'9878', '', 'stom_mario@mail.ru', ' 7 (912)320-4100', 'Долгих ', 'Марина ', 'Асыляновна ', 'МУЗ ДСП', 'Ортодонт', '1799', '', ',,', '', '', '4664', '', <a href='http://ormco.ru/'>скачать файл</a>, '', <a href='http://ormco.ru/'>скачать файл</a>, , 4664, 05.07.2018 17:08
'9870', '', 'animinadze8@gmail.com', ' 7 (977) 5308083', 'МИНАДЗЕ', 'АНА', 'ЛЕРИЕВНА', 'МГМСУ', 'Ортодонт', '1799', '', ',,', '', '', '4664', '', <a href='http://ormco.ru/'>скачать файл</a>, '', <a href='http://ormco.ru/'>скачать файл</a>, , 4664, 05.07.2018 17:34
'9871', '', 'kya007@yandex.ru', ' 7 (911) 143-8761', 'Захарова', 'Анастасия', 'Геннадьевна', 'СПбГУ ', 'Ортодонт', '1799', '', ',,', '', '', '4664', '', <a href='http://ormco.ru/'>скачать файл</a>, '', <a href='http://ormco.ru/'>скачать файл</a>, , 4664, 05.07.2018 17:49
'9875', '', 'katerina_yastrebova@list.ru', ' 7 (908) 2374425', 'Ястребова', 'Екатерина', 'Олеговна', 'ПИМУ', 'Ортодонт', '1799', '', ',,', '', '', '4664', '', <a href='http://ormco.ru/'>скачать файл</a>, '', <a href='http://ormco.ru/'>скачать файл</a>, , 4664, 05.07.2018 17:51
'9873', '', 'doc.miva@ya.ru', ' 7 (961)175-6555', 'Михальчева ', 'Валерия', 'Александровна', 'Таомед', 'Ортодонт', '1799', '', ',,', '', '', '4664', '', <a href='http://ormco.ru/'>скачать файл</a>, '', <a href='http://ormco.ru/'>скачать файл</a>, , 4664, 05.07.2018 23:02
'9871', '', 'Bettyfretty@gmail.com', ' 7 (911) 976-9874', 'Пешкова', 'Мария', 'Вячеславовна', 'СпбИнстом ', 'Ортодонт', '1799', '', ',,', '', '', '4664', '', <a href='http://ormco.ru/'>скачать файл</a>, '', <a href='http://ormco.ru/'>скачать файл</a>, , 4664, 06.07.2018 01:08
'9871', '', '035796@mail.ru', ' 7 (921) 567-4539', 'Евдокимова', 'Алина', 'Александровна', 'ПСПБ ГМУ Павлова', 'Ортодонт', '1799', '', ',,', '', '', '4664', '', <a href='http://ormco.ru/'>скачать файл</a>, '', <a href='http://ormco.ru/'>скачать файл</a>, , 4664, 06.07.2018 02:57
'9875', '', 'valerivorozh@gmail.com', ' 7 (987) 424-1776', 'Логинова', 'Валерия', 'Валентиновна', 'Радент, Биодент', 'Ортодонт', '1799', '', ',,', '', '', '4664', '', <a href='http://ormco.ru/'>скачать файл</a>, '', <a href='http://ormco.ru/'>скачать файл</a>, , 4664, 06.07.2018 09:23
'9871', '', 'alenakurakova8@gmail.com', ' 7 (951)662-9697', 'Куракова', 'Алена', 'Сергеевна', 'СЗГМУ', 'Ортодонт', '1799', '', ',,', '', '', '4664', '', <a href='http://ormco.ru/'>скачать файл</a>, '', <a href='http://ormco.ru/'>скачать файл</a>, , 4664, 06.07.2018 12:17
'9873', '', 'prettysmallangel@gmail.com', ' 7 (910) 890-0047', 'Митянова', 'Ангелина', 'Алексеевна', 'НижГМА', 'Ортодонт', '1799', '', ',,', '', '', '4664', '', <a href='http://ormco.ru/'>скачать файл</a>, '', <a href='http://ormco.ru/'>скачать файл</a>, , 4664, 06.07.2018 14:40
'9878', '', 'appolusya@mail.ru', ' 79068004404', 'Климова', 'Полина', 'Владимировна', 'Угму ', 'Ортодонт', '1799', '', ',,', '', '', '4664', '', <a href='http://ormco.ru/'>скачать файл</a>, '', <a href='http://ormco.ru/'>скачать файл</a>, , 4664, 06.07.2018 15:06
'9876', '', 'andre.polovoy@yandex.ru', ' 7 (961)666-3429', 'Половой', 'Андрей', 'Михайлович', 'Волггму', 'Ортодонт', '1799', '', ',,', '', '', '4664', '', <a href='http://ormco.ru/'>скачать файл</a>, '', <a href='http://ormco.ru/'>скачать файл</a>, , 4664, 06.07.2018 19:51
'9870', '', 'levon969696@mail.ru', ' 79017788736', 'Даллакян', 'Левон', 'Арменович', 'МОНИКИ', 'Ортодонт', '1799', '', ',,', '', '', '4664', '', <a href='http://ormco.ru/'>скачать файл</a>, '', <a href='http://ormco.ru/'>скачать файл</a>, , 4664, 06.07.2018 19:56
'9870', '', 'Www.fatia.777@mail.ru', '79160805626', 'Тайсаева', 'Фатима', 'Рамазановна', 'ЦГМА', 'Ортодонт', '1799', '', ',,', '', '', '4664', '', <a href='http://ormco.ru/'>скачать файл</a>, '', <a href='http://ormco.ru/'>скачать файл</a>, , 4664, 07.07.2018 00:49
'9870', '', 'ovivanova71@gmail.com', ' 7 (903) 175-3159', 'Иванова', 'Оксана', 'Валерьевна ', 'дсп 29', 'Ортодонт', '1799', '', ',,', '', '', '4664', '', <a href='http://ormco.ru/'>скачать файл</a>, '', <a href='http://ormco.ru/'>скачать файл</a>, , 4664, 07.07.2018 01:10
'9871', '', 'shornikova.95@mail.ru', ' 7 (921)570-0026', 'Шорникова', 'Виктория', 'Руслановна', 'СПбГПМУ', 'Ортодонт', '1799', '', ',,', '', '', '4664', '', <a href='http://ormco.ru/'>скачать файл</a>, '', <a href='http://ormco.ru/'>скачать файл</a>, , 4664, 07.07.2018 13:02
'9878', '', 'r666em@gmail.com', ' 7 (931)366-9641', 'Магомедов ', 'Магомед', 'Магомедалиевич ', 'Жемчужина ', 'Ортодонт', '1799', '', ',,', '', '', '4664', '', <a href='http://ormco.ru/'>скачать файл</a>, '', <a href='http://ormco.ru/'>скачать файл</a>, , 4664, 07.07.2018 15:07
'9870', '', 'dr.kolyshkina@gmail.com', ' 7 (925) 2318811', 'Колышкина', 'Марина', 'Сергеевна', 'СГМУ им.Разумовского', 'Ортодонт', '1799', '', ',,', '', '', '4664', '', <a href='http://ormco.ru/'>скачать файл</a>, '', <a href='http://ormco.ru/'>скачать файл</a>, , 4664, 07.07.2018 22:45
'9873', '', 'marmelad67@yandex.ru', '89108392608', 'Гаврилова', 'Наталия', 'Сергеевна', 'ТГМУ', 'Ортодонт', '1799', '', ',,', '', '', '4664', '', <a href='http://ormco.ru/'>скачать файл</a>, '', <a href='http://ormco.ru/'>скачать файл</a>, , 4664, 08.07.2018 09:45
'9870', '', 'erzhena31@rambler.ru', ' 7 (925) 5970049', 'Галсанова', 'Эржена', 'Санжиевна', 'Стоматология', 'Ортодонт', '1799', '', ',,', '', '', '4664', '', <a href='http://ormco.ru/'>скачать файл</a>, '', <a href='http://ormco.ru/'>скачать файл</a>, , 4664, 08.07.2018 13:04
'9879', '', 'pol.lyudmila@yandex.ru', ' 7 (914) 0372810', 'Полищук', 'Людмила', 'Андреевна', ',,дантист,,', 'Ортодонт', '1799', '', ',,', '', '', '4664', '', <a href='http://ormco.ru/'>скачать файл</a>, '', <a href='http://ormco.ru/'>скачать файл</a>, , 4664, 08.07.2018 15:14
'9871', '', 'armida1988@inbox.ru', '89523726249', 'Цандекидис', 'Ольга', 'Ильинична', 'Еврокаппа', 'Ортодонт', '1823', '', ',,', '', '', '4664', '', <a href='http://ormco.ru/'>скачать файл</a>, '', <a href='http://ormco.ru/'>скачать файл</a>, , 4664, 09.07.2018 12:23
'9871', '', 'delov.hi@gmail.com', ' 7929299374', 'Делов', 'Андрей', 'Отчество', 'Ннгасу', 'Не врач', '1823', '', ',,', '', '', '4664', '', <a href='http://ormco.ru/'>скачать файл</a>, '', <a href='http://ormco.ru/'>скачать файл</a>, , 4664, 09.07.2018 12:38
'9874', '', 'tan4iksem@mail.ru', ' 7 (913) 8588167', 'Кагарманова', 'Татьяна', 'Владимировна', 'СибГМУ', 'Ортодонт', '1823', '', ',,', '', '', '4664', '', <a href='http://ormco.ru/'>скачать файл</a>, '', <a href='http://ormco.ru/'>скачать файл</a>, , 4664, 09.07.2018 14:40
'9875', '', 'Golden-alex@yandex.ru', ' 7 (910) 1437064', 'Золотая ', 'Александра', 'Александровна', '"Имидж-Лаб"', 'Ортодонт', '1823', '', ',,', '', '', '4664', '', <a href='http://ormco.ru/'>скачать файл</a>, '', <a href='http://ormco.ru/'>скачать файл</a>, , 4664, 09.07.2018 18:20
'9870', '', 'tatulya94@mail.ru', ' 7 (925) 199-3538', 'Политиди', 'Татьяна', 'Георгиевна', 'Рманпо', 'Ортодонт', '1823', '', ',,', '', '', '4664', '', <a href='http://ormco.ru/'>скачать файл</a>, '', <a href='http://ormco.ru/'>скачать файл</a>, , 4664, 10.07.2018 11:28
'9875', '', 'vira.ellya@yandex.ru', '79172914704', 'Шарафиева', 'Эльвира', 'Саубановна', 'КГМУ', 'Ортодонт', '1823', '', ',,', '', '', '4664', '', <a href='http://ormco.ru/'>скачать файл</a>, '', <a href='http://ormco.ru/'>скачать файл</a>, , 4664, 10.07.2018 12:22
'9871', '', 'evgenya-bovshikova@yandex.ru', ' 7 (928) 1888850', 'Бовшикова', 'Евгения', 'Александровна ', 'ВМедА', 'Ортодонт', '1823', '', ',,', '', '', '4664', '', <a href='http://ormco.ru/'>скачать файл</a>, '', <a href='http://ormco.ru/'>скачать файл</a>, , 4664, 10.07.2018 14:49
'9872', '', 'natali-mir2005@yandex.ru', ' 7 (963) 295-5022', 'Нечипоренко', 'Наталья', 'Сергеевна', 'Харьковский государственный медицинский университет', 'Ортодонт', '1823', '', ',,', '', '', '4664', '', <a href='http://ormco.ru/'>скачать файл</a>, '', <a href='http://ormco.ru/'>скачать файл</a>, , 4664, 11.07.2018 18:19
'9874', '', 'jani1412@mail.ru', '89642231501', 'Кузнецова', 'Евгения', 'Николаевна', 'Иркутский государственный медицинский университет', 'Ортодонт', '1823', '', ',,', '', '', '4664', '', <a href='http://ormco.ru/'>скачать файл</a>, '', <a href='http://ormco.ru/'>скачать файл</a>, , 4664, 11.07.2018 18:44
'9875', '', 'azizmantikov@mail.ru', ' 7 (987) 903-8452', 'Мантиков', 'Азиз', 'Абдулкадырович', 'СамГМУ', 'Ортодонт', '1823', '', ',,', '', '', '4664', '', <a href='http://ormco.ru/'>скачать файл</a>, '', <a href='http://ormco.ru/'>скачать файл</a>, , 4664, 12.07.2018 11:09
