<svg width="32" height="14" viewBox="0 0 32 14" fill="none" xmlns="http://www.w3.org/2000/svg">
<rect x="8" y="6" width="24" height="2" fill="white"/>
<rect y="12" width="32" height="2" fill="white"/>
<rect width="32" height="2" fill="white"/>
</svg>
