<svg width="16" height="16" viewBox="0 0 16 16" fill="none" xmlns="http://www.w3.org/2000/svg">
<rect width="20.3641" height="2.26268" transform="matrix(0.707118 -0.707096 0.707118 0.707096 0.000244141 14.4001)" fill="white"/>
<rect width="20.36" height="2.26268" transform="matrix(0.707118 0.707096 -0.707118 0.707096 1.6001 -0.000335693)" fill="white"/>
</svg>
