'9871', '', 'ormcocorp@mail.ru', ' 71231234567', 'test', 'test', 'test', 'test', 'Не врач', '1617', '', ',,', '', '', '', 'Ординатор', <a href='https://orthodontia.ru/'>скачать файл</a>, 'Член ПОО', <a href='https://orthodontia.ru/'>скачать файл</a>, Участник Школы Ортодонтии, , 13.10.2017 16:33
'9871', '', 'ormcocorp@mail.ru', ' 71231234567', 'test', 'test', 'test', 'test', 'Не врач', '1617', '', ',,', '', '', '4663', 'Ординатор', <a href='https://orthodontia.ru/'>скачать файл</a>, 'Член ПОО', <a href='https://orthodontia.ru/'>скачать файл</a>, Участник Школы Ортодонтии, 4663, 13.10.2017 16:33
'9870', '', 'reg4@umihelp.ru', '81111222', 'test', 'test2', 'test3', 'йцу', 'Ортодонт', '1617', '', ',,', '', '', '', 'Ординатор', <a href='https://orthodontia.ru/'>скачать файл</a>, 'Член ПОО', <a href='https://orthodontia.ru/'>скачать файл</a>, Участник Школы Ортодонтии, , 13.10.2017 16:47
'9871', '', 'st@insday.ru', '321654987', 'Таран', 'Сергей', 'Борисович', 'saddf', 'Не врач', '1617', '', ',,', '', '', '', 'Ординатор', <a href='https://orthodontia.ru/'>скачать файл</a>, 'Член ПОО', <a href='https://orthodontia.ru/'>скачать файл</a>, Участник Школы Ортодонтии, , 13.10.2017 17:03
'9871', '', 'st@insday.ru', '321654987', 'Таран', 'Сергей', 'Борисович', 'saddf', 'Не врач', '1617', '', ',,', '', '', '4664', 'Ординатор', <a href='https://orthodontia.ru/'>скачать файл</a>, 'Член ПОО', <a href='https://orthodontia.ru/'>скачать файл</a>, Участник Школы Ортодонтии, 4664, 13.10.2017 17:03
'9871', '', 'support@insday.ru', '1234567', 'Таран', 'Сергей', 'Борисович', '-', 'Не врач', '1617', '', ',,', '', '', '', 'Ординатор', <a href='https://orthodontia.ru/'>скачать файл</a>, 'Член ПОО', <a href='https://orthodontia.ru/'>скачать файл</a>, Участник Школы Ортодонтии, , 13.10.2017 17:14
'9871', '', 'reg5@umihelp.ru', '89110001122', 'test', 'test1', 'test2', 'test', 'Хирург', '1617', '', ',,', '', '', '', 'Ординатор', <a href='https://orthodontia.ru/'>скачать файл</a>, 'Член ПОО', <a href='https://orthodontia.ru/'>скачать файл</a>, Участник Школы Ортодонтии, , 14.10.2017 07:32
'9871', '', 'reg@umihelp.ru', '112233', 'test2', 'test3', 'test4', '123', 'Ортодонт', '1617', '', ',,', '', '', '', 'Ординатор', <a href='https://orthodontia.ru/'>скачать файл</a>, 'Член ПОО', <a href='https://orthodontia.ru/'>скачать файл</a>, Участник Школы Ортодонтии, , 14.10.2017 08:37
'9870', '', 'aleksandra.brat@mail.ru', ' 7 (901) 7625245', 'Козубенко', 'Александра ', 'Михайловна ', 'МГМСУ', 'Ортодонт', '1617', '', ',,', '', '', '', 'Ординатор', <a href='https://orthodontia.ru/'>скачать файл</a>, 'Член ПОО', <a href='https://orthodontia.ru/'>скачать файл</a>, Участник Школы Ортодонтии, , 14.10.2017 23:59
'9874', '', 'dr.krylovamv@mail.ru', '89130090367', 'Крылова', 'Маргарита', 'Викторовна', 'НГМУ', 'Ортодонт', '1617', '', ',,', '', '', '', 'Ординатор', <a href='https://orthodontia.ru/'>скачать файл</a>, 'Член ПОО', <a href='https://orthodontia.ru/'>скачать файл</a>, Участник Школы Ортодонтии, , 15.10.2017 18:16
'9870', '', 'reg@umihelp.ru', '1112233', 'test', 'test', 'test', '123', 'Ортодонт', '1617', '', ',,', '', '', '', 'Ординатор', <a href='https://orthodontia.ru/'>скачать файл</a>, 'Член ПОО', <a href='https://orthodontia.ru/'>скачать файл</a>, Участник Школы Ортодонтии, , 15.10.2017 22:25
'9870', '', 'reg@umihelp.ru', '1112233', 'test', 'test', 'test', '123', 'Ортодонт', '1617', '', ',,', '', '', '4664', 'Ординатор', <a href='https://orthodontia.ru/'>скачать файл</a>, 'Член ПОО', <a href='https://orthodontia.ru/'>скачать файл</a>, Участник Школы Ортодонтии, 4664, 15.10.2017 23:04
'9871', '', 'reg@umihelp.ru', '1112233', 'test', 'test', 'test', '123', 'Ортодонт', '1617', '', ',,', '', '', '', 'Ординатор', <a href='https://orthodontia.ru/'>скачать файл</a>, 'Член ПОО', <a href='https://orthodontia.ru/'>скачать файл</a>, Участник Школы Ортодонтии, , 16.10.2017 05:30
'9871', '', 'reg@umihelp.ru', '1112233', 'test', 'test', 'test', '123', 'Ортодонт', '1617', '', ',,', '', '', '4664', 'Ординатор', <a href='https://orthodontia.ru/'>скачать файл</a>, 'Член ПОО', <a href='https://orthodontia.ru/'>скачать файл</a>, Участник Школы Ортодонтии, 4664, 16.10.2017 05:39
'9870', '', 'reg@umihelp.ru', '1112233', 'test', 'test', 'test', '123', 'Ортодонт', '1617', '', ',,', '', '', '', 'Ординатор', <a href='https://orthodontia.ru/'>скачать файл</a>, 'Член ПОО', <a href='https://orthodontia.ru/'>скачать файл</a>, Участник Школы Ортодонтии, , 16.10.2017 05:46
'9870', '', 'reg@umihelp.ru', '1112233', 'test', 'test', 'test', '123', 'Ортодонт', '1617', '', ',,', '', '', '4664', 'Ординатор', <a href='https://orthodontia.ru/'>скачать файл</a>, 'Член ПОО', <a href='https://orthodontia.ru/'>скачать файл</a>, Участник Школы Ортодонтии, 4664, 16.10.2017 05:47
'9871', '', 'reg@umihelp.ru', '1112233', 'test', 'test', 'test', '111', 'Ортодонт', '1617', '', ',,', '', '', '', 'Ординатор', <a href='https://orthodontia.ru/'>скачать файл</a>, 'Член ПОО', <a href='https://orthodontia.ru/'>скачать файл</a>, Участник Школы Ортодонтии, , 16.10.2017 05:49
'9871', '', 'reg@umihelp.ru', '1112233', 'test', 'test', 'test', '111', 'Ортодонт', '1617', '', ',,', '', '', '4664', 'Ординатор', <a href='https://orthodontia.ru/'>скачать файл</a>, 'Член ПОО', <a href='https://orthodontia.ru/'>скачать файл</a>, Участник Школы Ортодонтии, 4664, 16.10.2017 05:49
'9871', '', 'reg@umihelp.ru', '1112233', 'test', 'test', 'test', '12345', 'Ортодонт', '1617', '', ',,', '', '', '', 'Ординатор', <a href='https://orthodontia.ru/'>скачать файл</a>, 'Член ПОО', <a href='https://orthodontia.ru/'>скачать файл</a>, Участник Школы Ортодонтии, , 16.10.2017 05:51
'9871', '', 'reg@umihelp.ru', '1112233', 'test', 'test', 'test', '12345', 'Ортодонт', '1617', '', ',,', '', '', '', 'Ординатор', <a href='https://orthodontia.ru/'>скачать файл</a>, 'Член ПОО', <a href='https://orthodontia.ru/'>скачать файл</a>, Участник Школы Ортодонтии, , 16.10.2017 05:53
'9871', '', 'reg@umihelp.ru', '1112233', 'test', 'test', 'test', '123', 'Ортодонт', '1617', '', ',,', '', '', '', 'Ординатор', <a href='https://orthodontia.ru/'>скачать файл</a>, 'Член ПОО', <a href='https://orthodontia.ru/'>скачать файл</a>, Участник Школы Ортодонтии, , 16.10.2017 05:57
'9871', '', 'reg@umihelp.ru', '1112233', 'test', 'test', 'test', '123', 'Ортодонт', '1617', '', ',,', '', '', '', 'Ординатор', <a href='https://orthodontia.ru/'>скачать файл</a>, 'Член ПОО', <a href='https://orthodontia.ru/'>скачать файл</a>, Участник Школы Ортодонтии, , 16.10.2017 05:57
'9871', '', 'reg2@umihelp.ru', 'test', 'test', 'test', 'test', 'test', 'Ортодонт', '1617', '', ',,', '', '', '', 'Ординатор', <a href='https://orthodontia.ru/'>скачать файл</a>, 'Член ПОО', <a href='https://orthodontia.ru/'>скачать файл</a>, Участник Школы Ортодонтии, , 16.10.2017 06:02
'9871', '', 'reg2@umihelp.ru', 'test', 'test', 'test', 'test', 'test', 'Ортодонт', '1617', '', ',,', '', '', '17688', 'Ординатор', <a href='https://orthodontia.ru/'>скачать файл</a>, 'Член ПОО', <a href='https://orthodontia.ru/'>скачать файл</a>, Участник Школы Ортодонтии, 17688, 16.10.2017 06:02
'9871', '', 'maria.ershova@ormco.com', ' 79218850740', 'Ершова', 'Мария', 'Михайловна', 'kjjkl', 'Ортодонт', '1617', '', ',,', '', '', '', 'Ординатор', <a href='https://orthodontia.ru/'>скачать файл</a>, 'Член ПОО', <a href='https://orthodontia.ru/'>скачать файл</a>, Участник Школы Ортодонтии, , 16.10.2017 09:30
'9870', '', 'grigory.bugaev@ormco.com', ' 79266108002', 'Бугаев', 'Григорий', 'Сергеевич', 'МГМСУ', 'Не врач', '1617', '', ',,', '', '', '', 'Ординатор', <a href='https://orthodontia.ru/'>скачать файл</a>, 'Член ПОО', <a href='https://orthodontia.ru/'>скачать файл</a>, Участник Школы Ортодонтии, , 16.10.2017 09:30
'9871', '', 'reg@umihelp.ru', '1112233', 'test', 'test', 'test', 'test', 'Не врач', '1617', '', ',,', '', '', '', 'Ординатор', <a href='https://orthodontia.ru/'>скачать файл</a>, 'Член ПОО', <a href='https://orthodontia.ru/'>скачать файл</a>, Участник Школы Ортодонтии, , 16.10.2017 09:37
'9871', '', 'reg@umihelp.ru', '1112233', 'test', 'test', 'test', 'test', 'Не врач', '1617', '', ',,', '', '', '4664', 'Ординатор', <a href='https://orthodontia.ru/'>скачать файл</a>, 'Член ПОО', <a href='https://orthodontia.ru/'>скачать файл</a>, Участник Школы Ортодонтии, 4664, 16.10.2017 09:38
'9870', '', 'greg2310@rambler.ru', ' 7 (926) 610-8002', 'Барабанофф', 'Барабан', 'Барабанович', 'Барабашка', 'Другая специализация', '1617', '', ',,', '', '', '', 'Ординатор', <a href='https://orthodontia.ru/'>скачать файл</a>, 'Член ПОО', <a href='https://orthodontia.ru/'>скачать файл</a>, Участник Школы Ортодонтии, , 16.10.2017 09:49
'9871', '', 'st1@insday.ru', 'test', 'test', 'test', 'test', 'test', 'Не врач', '1617', '', ',,', '', '', '', 'Ординатор', <a href='https://orthodontia.ru/'>скачать файл</a>, 'Член ПОО', <a href='https://orthodontia.ru/'>скачать файл</a>, Участник Школы Ортодонтии, , 16.10.2017 09:58
'9871', '', 'st1@insday.ru', 'test', 'test', 'test', 'test', 'test', 'Не врач', '1617', '', ',,', '', '', '4664', 'Ординатор', <a href='https://orthodontia.ru/'>скачать файл</a>, 'Член ПОО', <a href='https://orthodontia.ru/'>скачать файл</a>, Участник Школы Ортодонтии, 4664, 16.10.2017 09:58
'9871', '', 'alenakurakova8@gmail.com', ' 7 (951)662-9697', 'Куракова', 'Алена', 'Сергеевна', 'СЗГМУ им.И. И. Мечникова', 'Ортодонт', '1617', '', ',,', '', '', '', 'Ординатор', <a href='https://orthodontia.ru/'>скачать файл</a>, 'Член ПОО', <a href='https://orthodontia.ru/'>скачать файл</a>, Действующий участник Школы ортодонтии, , 17.10.2017 12:30
'9871', '', 'alenakurakova8@gmail.com', ' 7 (951)662-9697', 'Куракова', 'Алена', 'Сергеевна', 'СЗГМУ им.И. И. Мечникова', 'Ортодонт', '1617', '', ',,', '', '', '4664', 'Ординатор', <a href='https://orthodontia.ru/'>скачать файл</a>, 'Член ПОО', <a href='https://orthodontia.ru/'>скачать файл</a>, Действующий участник Школы ортодонтии, 4664, 17.10.2017 12:34
'9870', '', 'aleksandra.brat@mail.ru', ' 7 (901) 7625245', 'Козубенко', 'Александра ', 'Михайловна ', 'МГМСУ', 'Ортодонт', '1617', '', ',,', '', '', '', 'Ординатор', <a href='https://orthodontia.ru/'>скачать файл</a>, 'Член ПОО', <a href='https://orthodontia.ru/'>скачать файл</a>, Действующий участник Школы ортодонтии, , 17.10.2017 13:04
'9873', '', 'leno-4-ek@mail.ru', ' 7 (915) 597-4226', 'Никашова', 'Елена', 'Олеговна', 'ООО Дентал Плюс', 'Ортодонт', '1617', '', ',,', '', '', '', 'Ординатор', <a href='https://orthodontia.ru/'>скачать файл</a>, 'Член ПОО', <a href='https://orthodontia.ru/'>скачать файл</a>, Действующий участник Школы ортодонтии, , 17.10.2017 13:05
'9873', '', 'leno-4-ek@mail.ru', ' 7 (915) 597-4226', 'Никашова', 'Елена', 'Олеговна', 'ООО Дентал Плюс', 'Ортодонт', '1617', '', ',,', '', '', '17688', 'Ординатор', <a href='https://orthodontia.ru/'>скачать файл</a>, 'Член ПОО', <a href='https://orthodontia.ru/'>скачать файл</a>, Действующий участник Школы ортодонтии, 17688, 17.10.2017 13:06
'9875', '', 'juliyafanta@yandex.ru', '89372868428', 'Щелканова', 'Юлия', 'Александровна', 'КГМУ, ординатор', 'Другая специализация', '1617', '', ',,', '', '', '', 'Ординатор', <a href='https://orthodontia.ru/'>скачать файл</a>, 'Член ПОО', <a href='https://orthodontia.ru/'>скачать файл</a>, Действующий участник Школы ортодонтии, , 17.10.2017 14:09
'9875', '', 'juliyafanta@yandex.ru', '89372868428', 'Щелканова', 'Юлия', 'Александровна', 'КГМУ', 'Другая специализация', '1617', '', ',,', '', '', '', 'Ординатор', <a href='https://orthodontia.ru/'>скачать файл</a>, 'Член ПОО', <a href='https://orthodontia.ru/'>скачать файл</a>, Действующий участник Школы ортодонтии, , 17.10.2017 14:14
'9875', '', 'juliyafanta@yandex.ru', '89372868428', 'Щелканова', 'Юлия', 'Александровна', 'КГМУ', 'Другая специализация', '1617', '', ',,', '', '', '17688', 'Ординатор', <a href='https://orthodontia.ru/'>скачать файл</a>, 'Член ПОО', <a href='https://orthodontia.ru/'>скачать файл</a>, Действующий участник Школы ортодонтии, 17688, 17.10.2017 14:15
'9876', '', 'moiseenkodenis1@mail.ru', ' 79891255073', 'Моисеенко', 'Денис', 'Витальевич', 'Дентал Арт', 'Ортодонт', '1617', '', ',,', '', '', '', 'Ординатор', <a href='https://orthodontia.ru/'>скачать файл</a>, 'Член ПОО', <a href='https://orthodontia.ru/'>скачать файл</a>, Действующий участник Школы ортодонтии, , 17.10.2017 17:09
'9870', '', 'Soha.anastasiya@gmail.com', ' 7 (985) 281-0827', 'Соха', 'Анастасия', 'Юрьевна', 'ООО"Стоматология.Семейный доктор"', 'Ортодонт', '1617', '', ',,', '', '', '', 'Ординатор', <a href='https://orthodontia.ru/'>скачать файл</a>, 'Член ПОО', <a href='https://orthodontia.ru/'>скачать файл</a>, Действующий участник Школы ортодонтии, , 17.10.2017 17:15
'9870', '', 'Soha.anastasiya@gmail.com', ' 7 (985) 281-0827', 'Соха', 'Анастасия', 'Юрьевна', 'ООО"Стоматология.Семейный доктор"', 'Ортодонт', '1617', '', ',,', '', '', '17688', 'Ординатор', <a href='https://orthodontia.ru/'>скачать файл</a>, 'Член ПОО', <a href='https://orthodontia.ru/'>скачать файл</a>, Действующий участник Школы ортодонтии, 17688, 17.10.2017 17:16
'9876', '', 'moiseenkodenis1@mail.ru', ' 79891255073', 'Моисеенко', 'Денис', 'Витальевич', 'Дентал Арт', 'Ортодонт', '1617', '', ',,', '', '', '', 'Ординатор', <a href='https://orthodontia.ru/'>скачать файл</a>, 'Член ПОО', <a href='https://orthodontia.ru/'>скачать файл</a>, Действующий участник Школы ортодонтии, , 17.10.2017 17:17
'9870', '', 'lyankalyanka07@mail.ru', ' 7 (926)564-7111', 'Шахалиева ', 'Ляна ', 'Руслановна ', 'Мгмсу ', 'Ортодонт', '1617', '', ',,', '', '', '', 'Ординатор', <a href='https://orthodontia.ru/'>скачать файл</a>, 'Член ПОО', <a href='https://orthodontia.ru/'>скачать файл</a>, Действующий участник Школы ортодонтии, , 17.10.2017 20:28
'9876', '', 'moiseenkodenis1@mail.ru', ' 79891255073', 'Моисеенко', 'Денис', 'Витальевич', 'Дентал Арт', 'Ортодонт', '1617', '', ',,', '', '', '', 'Ординатор', <a href='https://orthodontia.ru/'>скачать файл</a>, 'Член ПОО', <a href='https://orthodontia.ru/'>скачать файл</a>, Действующий участник Школы ортодонтии, , 17.10.2017 21:47
'9870', '', 'tatianabogomolova20@mail.ru', ' 7 (926) 9679596', 'Богомолова', 'Татьяна', 'Эдуардовна', 'РУДН', 'Ортодонт', '1617', '', ',,', '', '', '', 'Ординатор', <a href='https://orthodontia.ru/'>скачать файл</a>, 'Член ПОО', <a href='https://orthodontia.ru/'>скачать файл</a>, Действующий участник Школы ортодонтии, , 17.10.2017 22:43
'9870', '', 'alr_92@mail.ru', ' 7 (965) 387-3809', 'Abubekirova', 'Lina', 'Ruslanovna', 'МГМСУ им А.И.Евдокимова', 'Ортодонт', '1617', '', ',,', '', '', '', 'Ординатор', <a href='https://orthodontia.ru/'>скачать файл</a>, 'Член ПОО', <a href='https://orthodontia.ru/'>скачать файл</a>, Действующий участник Школы ортодонтии, , 18.10.2017 10:15
'9871', '', 'mselinat@gmail.com', ' 79313818786', 'Елина ', 'Татьяна ', 'Юрьевна ', 'СЗГМУ им. И. И. Мечникова ', 'Ортодонт', '1617', '', ',,', '', '', '', 'Ординатор', <a href='https://orthodontia.ru/'>скачать файл</a>, 'Член ПОО', <a href='https://orthodontia.ru/'>скачать файл</a>, Действующий участник Школы ортодонтии, , 18.10.2017 10:51
'9871', '', 'mselinat@gmail.com', ' 79313818786', 'Елина ', 'Татьяна ', 'Юрьевна ', 'СЗГМУ им. И. И. Мечникова ', 'Ортодонт', '1617', '', ',,', '', '', '', 'Ординатор', <a href='https://orthodontia.ru/'>скачать файл</a>, 'Член ПОО', <a href='https://orthodontia.ru/'>скачать файл</a>, Действующий участник Школы ортодонтии, , 18.10.2017 10:54
'9871', '', 'snezzna@mail.ru', ' 7 (911) 174-5540', 'Старикова', 'Ирина', 'Федоровна', 'Конфиденция ', 'Ортодонт', '1617', '', ',,', '', '', '', 'Ординатор', <a href='https://orthodontia.ru/'>скачать файл</a>, 'Член ПОО', <a href='https://orthodontia.ru/'>скачать файл</a>, Действующий участник Школы ортодонтии, , 19.10.2017 00:07
'9871', '', 'snezzna@mail.ru', ' 7 (911) 174-5540', 'Старикова', 'Ирина', 'Федоровна', 'Конфиденция ', 'Ортодонт', '1617', '', ',,', '', '', '', 'Ординатор', <a href='https://orthodontia.ru/'>скачать файл</a>, 'Член ПОО', <a href='https://orthodontia.ru/'>скачать файл</a>, Действующий участник Школы ортодонтии, , 19.10.2017 00:12
'9871', '', 'snezzna@mail.ru', ' 7 (911) 174-5540', 'Старикова', 'Ирина', 'Федоровна', 'Конфиденция', 'Ортодонт', '1617', '', ',,', '', '', '', 'Ординатор', <a href='https://orthodontia.ru/'>скачать файл</a>, 'Член ПОО', <a href='https://orthodontia.ru/'>скачать файл</a>, Действующий участник Школы ортодонтии, , 19.10.2017 00:26
'9876', '', 'moiseenkodenis1@mail.ru', ' 79891255073', 'Моисеенко', 'Денис', 'Витальевич', 'Дентал Арт', 'Ортодонт', '1617', '', ',,', '', '', '', 'Ординатор', <a href='https://orthodontia.ru/'>скачать файл</a>, 'Член ПОО', <a href='https://orthodontia.ru/'>скачать файл</a>, Действующий участник Школы ортодонтии, , 19.10.2017 08:48
'9871', '', 'snezzna@mail.ru', ' 7 (911) 174-5540', 'Старикова', 'Ирина', 'Федоровна', 'Конфиденция ', 'Ортодонт', '1617', '', ',,', '', '', '', 'Ординатор', <a href='https://orthodontia.ru/'>скачать файл</a>, 'Член ПОО', <a href='https://orthodontia.ru/'>скачать файл</a>, Действующий участник Школы ортодонтии, , 19.10.2017 10:27
'9871', '', 'snezzna@mail.ru', ' 7 (911) 174-5540', 'Старикова', 'Ирина', 'Федоровна', 'Конфиденция ', 'Ортодонт', '1617', '', ',,', '', '', '', 'Ординатор', <a href='https://orthodontia.ru/'>скачать файл</a>, 'Член ПОО', <a href='https://orthodontia.ru/'>скачать файл</a>, Действующий участник Школы ортодонтии, , 19.10.2017 17:12
'9874', '', 'malora-d@mail.ru', ' 7 (908) 8031292', 'Погадаева', 'Лариса', 'Валерьевна', 'Ортодонт-центр', 'Ортодонт', '1617', '', ',,', '', '', '', 'Ординатор', <a href='https://orthodontia.ru/'>скачать файл</a>, 'Член ПОО', <a href='https://orthodontia.ru/'>скачать файл</a>, Действующий участник Школы ортодонтии, , 19.10.2017 17:27
'9874', '', 'malora-d@mail.ru', ' 7 (908) 8031292', 'Погадаева', 'Лариса', 'Валерьевна', 'Ортодонт-центр', 'Ортодонт', '1617', '', ',,', '', '', '4664', 'Ординатор', <a href='https://orthodontia.ru/'>скачать файл</a>, 'Член ПОО', <a href='https://orthodontia.ru/'>скачать файл</a>, Действующий участник Школы ортодонтии, 4664, 19.10.2017 17:28
'9874', '', 'dr.krylovamv@mail.ru', '89130090367', 'Крылова', 'Маргарита', 'Викторовна', 'RecomenDent ', 'Ортодонт', '1617', '', ',,', '', '', '', 'Ординатор', <a href='https://orthodontia.ru/'>скачать файл</a>, 'Член ПОО', <a href='https://orthodontia.ru/'>скачать файл</a>, Действующий участник Школы ортодонтии, , 19.10.2017 17:28
'9876', '', 'moiseenkodenis1@mail.ru', ' 79891255073', 'Моисеенко', 'Денис', 'Витальевич', 'Дентал Арт', 'Ортодонт', '1617', '', ',,', '', '', '', 'Ординатор', <a href='https://orthodontia.ru/'>скачать файл</a>, 'Член ПОО', <a href='https://orthodontia.ru/'>скачать файл</a>, Действующий участник Школы ортодонтии, , 19.10.2017 18:07
'9875', '', 'parunowa.tat@yandex.ru', '89051923106', 'Парунова', 'Александра', 'Дмитриевна', 'Айсберг ', 'Ортодонт', '1617', '', ',,', '', '', '', 'Ординатор', <a href='https://orthodontia.ru/'>скачать файл</a>, 'Член ПОО', <a href='https://orthodontia.ru/'>скачать файл</a>, Действующий участник Школы ортодонтии, , 19.10.2017 19:23
'9870', '', 'aa.zubkova@yandex.ru', ' 7 (985) 1979181', 'Зубкова', 'Анастасия', 'Александровна', 'ЧГМА', 'Ортодонт', '1617', '', ',,', '', '', '', 'Ординатор', <a href='https://orthodontia.ru/'>скачать файл</a>, 'Член ПОО', <a href='https://orthodontia.ru/'>скачать файл</a>, Действующий участник Школы ортодонтии, , 19.10.2017 21:23
'9870', '', 'aa.zubkova@yandex.ru', ' 7 (985) 1979181', 'Зубкова', 'Анастасия', 'Александровна', 'ЧГМА', 'Ортодонт', '1617', '', ',,', '', '', '', 'Ординатор', <a href='https://orthodontia.ru/'>скачать файл</a>, 'Член ПОО', <a href='https://orthodontia.ru/'>скачать файл</a>, Действующий участник Школы ортодонтии, , 19.10.2017 21:30
'9870', '', 'aa.zubkova@yandex.ru', ' 7 (985) 1979181', 'Зубкова', 'Анастасия', 'Александровна', 'ЧГМА', 'Ортодонт', '1617', '', ',,', '', '', '', 'Ординатор', <a href='https://orthodontia.ru/'>скачать файл</a>, 'Член ПОО', <a href='https://orthodontia.ru/'>скачать файл</a>, Действующий участник Школы ортодонтии, , 19.10.2017 21:36
'9873', '', 'yuliyaordinator@mail.ru', ' 7 (906) 043-3460', 'САфронова', 'Юлия', 'Александровна', 'ЦНИИС', 'Ортодонт', '1617', '', ',,', '', '', '17688', 'Ординатор', <a href='https://orthodontia.ru/'>скачать файл</a>, 'Член ПОО', <a href='https://orthodontia.ru/'>скачать файл</a>, Действующий участник Школы ортодонтии, 17688, 19.10.2017 21:40
'9873', '', 'yuliyaordinator@mail.ru', ' 7 (906) 043-3460', 'САфронова', 'Юлия', 'Александровна', 'ЦНИИС', 'Ортодонт', '1617', '', ',,', '', '', '17688', 'Ординатор', <a href='https://orthodontia.ru/'>скачать файл</a>, 'Член ПОО', <a href='https://orthodontia.ru/'>скачать файл</a>, Действующий участник Школы ортодонтии, 17688, 19.10.2017 21:40
'9874', '', 'nastyasham@mail.ru', ' 7 (923) 154-0898', 'Шилкина', 'Анастасия', 'Михайловна', 'Recomendent', 'Ортодонт', '1617', '', ',,', '', '', '', 'Ординатор', <a href='https://orthodontia.ru/'>скачать файл</a>, 'Член ПОО', <a href='https://orthodontia.ru/'>скачать файл</a>, Действующий участник Школы ортодонтии, , 20.10.2017 07:23
'9874', '', 'dr.krylovamv@mail.ru', '89130090367', 'Крылова', 'Маргарита', 'Викторовна', 'НГМУ', 'Ортодонт', '1617', '', ',,', '', '', '', 'Ординатор', <a href='https://orthodontia.ru/'>скачать файл</a>, 'Член ПОО', <a href='https://orthodontia.ru/'>скачать файл</a>, Действующий участник Школы ортодонтии, , 20.10.2017 08:12
'9870', '', 'aa.zubkova@yandex.ru', ' 7 (985) 1979181', 'Зубкова', 'Анастасия', 'Александровна', 'ЧГМА', 'Ортодонт', '1617', '', ',,', '', '', '', 'Ординатор', <a href='https://orthodontia.ru/'>скачать файл</a>, 'Член ПОО', <a href='https://orthodontia.ru/'>скачать файл</a>, Действующий участник Школы ортодонтии, , 20.10.2017 09:12
'9870', '', 'aa.zubkova@yandex.ru', ' 7 (985) 1979181', 'Зубкова', 'Анастасия', 'Александровна', 'ЧГМА', 'Ортодонт', '1617', '', ',,', '', '', '', 'Ординатор', <a href='https://orthodontia.ru/'>скачать файл</a>, 'Член ПОО', <a href='https://orthodontia.ru/'>скачать файл</a>, Действующий участник Школы ортодонтии, , 20.10.2017 09:47
'9870', '', 'aa.zubkova@yandex.ru', ' 7 (985) 1979181', 'Зубкова', 'Анастасия', 'Александровна', 'ЧГМА', 'Ортодонт', '1617', '', ',,', '', '', '', 'Ординатор', <a href='https://orthodontia.ru/'>скачать файл</a>, 'Член ПОО', <a href='https://orthodontia.ru/'>скачать файл</a>, Действующий участник Школы ортодонтии, , 20.10.2017 11:02
'9871', '', 'rumiancev_pavel@mail.ru', ' 7 (921) 3124007', 'Румянцев', 'Павел', 'Иванович', 'test', 'Хирург', '1617', '', ',,', '', '', '', 'Ординатор', <a href='https://orthodontia.ru/'>скачать файл</a>, 'Член ПОО', <a href='https://orthodontia.ru/'>скачать файл</a>, Действующий участник Школы ортодонтии, , 20.10.2017 14:39
'9871', '', 'rumiancev_pavel@mail.ru', ' 7 (921) 3124007', 'Румянцев', 'Павел', 'Иванович', 'test', 'Хирург', '1617', '', ',,', '', '', '4664', 'Ординатор', <a href='https://orthodontia.ru/'>скачать файл</a>, 'Член ПОО', <a href='https://orthodontia.ru/'>скачать файл</a>, Действующий участник Школы ортодонтии, 4664, 20.10.2017 14:39
'9871', '', 'rumiancev_pavel@mail.ru', ' 7 (921) 3124007', 'Румянцев', 'Павел', 'Иванович', 'test', 'Хирург', '1617', '', ',,', '', '', '', 'Ординатор', <a href='https://orthodontia.ru/'>скачать файл</a>, 'Член ПОО', <a href='https://orthodontia.ru/'>скачать файл</a>, Действующий участник Школы ортодонтии, , 20.10.2017 14:54
'9871', '', 'rumiancev_pavel@mail.ru', ' 7 (921) 3124007', 'Румянцев', 'Павел', 'Иванович', 'test', 'Хирург', '1617', '', ',,', '', '', '4664', 'Ординатор', <a href='https://orthodontia.ru/'>скачать файл</a>, 'Член ПОО', <a href='https://orthodontia.ru/'>скачать файл</a>, Действующий участник Школы ортодонтии, 4664, 20.10.2017 14:54
'9871', '', 'nino-kvitsiany@mail.ru', ' 7 (960) 2678162', 'Квициани ', 'Нино', 'Фридоновна', 'СтомГарант', 'Ортодонт', '1617', '', ',,', '', '', '', 'Ординатор', <a href='https://orthodontia.ru/'>скачать файл</a>, 'Член ПОО', <a href='https://orthodontia.ru/'>скачать файл</a>, Действующий участник Школы ортодонтии, , 20.10.2017 15:08
'9871', '', 'rumiancev_pavel@mail.ru', ' 7 (921) 3124007', 'Румянцев', 'Павел', 'Иванович', 'test', 'Хирург', '1617', '', ',,', '', '', '', 'Ординатор', <a href='https://orthodontia.ru/'>скачать файл</a>, 'Член ПОО', <a href='https://orthodontia.ru/'>скачать файл</a>, Действующий участник Школы ортодонтии, , 20.10.2017 15:21
'9871', '', 'rumiancev_pavel@mail.ru', ' 7 (921) 3124007', 'Румянцев', 'Павел', 'Иванович', 'test', 'Хирург', '1617', '', ',,', '', '', '17688', 'Ординатор', <a href='https://orthodontia.ru/'>скачать файл</a>, 'Член ПОО', <a href='https://orthodontia.ru/'>скачать файл</a>, Действующий участник Школы ортодонтии, 17688, 20.10.2017 15:21
'9871', '', 'rumiancev_pavel@mail.ru', ' 7 (921) 3124007', 'Румянцев', 'Павел', 'Иванович', 'test', 'Хирург', '1617', '', ',,', '', '', '', 'Ординатор', <a href='https://orthodontia.ru/'>скачать файл</a>, 'Член ПОО', <a href='https://orthodontia.ru/'>скачать файл</a>, Действующий участник Школы ортодонтии, , 20.10.2017 15:40
'9871', '', 'rumiancev_pavel@mail.ru', ' 7 (921) 3124007', 'Румянцев', 'Павел', 'Иванович', 'test', 'Хирург', '1617', '', ',,', '', '', '4664', 'Ординатор', <a href='https://orthodontia.ru/'>скачать файл</a>, 'Член ПОО', <a href='https://orthodontia.ru/'>скачать файл</a>, Действующий участник Школы ортодонтии, 4664, 20.10.2017 15:40
'9870', '', 'Zami.m@me.com', ' 7 (926) 997-7058', 'Дибирова', 'Замира', 'Шейхмагомедовна ', 'Мгмсу', 'Ортодонт', '1617', '', ',,', '', '', '', 'Ординатор', <a href='https://orthodontia.ru/'>скачать файл</a>, 'Член ПОО', <a href='https://orthodontia.ru/'>скачать файл</a>, Действующий участник Школы ортодонтии, , 20.10.2017 15:46
'9872', '', 'prosto_katya_94@mail.ru', ' 7 (951) 698-2132', 'Переходова', 'Екатерина', 'Дмитриевна', 'Смоленский государственный медицинский университет', 'Ортодонт', '1617', '', ',,', '', '', '17688', 'Ординатор', <a href='https://orthodontia.ru/'>скачать файл</a>, 'Член ПОО', <a href='https://orthodontia.ru/'>скачать файл</a>, Действующий участник Школы ортодонтии, 17688, 20.10.2017 19:50
'9873', '', 'evreren@yandex.ru', ' 7 (910) 3009708', 'Ререн', 'Екатерина', 'Владимировна', 'РязГМУ', 'Ортодонт', '1617', '', ',,', '', '', '17688', 'Ординатор', <a href='https://orthodontia.ru/'>скачать файл</a>, 'Член ПОО', <a href='https://orthodontia.ru/'>скачать файл</a>, Действующий участник Школы ортодонтии, 17688, 20.10.2017 22:57
'9870', '', 'doronina.dok@yandex.ru', ' 79163110361', 'Доронина', 'Лана', 'Владимировна', 'Мгмсу', 'Ортодонт', '1617', '', ',,', '', '', '4663', 'Ординатор', <a href='https://orthodontia.ru/'>скачать файл</a>, 'Член ПОО', <a href='https://orthodontia.ru/'>скачать файл</a>, Действующий участник Школы ортодонтии, 4663, 21.10.2017 08:58
'9870', '', 'tatianabogomolova20@mail.ru', ' 7 (926) 9679596', 'Богомолова', 'Татьяна', 'Эдуардовна', 'РУДН', 'Ортодонт', '1617', '', ',,', '', '', '17688', 'Ординатор', <a href='https://orthodontia.ru/'>скачать файл</a>, 'Член ПОО', <a href='https://orthodontia.ru/'>скачать файл</a>, Действующий участник Школы ортодонтии, 17688, 21.10.2017 22:10
'9870', '', 'mikhailova-lv@yandex.ru', '89175209548', 'Михайлова', 'Людмила', 'Викторовна', '3-д стоматология(Дюна) в Электростали ', 'Ортодонт', '1617', '', ',,', '', '', '17688', 'Ординатор', <a href='https://orthodontia.ru/'>скачать файл</a>, 'Член ПОО', <a href='https://orthodontia.ru/'>скачать файл</a>, Действующий участник Школы ортодонтии, 17688, 23.10.2017 11:36
'9870', '', 'aa.zubkova@yandex.ru', ' 7 (985) 1979181', 'Зубкова', 'Анастасия', 'Александровна', 'ЧГМА', 'Ортодонт', '1617', '', ',,', '', '', '', 'Ординатор', <a href='https://orthodontia.ru/'>скачать файл</a>, 'Член ПОО', <a href='https://orthodontia.ru/'>скачать файл</a>, Действующий участник Школы ортодонтии, , 24.10.2017 14:59
'9871', '', 'rumiancev_pavel@mail.ru', ' 7 (921) 3124007', 'Румянцев', 'Павел', 'Иванович', 'test', 'Хирург', '1617', '', ',,', '', '', '4664', 'Ординатор', <a href='https://orthodontia.ru/'>скачать файл</a>, 'Член ПОО', <a href='https://orthodontia.ru/'>скачать файл</a>, Действующий участник Школы ортодонтии, 4664, 24.10.2017 16:35
'9876', '', 'moiseenkodenis1@mail.ru', ' 79891255073', 'Моисеенко', 'Денис', 'Витальевич', 'Дентал Арт', 'Ортодонт', '1617', '', ',,', '', '', '17688', 'Ординатор', <a href='https://orthodontia.ru/'>скачать файл</a>, 'Член ПОО', <a href='https://orthodontia.ru/'>скачать файл</a>, Действующий участник Школы ортодонтии, 17688, 24.10.2017 16:50
'9870', '', 'aa.zubkova@yandex.ru', ' 7 (985) 1979181', 'Зубкова', 'Анастасия', 'Александровна', 'ЧГМА', 'Ортодонт', '1617', '', ',,', '', '', '17688', 'Ординатор', <a href='https://orthodontia.ru/'>скачать файл</a>, 'Член ПОО', <a href='https://orthodontia.ru/'>скачать файл</a>, Действующий участник Школы ортодонтии, 17688, 25.10.2017 15:29
'9873', '', 'doctor.nvr@mail.ru', ' 7 (910) 911-0960', 'Родионова', 'Наталья', 'Васильевна', 'ФГБУЗ Кб 8', 'Ортодонт', '1617', '', ',,', '', '', '17688', 'Ординатор', <a href='https://orthodontia.ru/'>скачать файл</a>, 'Член ПОО', <a href='https://orthodontia.ru/'>скачать файл</a>, Действующий участник Школы ортодонтии, 17688, 26.10.2017 10:44
'9871', '', 'juli_dent@mail.ru', ' 7 (952) 3831600', 'Антонова', 'Юлия', 'Анатольевна', 'ПСПБГМУ им акад.Павлова', 'Ортодонт', '1617', '', ',,', '', '', '4664', 'Ординатор', <a href='https://orthodontia.ru/'>скачать файл</a>, 'Член ПОО', <a href='https://orthodontia.ru/'>скачать файл</a>, Действующий участник Школы ортодонтии, 4664, 26.10.2017 23:12
'9871', '', 'natalia.postnikova@ormco.com', ' 79219697768', 'Постникова', 'Наталья', 'Алексеевна', 'ormco', 'Не врач', '1617', '', ',,', '', '', '4664', 'Ординатор', <a href='https://orthodontia.ru/'>скачать файл</a>, 'Член ПОО', <a href='https://orthodontia.ru/'>скачать файл</a>, Действующий участник Школы ортодонтии, 4664, 30.10.2017 12:05
'9870', '', 'pipenlo@mail.ru', ' 7 (916) 065-8778', 'Оганесян', 'Аветис', 'Арменович', 'Ангел Дент', 'Ортодонт', '1617', '', ',,', '', '', '17688', 'Ординатор', <a href='https://orthodontia.ru/'>скачать файл</a>, 'Член ПОО', <a href='https://orthodontia.ru/'>скачать файл</a>, Действующий участник Школы ортодонтии, 17688, 30.10.2017 14:48
'9874', '', 'dr.krylovamv@mail.ru', '89130090367', 'Крылова', 'Маргарита', 'Викторовна', 'НГМУ', 'Ортодонт', '1617', '', ',,', '', '', '17688', 'Ординатор', <a href='https://orthodontia.ru/'>скачать файл</a>, 'Член ПОО', <a href='https://orthodontia.ru/'>скачать файл</a>, Действующий участник Школы ортодонтии, 17688, 30.10.2017 15:02
'9871', '', 'nastya29@bk.ru', ' 7 (911) 9886768', 'Турубара', 'Анастасия', 'Юрьевна', 'СЗГМУ им.Мечникова', 'Ортодонт', '1617', '', ',,', '', '', '4664', 'Ординатор', <a href='https://orthodontia.ru/'>скачать файл</a>, 'Член ПОО', <a href='https://orthodontia.ru/'>скачать файл</a>, Действующий участник Школы ортодонтии, 4664, 30.10.2017 18:02
'9871', '', 'vikkibrown@mail.ru', ' 7 (965) 079-93-43', 'Козлова', 'Виктория', 'Олеговна', 'ПСПбГМУ им.акад.Павлова', 'Ортодонт', '1617', '', ',,', '', '', '4664', 'Ординатор', <a href='https://orthodontia.ru/'>скачать файл</a>, 'Член ПОО', <a href='https://orthodontia.ru/'>скачать файл</a>, Действующий участник Школы ортодонтии, 4664, 30.10.2017 20:49
'9873', '', 'yuliyaordinator@mail.ru', ' 7 (906) 043-3460', 'САфронова', 'Юлия', 'Александровна', 'ЦНИИСиЧЛХ', 'Ортодонт', '1617', '', ',,', '', '', '17688', 'Ординатор', <a href='https://orthodontia.ru/'>скачать файл</a>, 'Член ПОО', <a href='https://orthodontia.ru/'>скачать файл</a>, Действующий участник Школы ортодонтии, 17688, 01.11.2017 14:30
'9878', '', 'alekseilit@mail.ru', ' 7 (892) 2043087', 'Литвинцев', 'Алексей', 'Сергеевич', 'Мега-Дент', 'Ортодонт', '1617', '', ',,', '', '', '4664', 'Ординатор', <a href='https://orthodontia.ru/'>скачать файл</a>, 'Член ПОО', <a href='https://orthodontia.ru/'>скачать файл</a>, Действующий участник Школы ортодонтии, 4664, 01.11.2017 16:18
'9870', '', 'lelekMD@yandex.ru', ' 7 (977) 6767456', 'Доставалова', 'Ольга ', 'Михайловна', 'ГАУЗ МО КСП им. Л.Ф. Смуровой', 'Ортодонт', '1617', '', ',,', '', '', '4663', 'Ординатор', <a href='https://orthodontia.ru/'>скачать файл</a>, 'Член ПОО', <a href='https://orthodontia.ru/'>скачать файл</a>, Действующий участник Школы ортодонтии, 4663, 01.11.2017 22:33
'9873', '', 'garringiper@rambler.ru', '89190426366', 'Михайлов', 'Роман', 'Алексеевич', 'New Smile', 'Ортодонт', '1617', '', ',,', '', '', '17688', 'Ординатор', <a href='https://orthodontia.ru/'>скачать файл</a>, 'Член ПОО', <a href='https://orthodontia.ru/'>скачать файл</a>, Действующий участник Школы ортодонтии, 17688, 04.11.2017 16:54
'9870', '', 'M.V.Dolgopolova@yandex.ru', ' 7 (903) 7662610', 'Долгополова ', 'Мария', 'Викторовна', 'Ортодонт Центр', 'Ортодонт', '1617', '', ',,', '', '', '17688', 'Ординатор', <a href='https://orthodontia.ru/'>скачать файл</a>, 'Член ПОО', <a href='https://orthodontia.ru/'>скачать файл</a>, Действующий участник Школы ортодонтии, 17688, 04.11.2017 22:31
'9873', '', 'panterka0608@gmail.com', ' 7 (999) 7852006', 'Абрамова', 'Ольга', 'Владимировна', 'ООО "Мишутка"', 'Другая специализация', '1617', '', ',,', '', '', '4663', 'Ординатор', <a href='https://orthodontia.ru/'>скачать файл</a>, 'Член ПОО', <a href='https://orthodontia.ru/'>скачать файл</a>, Действующий участник Школы ортодонтии, 4663, 06.11.2017 11:16
'9873', '', 'panterka0608@gmail.com', ' 7 (999) 7852006', 'Абрамова', 'Ольга', 'Владимировна', 'ООО "Мишутка"', 'Другая специализация', '1617', '', ',,', '', '', '4663', 'Ординатор', <a href='https://orthodontia.ru/'>скачать файл</a>, 'Член ПОО', <a href='https://orthodontia.ru/'>скачать файл</a>, Действующий участник Школы ортодонтии, 4663, 06.11.2017 11:19
'9870', '', 'Gusakovsergeyv@yandex.ru', ' 7 (916) 6009489', 'Гусаков ', 'Сергей ', 'Вячеславович ', 'МГМСУ', 'Ортодонт', '1617', '', ',,', '', '', '17688', 'Ординатор', <a href='https://orthodontia.ru/'>скачать файл</a>, 'Член ПОО', <a href='https://orthodontia.ru/'>скачать файл</a>, Действующий участник Школы ортодонтии, 17688, 07.11.2017 19:42
'9870', '', 'zhenya77.91@mail.ru', ' 7 (925) 3507239', 'Шевченко', 'Евгения', 'Владимировна', 'ГАУЗ МО "Можайская стоматологическая поликлиника"', 'Ортодонт', '1617', '', ',,', '', '', '', 'Ординатор', <a href='https://orthodontia.ru/'>скачать файл</a>, 'Член ПОО', <a href='https://orthodontia.ru/'>скачать файл</a>, Действующий участник Школы ортодонтии, , 08.11.2017 12:59
'9873', '', 'panterka0608@gmail.com', ' 7 (999) 7852006', 'Абрамова', 'Ольга', 'Владимировна', 'ООО"Мишутка"', 'Другая специализация', '1617', '', ',,', '', '', '4663', 'Ординатор', <a href='https://orthodontia.ru/'>скачать файл</a>, 'Член ПОО', <a href='https://orthodontia.ru/'>скачать файл</a>, Действующий участник Школы ортодонтии, 4663, 08.11.2017 13:53
'9870', '', 'margarita_ipatova@mail.ru', ' 7 (985) 5148745', 'Ипатова', 'Маргарита', 'Юрьевна', 'МГМСУ им.Евдокимова', 'Ортодонт', '1617', '', ',,', '', '', '17688', 'Ординатор', <a href='https://orthodontia.ru/'>скачать файл</a>, 'Член ПОО', <a href='https://orthodontia.ru/'>скачать файл</a>, Действующий участник Школы ортодонтии, 17688, 08.11.2017 15:15
'9878', '', 'timmerbest90@mail.ru', ' 7 (951) 778-3430', 'Казновский', 'Тимур', 'Габбасович', 'ЧелГМА', 'Ортодонт', '1617', '', ',,', '', '', '', 'Ординатор', <a href='https://orthodontia.ru/'>скачать файл</a>, 'Член ПОО', <a href='https://orthodontia.ru/'>скачать файл</a>, Действующий участник Школы ортодонтии, , 08.11.2017 23:25
'9875', '', 'nebo-sky15@yandex.ru', ' 7 (912) 4857962', 'Сеник', 'Наталья', 'Евгеньевна', 'ооо"Поликлиника"ЮКАС"', 'Ортодонт', '1617', '', ',,', '', '', '17688', 'Ординатор', <a href='https://orthodontia.ru/'>скачать файл</a>, 'Член ПОО', <a href='https://orthodontia.ru/'>скачать файл</a>, Действующий участник Школы ортодонтии, 17688, 09.11.2017 13:27
'9870', '', 'serova_nasta@mail.ru', ' 7 (915) 3210722', 'Серова ', 'Анастасия ', 'Олеговна ', 'ТГМУ', 'Ортодонт', '1617', '', ',,', '', '', '17688', 'Ординатор', <a href='https://orthodontia.ru/'>скачать файл</a>, 'Член ПОО', <a href='https://orthodontia.ru/'>скачать файл</a>, Действующий участник Школы ортодонтии, 17688, 09.11.2017 15:01
'9873', '', 'elena_orlova.1994@mail.ru', '8-952-063-10-66', 'Орлова', 'Елена', 'Валерьевна', 'ТГМУ', 'Ортодонт', '1617', '', ',,', '', '', '4663', 'Ординатор', <a href='https://orthodontia.ru/'>скачать файл</a>, 'Член ПОО', <a href='https://orthodontia.ru/'>скачать файл</a>, Действующий участник Школы ортодонтии, 4663, 09.11.2017 16:22
'9874', '', 's333tm@mail.ru', ' 7 (904)960-0066', 'Кочергина', 'Евгения', 'Олеговна', 'КемГМУ', 'Ортодонт', '1617', '', ',,', '', '', '4664', 'Ординатор', <a href='https://orthodontia.ru/'>скачать файл</a>, 'Член ПОО', <a href='https://orthodontia.ru/'>скачать файл</a>, Действующий участник Школы ортодонтии, 4664, 10.11.2017 14:05
'9876', '', 'iovkova-n@mail.ru', ' 79044306544', 'Иовкова', 'Наталия', 'Романовна', 'ВолгГМУ', 'Ортодонт', '1617', '', ',,', '', '', '17688', 'Ординатор', <a href='https://orthodontia.ru/'>скачать файл</a>, 'Член ПОО', <a href='https://orthodontia.ru/'>скачать файл</a>, Действующий участник Школы ортодонтии, 17688, 12.11.2017 16:44
'9871', '', 'kogonianna@mail.ru', ' 7 (905) 2752432', 'Когония', 'Анна', 'Баталовна', 'Санкт-Петербургский Государственный Педиатрический Университет', 'Ортодонт', '1617', '', ',,', '', '', '17688', 'Ординатор', <a href='https://orthodontia.ru/'>скачать файл</a>, 'Член ПОО', <a href='https://orthodontia.ru/'>скачать файл</a>, Действующий участник Школы ортодонтии, 17688, 12.11.2017 23:49
'9879', '', 'pol.lyudmila@yandex.ru', ' 7 (914) 0372810', 'Полищук', 'Людмила', 'Андреевна', 'Клиника', 'Ортодонт', '1617', '', ',,', '', '', '17688', 'Ординатор', <a href='https://orthodontia.ru/'>скачать файл</a>, 'Член ПОО', <a href='https://orthodontia.ru/'>скачать файл</a>, Действующий участник Школы ортодонтии, 17688, 13.11.2017 09:36
'9870', '', 'gezulya76@yandex.ru', ' 7 (915) 135-9169', 'Савельева', 'Полина', 'Евгеньевна', 'Дентал Вей', 'Ортодонт', '1617', '', ',,', '', '', '4664', 'Ординатор', <a href='https://orthodontia.ru/'>скачать файл</a>, 'Член ПОО', <a href='https://orthodontia.ru/'>скачать файл</a>, Действующий участник Школы ортодонтии, 4664, 13.11.2017 10:02
'9873', '', 'doc.miva@ya.ru', ' 7 (961)175-6555', 'Михальчева ', 'Валерия', 'Алнксандровна', 'Таомед', 'Ортодонт', '1617', '', ',,', '', '', '17688', 'Ординатор', <a href='https://orthodontia.ru/'>скачать файл</a>, 'Член ПОО', <a href='https://orthodontia.ru/'>скачать файл</a>, Действующий участник Школы ортодонтии, 17688, 13.11.2017 11:35
'9874', '', 'annet_179@mail.ru', ' 7 (961) 737-9777', 'Иванова', 'Анна', 'Федоровна', 'КемГМУ', 'Ортодонт', '1617', '', ',,', '', '', '4664', 'Ординатор', <a href='https://orthodontia.ru/'>скачать файл</a>, 'Член ПОО', <a href='https://orthodontia.ru/'>скачать файл</a>, Действующий участник Школы ортодонтии, 4664, 13.11.2017 14:38
'9870', '', 'stomatdoctor@gmail.com', ' 7 (965) 148-1793', 'Богданова', 'Юлия', 'Владимировна', 'Денталфэнтази', 'Ортодонт', '1617', '', ',,', '', '', '17688', 'Ординатор', <a href='https://orthodontia.ru/'>скачать файл</a>, 'Член ПОО', <a href='https://orthodontia.ru/'>скачать файл</a>, Действующий участник Школы ортодонтии, 17688, 14.11.2017 15:14
'9871', '', 'aectcko@gmail.com', ' ‭‭ 7 (981) 150-97-01‬‬', 'Юркевич', 'Вадим', 'Олегович', 'инстом', 'Ортодонт', '1617', '', ',,', '', '', '4664', 'Ординатор', <a href='https://orthodontia.ru/'>скачать файл</a>, 'Член ПОО', <a href='https://orthodontia.ru/'>скачать файл</a>, Действующий участник Школы ортодонтии, 4664, 14.11.2017 16:43
'9872', '', 'olenka032008@mail.ru', ' 79201915654', 'Demidova', 'Olga', 'Alexandrovna', 'ТГМА', 'Ортодонт', '1617', '', ',,', '', '', '17688', 'Ординатор', <a href='https://orthodontia.ru/'>скачать файл</a>, 'Член ПОО', <a href='https://orthodontia.ru/'>скачать файл</a>, Действующий участник Школы ортодонтии, 17688, 14.11.2017 17:26
'9871', '', 'yulikabobrikova94@gmail.com', ' 7 (931) 9850507', 'Бобрикова', 'Юлия ', 'Геннадьевна', 'СПбИНСТОМ', 'Ортодонт', '1617', '', ',,', '', '', '17688', 'Ординатор', <a href='https://orthodontia.ru/'>скачать файл</a>, 'Член ПОО', <a href='https://orthodontia.ru/'>скачать файл</a>, Действующий участник Школы ортодонтии, 17688, 20.11.2017 16:07
'9870', '', 'alena.kizim.93@mail.ru', '  7 985 315 91 04', 'Кизим', 'Алена', 'Сергеевна', 'Ординатор ЦГМА УД Президента РФ', 'Ортодонт', '1617', '', ',,', '', '', '17688', 'Ординатор', <a href='https://orthodontia.ru/'>скачать файл</a>, 'Член ПОО', <a href='https://orthodontia.ru/'>скачать файл</a>, Действующий участник Школы ортодонтии, 17688, 21.11.2017 16:07
'9870', '', 'vusal92-92@mail.ru', ' 7 (915) 281-6748', 'Гаджиев', 'Вусал', 'Эльханович', 'МГМСУ им. А.И. Евдокимова', 'Ортодонт', '1617', '', ',,', '', '', '17688', 'Ординатор', <a href='https://orthodontia.ru/'>скачать файл</a>, 'Член ПОО', <a href='https://orthodontia.ru/'>скачать файл</a>, Действующий участник Школы ортодонтии, 17688, 21.11.2017 21:24
'9870', '', 'natik_88@inbox.ru', '89679883773', 'сергеева', 'наталья', 'николаевна', 'МЦК', 'Ортодонт', '1617', '', ',,', '', '', '17688', 'Ординатор', <a href='https://orthodontia.ru/'>скачать файл</a>, 'Член ПОО', <a href='https://orthodontia.ru/'>скачать файл</a>, Действующий участник Школы ортодонтии, 17688, 21.11.2017 23:26
'9875', '', 'blik-80@mail.ru', '89123619651', 'Плотникова', 'Ольга', 'Станиславовна', 'ООО"БЛИК"', 'Ортодонт', '1617', '', ',,', '', '', '', 'Ординатор', <a href='https://orthodontia.ru/'>скачать файл</a>, 'Член ПОО', <a href='https://orthodontia.ru/'>скачать файл</a>, Действующий участник Школы ортодонтии, , 22.11.2017 11:31
'9870', '', 'Dr.boltovskaya@gmail.com', ' 7 (916) 838-2333', 'Болтовская', 'Виктория', 'Александровна', 'Мед', 'Ортодонт', '1617', '', ',,', '', '', '17688', 'Ординатор', <a href='https://orthodontia.ru/'>скачать файл</a>, 'Член ПОО', <a href='https://orthodontia.ru/'>скачать файл</a>, Действующий участник Школы ортодонтии, 17688, 22.11.2017 16:10
'9873', '', 'tat.pogost@yandex.ru', ' 7 (910) 9402742', 'Погост', 'Татьяна', 'Александровна', 'АО "Стоматолог"', 'Ортодонт', '1617', '', ',,', '', '', '4666', 'Ординатор', <a href='https://orthodontia.ru/'>скачать файл</a>, 'Член ПОО', <a href='https://orthodontia.ru/'>скачать файл</a>, Действующий участник Школы ортодонтии, 4666, 22.11.2017 16:30
'9870', '', 'tamuna1105@mail.ru', ' 7 (916) 111-7485', 'Гегечкори', 'Тамуна', 'Александровна', 'МГМСУ им.Евдокимова', 'Ортодонт', '1617', '', ',,', '', '', '17688', 'Ординатор', <a href='https://orthodontia.ru/'>скачать файл</a>, 'Член ПОО', <a href='https://orthodontia.ru/'>скачать файл</a>, Действующий участник Школы ортодонтии, 17688, 24.11.2017 02:19
'9876', '', 'katerina_maksyukova@mail.ru', ' 7 (918)546-4432', 'Максюкова', 'Екатерина', 'Станиславовна', 'Макси-Дент', 'Ортодонт', '1617', '', ',,', '', '', '17688', 'Ординатор', <a href='https://orthodontia.ru/'>скачать файл</a>, 'Член ПОО', <a href='https://orthodontia.ru/'>скачать файл</a>, Действующий участник Школы ортодонтии, 17688, 27.11.2017 11:38
'9870', '', 'anisimov-orthodont@yandex.ru', ' 7 (953) 6141565', 'Анисимов', 'Сергей ', 'Юрьевич', 'МГМСУ', 'Ортодонт', '1617', '', ',,', '', '', '17688', 'Ординатор', <a href='https://orthodontia.ru/'>скачать файл</a>, 'Член ПОО', <a href='https://orthodontia.ru/'>скачать файл</a>, Действующий участник Школы ортодонтии, 17688, 27.11.2017 19:41
'9875', '', 'euromedorthodont@gmail.com', ' 7 (919) 900-522', 'Протопопов', 'Андрей', 'Юрьевич', 'ООО СП "ЕВРОМЕД"', 'Ортодонт', '1617', '', ',,', '', '', '4666', 'Ординатор', <a href='https://orthodontia.ru/'>скачать файл</a>, 'Член ПОО', <a href='https://orthodontia.ru/'>скачать файл</a>, Действующий участник Школы ортодонтии, 4666, 30.11.2017 10:40
'9874', '', 'dr.sakovich.a@mail.ru', ' 7 (961) 7112971', 'Сакович', 'Алина', 'Олеговна', 'ООО "Доктор Мешалкин" ', 'Ортодонт', '1617', '', ',,', '', '', '4664', 'Ординатор', <a href='https://orthodontia.ru/'>скачать файл</a>, 'Член ПОО', <a href='https://orthodontia.ru/'>скачать файл</a>, Действующий участник Школы ортодонтии, 4664, 30.11.2017 13:43
'9876', '', 'bizkit30@yandex.ru', ' 79189649607 ', 'Широкова', 'Ольга', 'Игоревна', 'Кубгму', 'Ортодонт', '1617', '', ',,', '', '', '17688', 'Ординатор', <a href='https://orthodontia.ru/'>скачать файл</a>, 'Член ПОО', <a href='https://orthodontia.ru/'>скачать файл</a>, Действующий участник Школы ортодонтии, 17688, 01.12.2017 13:39
'9870', '', 'adamidi.v@gmail.com', ' 7 (915) 484-3879', 'Адамиди', 'Виктория', 'Евгеньевна', 'Все Свои', 'Ортодонт', '1617', '', ',,', '', '', '17688', 'Ординатор', <a href='https://orthodontia.ru/'>скачать файл</a>, 'Член ПОО', <a href='https://orthodontia.ru/'>скачать файл</a>, Действующий участник Школы ортодонтии, 17688, 06.12.2017 12:38
