<svg width="17" height="38" viewBox="0 0 17 38" fill="none" xmlns="http://www.w3.org/2000/svg">
<path fill-rule="evenodd" clip-rule="evenodd" d="M8.5 0C9.32843 0 10 0.671573 10 1.5L10 35H7L7 1.5C7 0.671574 7.67157 0 8.5 0Z" fill="white"/>
<path fill-rule="evenodd" clip-rule="evenodd" d="M15.9515 28.9462C16.4984 29.4661 16.5016 30.3081 15.9586 30.8317L8.52437 37.9999L7.02213 35.5423L13.9609 28.9462C14.5106 28.4236 15.4018 28.4236 15.9515 28.9462Z" fill="white"/>
<path fill-rule="evenodd" clip-rule="evenodd" d="M9.928 35.5422L2.98628 28.9433C2.43821 28.4223 1.54962 28.4223 1.00155 28.9433C0.453956 29.4638 0.453413 30.3077 1.00034 30.8289L8.52561 37.9999L9.928 35.5422Z" fill="white"/>
</svg>
