<svg width="32" height="32" viewBox="0 0 32 32" fill="none" xmlns="http://www.w3.org/2000/svg">
<circle cx="16" cy="16" r="15" fill="#1457A4" stroke="#1457A4" stroke-width="2"/>
<path fill-rule="evenodd" clip-rule="evenodd" d="M17.4436 16V8.77954L20.2328 7.18418V5.43984L18.7883 4.59406L17.4937 5.34208V3.84708L15.9987 3L14.5048 3.84708V5.39226L13.2105 4.59406L11.7168 5.43984V7.1353L14.5048 8.77954V16H17.4436Z" fill="white"/>
<path fill-rule="evenodd" clip-rule="evenodd" d="M17.4436 16V23.2218L20.2328 24.8171V26.5602L18.7883 27.4059L17.4937 26.6577V28.1542L15.9987 29L14.5048 28.1542V26.609L13.2105 27.4059L11.7168 26.5602V24.866L14.5048 23.2218V16H17.4436Z" fill="white"/>
<path fill-rule="evenodd" clip-rule="evenodd" d="M16.6976 14.7054L10.4708 11.1189V7.88191L8.97687 7.03613L7.53205 7.88191V9.37561L6.23908 8.62889L4.74512 9.52485V11.2193L6.03836 11.9647L4.74512 12.7127V14.4071L6.18734 15.2532L8.97687 13.6589L15.2527 17.2944L16.6976 14.7054Z" fill="white"/>
<path fill-rule="evenodd" clip-rule="evenodd" d="M16.6973 14.7053L22.9716 18.3406L25.7611 16.7466L27.2561 17.5937V19.287L25.9603 20.0351L27.2561 20.7818V22.5251L25.7611 23.3719L24.4164 22.6252V24.1176L22.9716 24.966L21.5281 24.1176L21.4776 20.8806L15.2524 17.2944L16.6973 14.7053Z" fill="white"/>
<path fill-rule="evenodd" clip-rule="evenodd" d="M15.2523 14.7053L8.97645 18.3406L6.23865 16.7466L4.74365 17.5937V19.287L6.03793 20.0351L4.74365 20.7818V22.5251L6.18691 23.3719L7.53163 22.6252V24.1176L8.97645 24.966L10.4704 24.1176V20.8806L16.6972 17.2944L15.2523 14.7053Z" fill="white"/>
<path fill-rule="evenodd" clip-rule="evenodd" d="M15.2524 14.7054L21.4792 11.1189V7.88191L22.9716 7.03613L24.4164 7.88191L24.4666 9.37561L25.7122 8.62889L27.2561 9.52485V11.2193L25.9104 11.9647L27.2561 12.7127V14.4071L25.7627 15.2532L22.9716 13.6589L16.6973 17.2944L15.2524 14.7054Z" fill="white"/>
</svg>
