array (
  'alldata' => '',
  'regularprice' => '12000',
  'file' => '',
  'events' => '1877',
  'email' => 'st@insday.ru',
  'password' => '',
  'password2' => '',
  'lname' => 'Таран',
  'fname' => 'Сергей',
  'father_name' => 'Борисович',
  'phone' => '321654987',
  'city' => 'СПб',
  'company' => 'saddf',
  'yurname' => '',
  'fio_rukovoditelya' => '',
  'dolzhnost' => '',
  'contact_person' => '',
  'yuremail' => '',
  'phone_number' => '',
  'fax' => '',
  'inn' => '',
  'kpp' => '',
  'account' => '',
  'bik' => '',
  'bank_account' => '',
  'ogrn' => '',
  'postal_address' => '',
  'country' => 'Россия',
  'region' => '9871',
  'who' => 'Не врач',
  'yur' => 'null',
) 01.11.2018 11:38
array (
  'alldata' => '',
  'regularprice' => '12000',
  'file' => '',
  'events' => '1877',
  'email' => 'rumiancev_pavel@mail.ru',
  'password' => '',
  'password2' => '',
  'lname' => 'Румянцев',
  'fname' => 'Павел',
  'father_name' => 'Иванович',
  'phone' => ' 79213124007',
  'city' => 'СПб',
  'company' => 'Ормко',
  'yurname' => '',
  'fio_rukovoditelya' => '',
  'dolzhnost' => '',
  'contact_person' => '',
  'yuremail' => '',
  'phone_number' => '',
  'fax' => '',
  'inn' => '',
  'kpp' => '',
  'account' => '',
  'bik' => '',
  'bank_account' => '',
  'ogrn' => '',
  'postal_address' => '',
  'country' => 'Россия',
  'region' => '9871',
  'who' => 'Не врач',
  'yur' => 'null',
) 01.11.2018 11:40
array (
  'alldata' => '',
  'regularprice' => '12000',
  'file' => '',
  'events' => '1877',
  'email' => 'rumiancev_pavel@mail.ru',
  'password' => '',
  'password2' => '',
  'lname' => 'Румянцев',
  'fname' => 'Павел',
  'father_name' => 'Иванович',
  'phone' => ' 79213124007',
  'city' => 'СПб',
  'company' => 'Ормко',
  'yurname' => '',
  'fio_rukovoditelya' => '',
  'dolzhnost' => '',
  'contact_person' => '',
  'yuremail' => '',
  'phone_number' => '',
  'fax' => '',
  'inn' => '',
  'kpp' => '',
  'account' => '',
  'bik' => '',
  'bank_account' => '',
  'ogrn' => '',
  'postal_address' => '',
  'country' => 'Россия',
  'region' => '9871',
  'who' => 'Не врач',
  'yur' => 'null',
) 01.11.2018 11:42
array (
  'alldata' => '',
  'regularprice' => '12000',
  'file' => '',
  'events' => '1877',
  'email' => 'st@insday.ru',
  'password' => '',
  'password2' => '',
  'lname' => 'Таран',
  'fname' => 'Сергей',
  'father_name' => 'Борисович',
  'phone' => '321654987',
  'city' => 'СПб',
  'company' => 'saddf',
  'yurname' => '',
  'fio_rukovoditelya' => '',
  'dolzhnost' => '',
  'contact_person' => '',
  'yuremail' => '',
  'phone_number' => '',
  'fax' => '',
  'inn' => '',
  'kpp' => '',
  'account' => '',
  'bik' => '',
  'bank_account' => '',
  'ogrn' => '',
  'postal_address' => '',
  'country' => 'Россия',
  'region' => '9871',
  'who' => 'Не врач',
  'yur' => 'null',
) 01.11.2018 11:46
array (
  'alldata' => '',
  'regularprice' => '12000',
  'file' => '',
  'events' => '1877',
  'email' => 'st@insday.ru',
  'password' => '',
  'password2' => '',
  'lname' => 'Таран',
  'fname' => 'Сергей',
  'father_name' => 'Борисович',
  'phone' => '321654987',
  'city' => 'СПб',
  'company' => 'saddf',
  'yurname' => '',
  'fio_rukovoditelya' => '',
  'dolzhnost' => '',
  'contact_person' => '',
  'yuremail' => '',
  'phone_number' => '',
  'fax' => '',
  'inn' => '',
  'kpp' => '',
  'account' => '',
  'bik' => '',
  'bank_account' => '',
  'ogrn' => '',
  'postal_address' => '',
  'country' => 'Россия',
  'region' => '9871',
  'who' => 'Не врач',
  'yur' => 'null',
) 01.11.2018 11:46
array (
  'alldata' => '',
  'regularprice' => '50000',
  'file' => '',
  'events' => '1877',
  'email' => 'st@insday.ru',
  'password' => '',
  'password2' => '',
  'lname' => 'Таран',
  'fname' => 'Сергей',
  'father_name' => 'Борисович',
  'phone' => '321654987',
  'city' => 'СПб',
  'company' => 'saddf',
  'yurname' => '',
  'fio_rukovoditelya' => '',
  'dolzhnost' => '',
  'contact_person' => '',
  'yuremail' => '',
  'phone_number' => '',
  'fax' => '',
  'inn' => '',
  'kpp' => '',
  'account' => '',
  'bik' => '',
  'bank_account' => '',
  'ogrn' => '',
  'postal_address' => '',
  'country' => 'Россия',
  'region' => '9871',
  'who' => 'Не врач',
  'yur' => 'null',
) 01.11.2018 11:50
array (
  'alldata' => '',
  'regularprice' => '50000',
  'finalprice' => '50000',
  'file' => '',
  'events' => '1877',
  'email' => 'st@insday.ru',
  'password' => '',
  'password2' => '',
  'lname' => 'Таран',
  'fname' => 'Сергей',
  'father_name' => 'Борисович',
  'phone' => '321654987',
  'city' => 'СПб',
  'company' => 'saddf',
  'yurname' => '',
  'fio_rukovoditelya' => '',
  'dolzhnost' => '',
  'contact_person' => '',
  'yuremail' => '',
  'phone_number' => '',
  'fax' => '',
  'inn' => '',
  'kpp' => '',
  'account' => '',
  'bik' => '',
  'bank_account' => '',
  'ogrn' => '',
  'postal_address' => '',
  'country' => 'Россия',
  'region' => '9871',
  'who' => 'Не врач',
  'yur' => 'null',
) 01.11.2018 11:53
array (
  'alldata' => '',
  'regularprice' => '50000',
  'finalprice' => '50000',
  'file' => '',
  'events' => '1877',
  'email' => 'rumiancev_pavel@mail.ru',
  'password' => '',
  'password2' => '',
  'lname' => 'Румянцев',
  'fname' => 'Павел',
  'father_name' => 'Иванович',
  'phone' => ' 79213124007',
  'city' => 'СПб',
  'company' => 'Ормко',
  'yurname' => '',
  'fio_rukovoditelya' => '',
  'dolzhnost' => '',
  'contact_person' => '',
  'yuremail' => '',
  'phone_number' => '',
  'fax' => '',
  'inn' => '',
  'kpp' => '',
  'account' => '',
  'bik' => '',
  'bank_account' => '',
  'ogrn' => '',
  'postal_address' => '',
  'country' => 'Россия',
  'region' => '9871',
  'who' => 'Не врач',
  'yur' => 'null',
) 01.11.2018 11:56
array (
  'alldata' => '',
  'regularprice' => '50000',
  'finalprice' => '50000',
  'file' => '',
  'events' => '1877',
  'email' => 'info@umihelp.ru',
  'password' => '',
  'password2' => '',
  'lname' => 'testSoname',
  'fname' => 'testName',
  'father_name' => 'testfn ',
  'phone' => ' 7 (911) 0240962',
  'city' => 'СПб',
  'company' => 'test',
  'yurname' => '',
  'fio_rukovoditelya' => '',
  'dolzhnost' => '',
  'contact_person' => '',
  'yuremail' => '',
  'phone_number' => '',
  'fax' => '',
  'inn' => '',
  'kpp' => '',
  'account' => '',
  'bik' => '',
  'bank_account' => '',
  'ogrn' => '',
  'postal_address' => '',
  'country' => 'Россия',
  'region' => '9871',
  'who' => 'Ортодонт',
  'yur' => '5038',
) 01.11.2018 12:11
array (
  'alldata' => '',
  'regularprice' => '50000',
  'finalprice' => '50000',
  'file' => '',
  'events' => '1877',
  'email' => 'info@umihelp.ru',
  'password' => '',
  'password2' => '',
  'lname' => 'testSoname',
  'fname' => 'testName',
  'father_name' => 'testfn ',
  'phone' => ' 7 (911) 0240962',
  'city' => 'СПб',
  'company' => 'test',
  'yurname' => '',
  'fio_rukovoditelya' => '',
  'dolzhnost' => '',
  'contact_person' => '',
  'yuremail' => '',
  'phone_number' => '',
  'fax' => '',
  'inn' => '',
  'kpp' => '',
  'account' => '',
  'bik' => '',
  'bank_account' => '',
  'ogrn' => '',
  'postal_address' => '',
  'country' => 'Россия',
  'region' => '9871',
  'who' => 'Ортодонт',
  'yur' => '5038',
) 01.11.2018 12:12
array (
  'alldata' => '',
  'regularprice' => '50000',
  'finalprice' => '50000',
  'file' => '',
  'events' => '1877',
  'payment_id' => '4664',
  'email' => 'rumiancev_pavel@mail.ru',
  'password' => '',
  'password2' => '',
  'lname' => 'Румянцев',
  'fname' => 'Павел',
  'father_name' => 'Иванович',
  'phone' => ' 79213124007',
  'city' => 'СПб',
  'company' => 'Ормко',
  'yurname' => '',
  'fio_rukovoditelya' => '',
  'dolzhnost' => '',
  'contact_person' => '',
  'yuremail' => '',
  'phone_number' => '',
  'fax' => '',
  'inn' => '',
  'kpp' => '',
  'account' => '',
  'bik' => '',
  'bank_account' => '',
  'ogrn' => '',
  'postal_address' => '',
  'country' => 'Россия',
  'region' => '9871',
  'who' => 'Не врач',
  'yur' => 'null',
) 01.11.2018 12:27
array (
  'alldata' => '',
  'regularprice' => '50000',
  'finalprice' => '50000',
  'file' => '',
  'events' => '1877',
  'payment_id' => '4663',
  'email' => 'rumiancev_pavel@mail.ru',
  'password' => '',
  'password2' => '',
  'lname' => 'Румянцев',
  'fname' => 'Павел',
  'father_name' => 'Иванович',
  'phone' => ' 79213124007',
  'city' => 'СПб',
  'company' => 'Ормко',
  'yurname' => '',
  'fio_rukovoditelya' => '',
  'dolzhnost' => '',
  'contact_person' => '',
  'yuremail' => '',
  'phone_number' => '',
  'fax' => '',
  'inn' => '',
  'kpp' => '',
  'account' => '',
  'bik' => '',
  'bank_account' => '',
  'ogrn' => '',
  'postal_address' => '',
  'country' => 'Россия',
  'region' => '9871',
  'who' => 'Не врач',
  'yur' => 'null',
) 01.11.2018 12:32
array (
  'alldata' => '',
  'regularprice' => '50000',
  'finalprice' => '50000',
  'file' => '',
  'events' => '1877',
  'payment_id' => '4664',
  'email' => 'st@insday.ru',
  'password' => '',
  'password2' => '',
  'lname' => 'Таран',
  'fname' => 'Сергей',
  'father_name' => 'Борисович',
  'phone' => '321654987',
  'city' => 'СПб',
  'company' => 'saddf',
  'yurname' => '',
  'fio_rukovoditelya' => '',
  'dolzhnost' => '',
  'contact_person' => '',
  'yuremail' => '',
  'phone_number' => '',
  'fax' => '',
  'inn' => '',
  'kpp' => '',
  'account' => '',
  'bik' => '',
  'bank_account' => '',
  'ogrn' => '',
  'postal_address' => '',
  'country' => 'Россия',
  'region' => '9871',
  'who' => 'Не врач',
  'yur' => 'null',
) 01.11.2018 12:32
array (
  'alldata' => '',
  'regularprice' => '50000',
  'finalprice' => '50000',
  'file' => '',
  'events' => '1877',
  'email' => 'rumiancev_pavel@mail.ru',
  'password' => '',
  'password2' => '',
  'lname' => 'Румянцев',
  'fname' => 'Павел',
  'father_name' => 'Иванович',
  'phone' => ' 79213124007',
  'city' => 'СПб',
  'company' => 'Ормко',
  'yurname' => '',
  'fio_rukovoditelya' => '',
  'dolzhnost' => '',
  'contact_person' => '',
  'yuremail' => '',
  'phone_number' => '',
  'fax' => '',
  'inn' => '',
  'kpp' => '',
  'account' => '',
  'bik' => '',
  'bank_account' => '',
  'ogrn' => '',
  'postal_address' => '',
  'country' => 'Россия',
  'region' => '9871',
  'who' => 'Не врач',
  'payment_id' => '17688',
  'yur' => 'null',
) 01.11.2018 12:37
array (
  'alldata' => '',
  'regularprice' => '50000',
  'finalprice' => '50000',
  'file' => '',
  'events' => '1877',
  'email' => 'spetsakov@gmail.com',
  'password' => '',
  'password2' => '',
  'lname' => 'Спецаков',
  'fname' => 'Дмитрий',
  'father_name' => 'Анатольевич',
  'phone' => ' 7 (921) 301-6796',
  'city' => 'Санкт-Петербург',
  'company' => 'ГПЦ ПАКС',
  'yurname' => '',
  'fio_rukovoditelya' => '',
  'dolzhnost' => '',
  'contact_person' => '',
  'yuremail' => '',
  'phone_number' => '',
  'fax' => '',
  'inn' => '',
  'kpp' => '',
  'account' => '',
  'bik' => '',
  'bank_account' => '',
  'ogrn' => '',
  'postal_address' => '',
  'country' => 'Россия',
  'region' => '9871',
  'who' => 'Ортодонт',
  'payment_id' => '4664',
  'yur' => 'null',
) 01.11.2018 12:56
array (
  'alldata' => '',
  'regularprice' => '50000',
  'finalprice' => '50000',
  'file' => '',
  'events' => '1877',
  'email' => 'max.343@mail.ru',
  'password' => '',
  'password2' => '',
  'lname' => 'Кроливец',
  'fname' => 'Максим',
  'father_name' => 'Юрьевич ',
  'phone' => ' 7 (904) 5487094',
  'city' => 'Санкт-Петербург',
  'company' => 'Стоматологический центр  города ',
  'yurname' => '',
  'fio_rukovoditelya' => '',
  'dolzhnost' => '',
  'contact_person' => '',
  'yuremail' => '',
  'phone_number' => '',
  'fax' => '',
  'inn' => '',
  'kpp' => '',
  'account' => '',
  'bik' => '',
  'bank_account' => '',
  'ogrn' => '',
  'postal_address' => '',
  'country' => 'Россия',
  'region' => '9871',
  'who' => 'Ортодонт',
  'payment_id' => '17688',
  'yur' => 'null',
) 01.11.2018 12:56
array (
  'alldata' => '',
  'regularprice' => '50000',
  'finalprice' => '50000',
  'file' => '',
  'events' => '1877',
  'email' => 'tatana7@bk.ru',
  'password' => '',
  'password2' => '',
  'lname' => 'Никифорова',
  'fname' => 'Татьяна',
  'father_name' => 'Викторовна',
  'phone' => ' 7',
  'city' => 'Сургут',
  'company' => 'госпожа',
  'yurname' => '',
  'fio_rukovoditelya' => '',
  'dolzhnost' => '',
  'contact_person' => '',
  'yuremail' => '',
  'phone_number' => '',
  'fax' => '',
  'inn' => '',
  'kpp' => '',
  'account' => '',
  'bik' => '',
  'bank_account' => '',
  'ogrn' => '',
  'postal_address' => '',
  'country' => 'Россия',
  'region' => '9878',
  'who' => 'Ортодонт',
  'payment_id' => '17688',
  'yur' => 'null',
) 01.11.2018 13:06
array (
  'alldata' => '',
  'regularprice' => '50000',
  'finalprice' => '50000',
  'file' => '',
  'events' => '1877',
  'email' => 'Petrrovich-1993@yandex.ru',
  'password' => '',
  'password2' => '',
  'lname' => 'Новосельцев',
  'fname' => 'Иван',
  'father_name' => 'Петрович',
  'phone' => ' 7 (960) 877-2412',
  'city' => 'Волгоград',
  'company' => 'Ольга',
  'yurname' => 'ООО "Ольга-С"',
  'fio_rukovoditelya' => 'Черняева Ольга Семеновна',
  'dolzhnost' => 'директор',
  'contact_person' => '',
  'yuremail' => 'olgadentt@yandex.ru',
  'phone_number' => ' 78442297029',
  'fax' => '',
  'inn' => '3446014302',
  'kpp' => '344401001',
  'account' => '40702810300000002242',
  'bik' => '041806791',
  'bank_account' => '30101810700000000791',
  'ogrn' => '',
  'postal_address' => '400131',
  'country' => 'Россия',
  'region' => '9876',
  'who' => 'Ортодонт',
  'payment_id' => '4666',
  'yur' => '338690',
) 01.11.2018 13:09
array (
  'alldata' => '',
  'regularprice' => '50000',
  'finalprice' => '50000',
  'file' => '',
  'events' => '1877',
  'email' => 'dentkraft@yandex.ru',
  'password' => '',
  'password2' => '',
  'lname' => 'Витман',
  'fname' => 'Инна',
  'father_name' => 'Владимировна',
  'phone' => ' 7 (908) 2185753',
  'city' => 'Красноярск',
  'company' => 'ООО ДентКрафт',
  'yurname' => '',
  'fio_rukovoditelya' => '',
  'dolzhnost' => '',
  'contact_person' => '',
  'yuremail' => '',
  'phone_number' => '',
  'fax' => '',
  'inn' => '',
  'kpp' => '',
  'account' => '',
  'bik' => '',
  'bank_account' => '',
  'ogrn' => '',
  'postal_address' => '',
  'country' => 'Россия',
  'region' => '9874',
  'who' => 'Ортодонт',
  'payment_id' => '',
  'yur' => '337840',
) 01.11.2018 13:10
array (
  'alldata' => '',
  'regularprice' => '50000',
  'finalprice' => '50000',
  'file' => '',
  'events' => '1877',
  'email' => 'kurchatova.nata@mail.ru',
  'password' => '',
  'password2' => '',
  'lname' => 'Суздальницкая',
  'fname' => 'Лариса',
  'father_name' => 'Валентиновна',
  'phone' => ' 7 (908) 2185753',
  'city' => 'Красноярск',
  'company' => 'ООО ДентКрафт',
  'yurname' => '',
  'fio_rukovoditelya' => '',
  'dolzhnost' => '',
  'contact_person' => '',
  'yuremail' => '',
  'phone_number' => '',
  'fax' => '',
  'inn' => '',
  'kpp' => '',
  'account' => '',
  'bik' => '',
  'bank_account' => '',
  'ogrn' => '',
  'postal_address' => '',
  'country' => 'Россия',
  'region' => '9874',
  'who' => 'Ортодонт',
  'payment_id' => '',
  'yur' => '337965',
) 01.11.2018 13:11
array (
  'alldata' => '',
  'regularprice' => '50000',
  'finalprice' => '50000',
  'file' => '',
  'events' => '1877',
  'email' => 'yuliyaordinator@mail.ru',
  'password' => '',
  'password2' => '',
  'lname' => 'САфронова',
  'fname' => 'Юлия',
  'father_name' => 'Александровна',
  'phone' => ' 7 (906) 0433460',
  'city' => 'Москва',
  'company' => 'Цниис',
  'yurname' => '',
  'fio_rukovoditelya' => '',
  'dolzhnost' => '',
  'contact_person' => '',
  'yuremail' => '',
  'phone_number' => '',
  'fax' => '',
  'inn' => '',
  'kpp' => '',
  'account' => '',
  'bik' => '',
  'bank_account' => '',
  'ogrn' => '',
  'postal_address' => '',
  'country' => 'Россия',
  'region' => '9873',
  'who' => 'Ортодонт',
  'payment_id' => '4663',
  'yur' => 'null',
) 01.11.2018 13:47
array (
  'alldata' => '',
  'regularprice' => '50000',
  'finalprice' => '50000',
  'file' => '',
  'events' => '1877',
  'email' => 'spbpetrova@yandex.ru',
  'password' => '',
  'password2' => '',
  'lname' => 'Петрова',
  'fname' => 'Наталья',
  'father_name' => 'Петровна',
  'phone' => ' 79119739525',
  'city' => 'Санкт-Петербург',
  'company' => 'ООО Омегадентал',
  'yurname' => '',
  'fio_rukovoditelya' => '',
  'dolzhnost' => '',
  'contact_person' => '',
  'yuremail' => '',
  'phone_number' => '',
  'fax' => '',
  'inn' => '',
  'kpp' => '',
  'account' => '',
  'bik' => '',
  'bank_account' => '',
  'ogrn' => '',
  'postal_address' => '',
  'country' => 'Россия',
  'region' => '9871',
  'who' => 'Ортодонт',
  'payment_id' => '4664',
  'yur' => 'null',
) 01.11.2018 13:51
array (
  'alldata' => '',
  'regularprice' => '50000',
  'finalprice' => '50000',
  'file' => '',
  'events' => '1877',
  'email' => 'yana.diachkova@gmail.com',
  'password' => '',
  'password2' => '',
  'lname' => 'Дьячкова',
  'fname' => 'Яна',
  'father_name' => 'Юрьевна',
  'phone' => '  79150045183',
  'city' => 'Москва',
  'company' => 'ЦПС',
  'yurname' => '',
  'fio_rukovoditelya' => '',
  'dolzhnost' => '',
  'contact_person' => '',
  'yuremail' => '',
  'phone_number' => '',
  'fax' => '',
  'inn' => '',
  'kpp' => '',
  'account' => '',
  'bik' => '',
  'bank_account' => '',
  'ogrn' => '',
  'postal_address' => '',
  'country' => 'Россия',
  'region' => '9870',
  'who' => 'Ортодонт',
  'payment_id' => '4664',
  'yur' => 'null',
) 01.11.2018 13:56
array (
  'alldata' => '',
  'regularprice' => '50000',
  'finalprice' => '50000',
  'file' => '',
  'events' => '1877',
  'email' => 'ynchevska@mail.ru',
  'password' => '',
  'password2' => '',
  'lname' => 'Янчевская',
  'fname' => 'Елена',
  'father_name' => 'Эдуардовна',
  'phone' => ' 7 (911) 908-1080',
  'city' => 'Санкт- Петербург',
  'company' => 'Пандент',
  'yurname' => '',
  'fio_rukovoditelya' => '',
  'dolzhnost' => '',
  'contact_person' => '',
  'yuremail' => '',
  'phone_number' => '',
  'fax' => '',
  'inn' => '',
  'kpp' => '',
  'account' => '',
  'bik' => '',
  'bank_account' => '',
  'ogrn' => '',
  'postal_address' => '',
  'country' => 'null',
  'region' => '9871',
  'who' => 'Ортодонт',
  'payment_id' => '4664',
  'yur' => 'null',
) 01.11.2018 14:03
array (
  'alldata' => '',
  'regularprice' => '50000',
  'finalprice' => '50000',
  'file' => '',
  'events' => '1877',
  'email' => '2974651ok@mail.ru',
  'password' => 'Osx61l',
  'password2' => '',
  'lname' => 'Серебрякова',
  'fname' => 'Ольга',
  'father_name' => 'Ивановна',
  'phone' => ' 79233786064',
  'city' => 'Красноярск',
  'company' => 'ООО Ортодонтический кабинет ',
  'yurname' => 'ООО "Ортодонтический кабинет"',
  'fio_rukovoditelya' => 'Серебрякова Ольга Ивановна',
  'dolzhnost' => 'директор',
  'contact_person' => 'Ермолаева Лариса Владимировна',
  'yuremail' => '2974651ok@mail.ru',
  'phone_number' => '8 923 378 6064',
  'fax' => '',
  'inn' => '2465303675',
  'kpp' => '246501001',
  'account' => '40702810931000097088',
  'bik' => '040407627',
  'bank_account' => '30101810000000000702',
  'ogrn' => '1132468065730',
  'postal_address' => '2974651ok@mail.ru',
  'country' => 'Россия',
  'region' => '9874',
  'who' => 'Ортодонт',
  'payment_id' => '',
  'yur' => 'null',
) 01.11.2018 14:15
array (
  'alldata' => '',
  'regularprice' => '50000',
  'finalprice' => '50000',
  'file' => '',
  'events' => '1877',
  'email' => 'notabenenbnb@gmail.com',
  'password' => '',
  'password2' => '',
  'lname' => 'Лобанова',
  'fname' => 'Анастасия',
  'father_name' => 'Андреевна',
  'phone' => ' 7 (911) 9093757',
  'city' => 'Санкт-Петербург',
  'company' => 'Ортодонтическая студия Леонида Горбунова',
  'yurname' => '',
  'fio_rukovoditelya' => '',
  'dolzhnost' => '',
  'contact_person' => '',
  'yuremail' => '',
  'phone_number' => '',
  'fax' => '',
  'inn' => '',
  'kpp' => '',
  'account' => '',
  'bik' => '',
  'bank_account' => '',
  'ogrn' => '',
  'postal_address' => '',
  'country' => 'Россия',
  'region' => '9871',
  'who' => 'Ортодонт',
  'payment_id' => '17688',
  'yur' => '77318',
) 01.11.2018 14:44
array (
  'alldata' => '',
  'regularprice' => '50000',
  'finalprice' => '50000',
  'file' => '',
  'events' => '1877',
  'email' => 'tretyakova_katya@mail.ru',
  'password' => '',
  'password2' => '',
  'lname' => 'Павлова',
  'fname' => 'Екатерина',
  'father_name' => 'Александровна',
  'phone' => ' 7 (982) 9191013',
  'city' => 'Тюмень',
  'company' => 'ООО "Дентал-Люкс" ',
  'yurname' => '',
  'fio_rukovoditelya' => '',
  'dolzhnost' => '',
  'contact_person' => '',
  'yuremail' => '',
  'phone_number' => '',
  'fax' => '',
  'inn' => '',
  'kpp' => '',
  'account' => '',
  'bik' => '',
  'bank_account' => '',
  'ogrn' => '',
  'postal_address' => '',
  'country' => 'Россия',
  'region' => '9878',
  'who' => 'Ортодонт',
  'payment_id' => '4666',
  'yur' => 'null',
) 01.11.2018 20:43
array (
  'alldata' => '',
  'regularprice' => '50000',
  'finalprice' => '50000',
  'file' => '',
  'events' => '1877',
  'email' => '2974651ok@mail.ru',
  'password' => '',
  'password2' => '',
  'lname' => 'Серебрякова',
  'fname' => 'Ольга',
  'father_name' => 'Ивановна',
  'phone' => ' 79233786064',
  'city' => 'Красноярск',
  'company' => 'ООО Ортодонтический кабинет ',
  'yurname' => '',
  'fio_rukovoditelya' => '',
  'dolzhnost' => '',
  'contact_person' => '',
  'yuremail' => '',
  'phone_number' => '',
  'fax' => '',
  'inn' => '',
  'kpp' => '',
  'account' => '',
  'bik' => '',
  'bank_account' => '',
  'ogrn' => '',
  'postal_address' => '',
  'country' => 'Россия',
  'region' => '9874',
  'who' => 'Ортодонт',
  'payment_id' => '',
  'yur' => 'null',
) 02.11.2018 05:26
array (
  'alldata' => '',
  'regularprice' => '50000',
  'finalprice' => '50000',
  'file' => '',
  'events' => '1877',
  'email' => '2974651ok@mail.ru',
  'password' => '',
  'password2' => '',
  'lname' => 'Серебрякова',
  'fname' => 'Ольга',
  'father_name' => 'Ивановна',
  'phone' => ' 79233786064',
  'city' => 'Красноярск',
  'company' => 'ООО Ортодонтический кабинет ',
  'yurname' => '',
  'fio_rukovoditelya' => '',
  'dolzhnost' => '',
  'contact_person' => '',
  'yuremail' => '',
  'phone_number' => '',
  'fax' => '',
  'inn' => '',
  'kpp' => '',
  'account' => '',
  'bik' => '',
  'bank_account' => '',
  'ogrn' => '',
  'postal_address' => '',
  'country' => 'Россия',
  'region' => '9874',
  'who' => 'Ортодонт',
  'payment_id' => '4666',
  'yur' => 'null',
) 02.11.2018 05:30
array (
  'alldata' => '',
  'regularprice' => '50000',
  'finalprice' => '50000',
  'file' => '',
  'events' => '1877',
  'email' => 'fan301072@yandex.ru',
  'password' => '',
  'password2' => '',
  'lname' => 'Осьмуха ',
  'fname' => 'Ульяна ',
  'father_name' => 'Геннадьевна ',
  'phone' => '79517751525',
  'city' => 'Снежинск',
  'company' => 'ЦМСЧ 15 ФМБА России ',
  'yurname' => '',
  'fio_rukovoditelya' => '',
  'dolzhnost' => '',
  'contact_person' => '',
  'yuremail' => '',
  'phone_number' => '',
  'fax' => '',
  'inn' => '',
  'kpp' => '',
  'account' => '',
  'bik' => '',
  'bank_account' => '',
  'ogrn' => '',
  'postal_address' => '',
  'country' => 'Россия',
  'region' => '9878',
  'who' => 'Ортодонт',
  'payment_id' => '17688',
  'yur' => 'null',
) 02.11.2018 05:38
array (
  'alldata' => '',
  'regularprice' => '50000',
  'finalprice' => '50000',
  'file' => '',
  'events' => '1877',
  'email' => '2974651ok@mail.ru',
  'password' => '',
  'password2' => '',
  'lname' => 'Серебрякова',
  'fname' => 'Ольга',
  'father_name' => 'Ивановна',
  'phone' => '79233786064',
  'city' => 'Красноярск',
  'company' => 'ООО Ортодонтический кабинет ',
  'yurname' => '',
  'fio_rukovoditelya' => '',
  'dolzhnost' => '',
  'contact_person' => '',
  'yuremail' => '',
  'phone_number' => '',
  'fax' => '',
  'inn' => '',
  'kpp' => '',
  'account' => '',
  'bik' => '',
  'bank_account' => '',
  'ogrn' => '',
  'postal_address' => '',
  'country' => 'Россия',
  'region' => '9874',
  'who' => 'Ортодонт',
  'payment_id' => '',
  'yur' => 'null',
) 02.11.2018 05:51
array (
  'alldata' => '',
  'regularprice' => '50000',
  'finalprice' => '50000',
  'file' => '',
  'events' => '1877',
  'email' => 'bell24@ngs.ru',
  'password' => '',
  'password2' => '',
  'lname' => 'Скурихина',
  'fname' => 'Валерия',
  'father_name' => 'Сергеевна',
  'phone' => ' 7 (913) 9494641',
  'city' => 'Новосибирск г',
  'company' => 'НГМУ',
  'yurname' => '',
  'fio_rukovoditelya' => '',
  'dolzhnost' => '',
  'contact_person' => '',
  'yuremail' => '',
  'phone_number' => '',
  'fax' => '',
  'inn' => '',
  'kpp' => '',
  'account' => '',
  'bik' => '',
  'bank_account' => '',
  'ogrn' => '',
  'postal_address' => '',
  'country' => 'Россия',
  'region' => '9874',
  'who' => 'Ортодонт',
  'payment_id' => '17688',
  'yur' => 'null',
) 02.11.2018 06:42
array (
  'alldata' => '',
  'regularprice' => '50000',
  'finalprice' => '50000',
  'file' => '',
  'events' => '1877',
  'email' => 'dr.denisova@mail.ru',
  'password' => '',
  'password2' => '',
  'lname' => 'Денисова',
  'fname' => 'Александра',
  'father_name' => 'Алексеевна',
  'phone' => ' 7 (906) 338-9116',
  'city' => 'Самара',
  'company' => 'ГБУЗ СО СГСП 1',
  'yurname' => '',
  'fio_rukovoditelya' => '',
  'dolzhnost' => '',
  'contact_person' => '',
  'yuremail' => '',
  'phone_number' => '',
  'fax' => '',
  'inn' => '',
  'kpp' => '',
  'account' => '',
  'bik' => '',
  'bank_account' => '',
  'ogrn' => '',
  'postal_address' => '',
  'country' => 'Россия',
  'region' => '9875',
  'who' => 'Ортодонт',
  'payment_id' => '4663',
  'yur' => 'null',
) 02.11.2018 07:09
array (
  'alldata' => '',
  'regularprice' => '50000',
  'finalprice' => '50000',
  'file' => '',
  'events' => '1877',
  'email' => '2974651ok@mail.ru',
  'password' => '',
  'password2' => '',
  'lname' => 'Серебрякова',
  'fname' => 'Ольга',
  'father_name' => 'Ивановна',
  'phone' => '89082102572',
  'city' => 'Красноярск',
  'company' => 'ООО Ортодонтический кабинет ',
  'yurname' => '',
  'fio_rukovoditelya' => '',
  'dolzhnost' => '',
  'contact_person' => '',
  'yuremail' => '',
  'phone_number' => '',
  'fax' => '',
  'inn' => '',
  'kpp' => '',
  'account' => '',
  'bik' => '',
  'bank_account' => '',
  'ogrn' => '',
  'postal_address' => '',
  'country' => 'Россия',
  'region' => '9874',
  'who' => 'Ортодонт',
  'payment_id' => '',
  'yur' => 'null',
) 02.11.2018 08:58
array (
  'alldata' => '',
  'regularprice' => '50000',
  'finalprice' => '50000',
  'file' => '',
  'events' => '1877',
  'email' => '2974651ok@mail.ru',
  'password' => '',
  'password2' => '',
  'lname' => 'Серебрякова',
  'fname' => 'Ольга',
  'father_name' => 'Ивановна',
  'phone' => '89082102572',
  'city' => 'Красноярск',
  'company' => 'ООО Ортодонтический кабинет ',
  'yurname' => '',
  'fio_rukovoditelya' => '',
  'dolzhnost' => '',
  'contact_person' => '',
  'yuremail' => '',
  'phone_number' => '',
  'fax' => '',
  'inn' => '',
  'kpp' => '',
  'account' => '',
  'bik' => '',
  'bank_account' => '',
  'ogrn' => '',
  'postal_address' => '',
  'country' => 'Россия',
  'region' => '9874',
  'who' => 'Ортодонт',
  'payment_id' => '4666',
  'yur' => 'null',
) 02.11.2018 09:25
array (
  'alldata' => '',
  'regularprice' => '50000',
  'finalprice' => '50000',
  'file' => '',
  'events' => '1877',
  'email' => 'Belle-julie@yandex.ru',
  'password' => '',
  'password2' => '',
  'lname' => 'Мостовых',
  'fname' => 'Юлия',
  'father_name' => 'Викторовна',
  'phone' => ' 7 (965) 145-8500',
  'city' => 'Москва',
  'company' => 'Продент',
  'yurname' => '',
  'fio_rukovoditelya' => '',
  'dolzhnost' => '',
  'contact_person' => '',
  'yuremail' => '',
  'phone_number' => '',
  'fax' => '',
  'inn' => '',
  'kpp' => '',
  'account' => '',
  'bik' => '',
  'bank_account' => '',
  'ogrn' => '',
  'postal_address' => '',
  'country' => 'Россия',
  'region' => '9870',
  'who' => 'Ортодонт',
  'payment_id' => '17688',
  'yur' => 'null',
) 02.11.2018 16:27
array (
  'alldata' => '',
  'regularprice' => '50000',
  'finalprice' => '50000',
  'file' => '',
  'events' => '1877',
  'email' => 'dental_tmn@list.ru',
  'password' => '',
  'password2' => '',
  'lname' => 'Павлова ',
  'fname' => 'Екатерина',
  'father_name' => 'Александровна',
  'phone' => ' 7(3452)643660',
  'city' => 'Тюмень',
  'company' => 'ООО "Дентал-Люкс"',
  'yurname' => '',
  'fio_rukovoditelya' => '',
  'dolzhnost' => '',
  'contact_person' => '',
  'yuremail' => '',
  'phone_number' => '',
  'fax' => '',
  'inn' => '',
  'kpp' => '',
  'account' => '',
  'bik' => '',
  'bank_account' => '',
  'ogrn' => '',
  'postal_address' => '',
  'country' => 'Россия',
  'region' => '9878',
  'who' => 'Ортодонт',
  'payment_id' => '',
  'yur' => '33524',
) 02.11.2018 16:38
array (
  'alldata' => '',
  'regularprice' => '50000',
  'finalprice' => '50000',
  'file' => '',
  'events' => '1877',
  'email' => 'neyast@gmail.com',
  'password' => '',
  'password2' => '',
  'lname' => 'Иванов',
  'fname' => 'Алексей',
  'father_name' => 'Анатольевич',
  'phone' => ' 79219770074',
  'city' => 'Санкт-Петербург',
  'company' => 'Полный порядок',
  'yurname' => '',
  'fio_rukovoditelya' => '',
  'dolzhnost' => '',
  'contact_person' => '',
  'yuremail' => '',
  'phone_number' => '',
  'fax' => '',
  'inn' => '',
  'kpp' => '',
  'account' => '',
  'bik' => '',
  'bank_account' => '',
  'ogrn' => '',
  'postal_address' => '',
  'country' => 'Россия',
  'region' => '9871',
  'who' => 'Ортодонт',
  'payment_id' => '',
  'yur' => '54076',
) 02.11.2018 17:18
array (
  'alldata' => '',
  'regularprice' => '50000',
  'finalprice' => '50000',
  'file' => '',
  'events' => '1877',
  'email' => 'kisly09@mail.ru',
  'password' => '',
  'password2' => '',
  'lname' => 'Чомаев',
  'fname' => 'Расул',
  'father_name' => 'Алиевич',
  'phone' => '89313717141',
  'city' => 'санкт-петербург',
  'company' => 'Гала дент',
  'yurname' => '',
  'fio_rukovoditelya' => '',
  'dolzhnost' => '',
  'contact_person' => '',
  'yuremail' => '',
  'phone_number' => '',
  'fax' => '',
  'inn' => '',
  'kpp' => '',
  'account' => '',
  'bik' => '',
  'bank_account' => '',
  'ogrn' => '',
  'postal_address' => '',
  'country' => 'null',
  'region' => '9871',
  'who' => 'Ортодонт',
  'payment_id' => '',
  'yur' => 'null',
) 02.11.2018 22:50
array (
  'alldata' => '',
  'regularprice' => '50000',
  'finalprice' => '50000',
  'file' => '',
  'events' => '1877',
  'email' => 'Lubow.ru@mail.ru',
  'password' => '',
  'password2' => '',
  'lname' => 'Майорова',
  'fname' => 'Любовь',
  'father_name' => 'Ивановна',
  'phone' => ' 7 (915) 9840506',
  'city' => 'Ярославль',
  'company' => 'Гута дент',
  'yurname' => '',
  'fio_rukovoditelya' => '',
  'dolzhnost' => '',
  'contact_person' => '',
  'yuremail' => '',
  'phone_number' => '',
  'fax' => '',
  'inn' => '',
  'kpp' => '',
  'account' => '',
  'bik' => '',
  'bank_account' => '',
  'ogrn' => '',
  'postal_address' => '',
  'country' => 'Россия',
  'region' => '9873',
  'who' => 'Ортодонт',
  'payment_id' => '4663',
  'yur' => 'null',
) 02.11.2018 23:59
array (
  'alldata' => '',
  'regularprice' => '50000',
  'finalprice' => '50000',
  'file' => '',
  'events' => '1877',
  'email' => 'slobodyanukna@mail.ru',
  'password' => '',
  'password2' => '',
  'lname' => 'Слободянюк',
  'fname' => 'Наталья',
  'father_name' => 'Александровна',
  'phone' => ' 7 (913) 5350863',
  'city' => 'Красноярск',
  'company' => 'КрасГМУ',
  'yurname' => '',
  'fio_rukovoditelya' => '',
  'dolzhnost' => '',
  'contact_person' => '',
  'yuremail' => '',
  'phone_number' => '',
  'fax' => '',
  'inn' => '',
  'kpp' => '',
  'account' => '',
  'bik' => '',
  'bank_account' => '',
  'ogrn' => '',
  'postal_address' => '',
  'country' => 'Россия',
  'region' => '9874',
  'who' => 'Ортодонт',
  'payment_id' => '',
  'yur' => 'null',
) 03.11.2018 07:06
array (
  'alldata' => '',
  'regularprice' => '50000',
  'finalprice' => '50000',
  'file' => '',
  'events' => '1877',
  'email' => 'dr.krylovamv@mail.ru',
  'password' => '',
  'password2' => '',
  'lname' => 'Крылова',
  'fname' => 'Маргарита',
  'father_name' => 'Викторовна',
  'phone' => '89130090367',
  'city' => 'Новосибирск',
  'company' => 'RecomenDent ',
  'yurname' => '',
  'fio_rukovoditelya' => '',
  'dolzhnost' => '',
  'contact_person' => '',
  'yuremail' => '',
  'phone_number' => '',
  'fax' => '',
  'inn' => '',
  'kpp' => '',
  'account' => '',
  'bik' => '',
  'bank_account' => '',
  'ogrn' => '',
  'postal_address' => '',
  'country' => 'null',
  'region' => '9874',
  'who' => 'Ортодонт',
  'payment_id' => '17688',
  'yur' => 'null',
) 03.11.2018 12:15
array (
  'alldata' => '',
  'regularprice' => '50000',
  'finalprice' => '50000',
  'file' => '',
  'events' => '1877',
  'email' => 'lenko.24@mail.ru',
  'password' => '',
  'password2' => '',
  'lname' => 'Попова',
  'fname' => 'Елена',
  'father_name' => 'Ивановна',
  'phone' => ' 7 (903) 9287096',
  'city' => 'Норильск',
  'company' => 'Ультрадент',
  'yurname' => '',
  'fio_rukovoditelya' => '',
  'dolzhnost' => '',
  'contact_person' => '',
  'yuremail' => '',
  'phone_number' => '',
  'fax' => '',
  'inn' => '',
  'kpp' => '',
  'account' => '',
  'bik' => '',
  'bank_account' => '',
  'ogrn' => '',
  'postal_address' => '',
  'country' => 'Россия',
  'region' => '9874',
  'who' => 'Ортодонт',
  'payment_id' => '17688',
  'yur' => 'null',
) 03.11.2018 12:21
array (
  'alldata' => '',
  'regularprice' => '50000',
  'finalprice' => '50000',
  'file' => '',
  'events' => '1877',
  'email' => 'olga.pershakova@mail.ru',
  'password' => '',
  'password2' => '',
  'lname' => 'Бажанова ',
  'fname' => 'Ольга',
  'father_name' => 'Валерьевна',
  'phone' => ' 79111692339',
  'city' => 'Санкт-Петербург',
  'company' => 'Simplex LifeDent',
  'yurname' => '',
  'fio_rukovoditelya' => '',
  'dolzhnost' => '',
  'contact_person' => '',
  'yuremail' => '',
  'phone_number' => '',
  'fax' => '',
  'inn' => '',
  'kpp' => '',
  'account' => '',
  'bik' => '',
  'bank_account' => '',
  'ogrn' => '',
  'postal_address' => '',
  'country' => 'Россия',
  'region' => '9871',
  'who' => 'Ортодонт',
  'payment_id' => '17688',
  'yur' => '30983',
) 03.11.2018 12:39
array (
  'alldata' => '',
  'regularprice' => '50000',
  'finalprice' => '50000',
  'file' => '',
  'events' => '1877',
  'email' => 'lobach69@mail.ru',
  'password' => '',
  'password2' => '',
  'lname' => 'Лобажевич',
  'fname' => 'Оксана',
  'father_name' => 'Юрьевна',
  'phone' => ' 7 (923) 4196454',
  'city' => 'Томск',
  'company' => ' Эстэт',
  'yurname' => '',
  'fio_rukovoditelya' => '',
  'dolzhnost' => '',
  'contact_person' => '',
  'yuremail' => '',
  'phone_number' => '',
  'fax' => '',
  'inn' => '',
  'kpp' => '',
  'account' => '',
  'bik' => '',
  'bank_account' => '',
  'ogrn' => '',
  'postal_address' => '',
  'country' => 'Россия',
  'region' => '9874',
  'who' => 'Ортодонт',
  'payment_id' => '17688',
  'yur' => 'null',
) 03.11.2018 12:42
array (
  'alldata' => '',
  'regularprice' => '50000',
  'finalprice' => '50000',
  'file' => '',
  'events' => '1877',
  'email' => 'stomadent_kz@mail.ru',
  'password' => '',
  'password2' => '',
  'lname' => 'Манякина ',
  'fname' => 'Алина ',
  'father_name' => 'Александровна',
  'phone' => ' 7 (705) 3201959',
  'city' => 'Калининград ',
  'company' => 'Стомадент',
  'yurname' => '',
  'fio_rukovoditelya' => '',
  'dolzhnost' => '',
  'contact_person' => '',
  'yuremail' => '',
  'phone_number' => '',
  'fax' => '',
  'inn' => '',
  'kpp' => '',
  'account' => '',
  'bik' => '',
  'bank_account' => '',
  'ogrn' => '',
  'postal_address' => '',
  'country' => 'Россия',
  'region' => '9872',
  'who' => 'Ортодонт',
  'payment_id' => '4663',
  'yur' => 'null',
) 03.11.2018 13:12
array (
  'alldata' => '',
  'regularprice' => '50000',
  'finalprice' => '50000',
  'file' => '',
  'events' => '1877',
  'email' => 'v.cydypova@mail.ru',
  'password' => '',
  'password2' => '',
  'lname' => 'Цыдыпова',
  'fname' => 'Валентина',
  'father_name' => 'Сергеевна',
  'phone' => '89240135209',
  'city' => 'Улан-Удэ',
  'company' => 'CMD',
  'yurname' => '',
  'fio_rukovoditelya' => '',
  'dolzhnost' => '',
  'contact_person' => '',
  'yuremail' => '',
  'phone_number' => '',
  'fax' => '',
  'inn' => '',
  'kpp' => '',
  'account' => '',
  'bik' => '',
  'bank_account' => '',
  'ogrn' => '',
  'postal_address' => '',
  'country' => 'Россия',
  'region' => '9874',
  'who' => 'Ортодонт',
  'payment_id' => '17688',
  'yur' => 'null',
) 03.11.2018 13:41
array (
  'alldata' => '',
  'regularprice' => '50000',
  'finalprice' => '50000',
  'file' => '',
  'events' => '1877',
  'email' => 'Engodont@mail.ru',
  'password' => '',
  'password2' => '',
  'lname' => 'Энговатова',
  'fname' => 'Елена',
  'father_name' => 'Владимировна',
  'phone' => ' 7 (903) 386-4160',
  'city' => 'Саратов',
  'company' => 'Клиника "Знакомый доктор"',
  'yurname' => 'ООО"Эдент"',
  'fio_rukovoditelya' => 'Штунь А.И.',
  'dolzhnost' => 'Главный врач',
  'contact_person' => 'Штунь Андрей Игоревич',
  'yuremail' => 'andrej-shtun@yandex.ru',
  'phone_number' => '9172077798',
  'fax' => '(8452)961122, 961126',
  'inn' => '6452084127',
  'kpp' => '645101001',
  'account' => '40702810811010021571',
  'bik' => '044525058',
  'bank_account' => '3010181045250000058',
  'ogrn' => '',
  'postal_address' => '410015',
  'country' => 'Россия',
  'region' => '9875',
  'who' => 'Ортодонт',
  'payment_id' => '',
  'yur' => '340744',
) 03.11.2018 14:31
